I
1200 Generated by WorldEditor 2.5.2r1

1    297 0 0 VYMD Mandalay Intl
1302 city Mandalay
1302 country MMR Burma
1302 datum_lat 21.701072222
1302 datum_lon 95.977455556
1302 faa_code 
1302 gui_label 3D
1302 iata_code MDL
1302 icao_code VYMD
1302 region_code VY
1302 state Mandalay Division
1302 transition_alt 6000
1302 transition_level 7500
100 60.96 1 0 0.25 1 3 0  17  21.72006146  095.97402313 0 61 3 2 0 0 35  21.68203051  095.98075322 0 61 2 1 0 0
110 2 0.00 0.0 New Taxiway 4
112  21.68434059  095.98064495  21.68443383  095.98064947
111  21.68454499  095.98086539
112  21.68476843  095.98246397  21.68478250  095.98267100
111  21.68463235  095.98270634
112  21.68280624  095.98298961  21.68270689  095.98301031
111  21.68269087  095.98292064
112  21.68241587  095.98131696  21.68237100  095.98109968
111  21.68258657  095.98094340
112  21.68208226  095.98104309  21.68204145  095.98107575
111  21.68205951  095.98119964
111  21.68251781  095.98399324
111  21.68285752  095.98633505
111  21.68318442  095.98624882
112  21.68313635  095.98586944  21.68312277  095.98571293
111  21.68320365  095.98575563
111  21.68353375  095.98594187
111  21.68368438  095.98572804
112  21.68314276  095.98529348  21.68304489  095.98524288
111  21.68300495  095.98515505
112  21.68292841  095.98477309  21.68289814  095.98454201
111  21.68296366  095.98448683
112  21.68504325  095.98414154  21.68522455  095.98411869
111  21.68533490  095.98416568
112  21.68563936  095.98437262  21.68574145  095.98443040
111  21.68578358  095.98453128
111  21.68598869  095.98468993
111  21.68603677  095.98468303
111  21.68621624  095.98434848
111  21.68600472  095.98417603
112  21.68590857  095.98418638  21.68580643  095.98417971
111  21.68588614  095.98401738
112  21.68607523  095.98398979  21.68616496  095.98399324
111  21.68617458  095.98404842
111  21.68640533  095.98400703
111  21.68634444  095.98350693
111  21.68611368  095.98356212
112  21.68586478  095.98367432  21.68570518  095.98369686
111  21.68577397  095.98362075
111  21.68587332  095.98344830
111  21.68558167  095.98321032
112  21.68540861  095.98347934  21.68533533  095.98363362
111  21.68524516  095.98345520
111  21.68521311  095.98332069
112  21.68516669  095.98298722  21.68515595  095.98290577
112  21.68516504  095.98287232  21.68519163  095.98286188
111  21.68520991  095.98287232
111  21.68525478  095.98296545
111  21.68539089  095.98293683
111  21.68533923  095.98263636
111  21.68518747  095.98267573
112  21.68519709  095.98273782  21.68520670  095.98279990
111  21.68512978  095.98280679
111  21.68496954  095.98179281
112  21.68485096  095.98084435  21.68482532  095.98067190
113  21.68499442  095.98052100
110 2 0.00 0.0 New Taxiway 2
112  21.69439609  095.97662361  21.69464947  095.97662361 1 102
111  21.69540261  095.97688838 1 102
111  21.69611400  095.97718303 1 102
112  21.69647531  095.97735473  21.69683661  095.97752643 1 102
111  21.69642197  095.97791397
112  21.69990050  095.97729372  21.69999975  095.97721155
111  21.69990050  095.97729372
112  21.69990050  095.97729372  21.69989429  095.97729116 1 102
112  21.69985065  095.97726707  21.69979811  095.97722938 1 102
112  21.69973463  095.97706211  21.69969961  095.97691604 1 102
111  21.69982438  095.97681238 1 102
111  21.70007174  095.97659799 1 102
111  21.70039721  095.97626182 1 102
112  21.70066038  095.97606905  21.70083768  095.97596304 1 102
111  21.70127598  095.97608790 1 102
112  21.70192841  095.97634430  21.70215274  095.97642608 1 102
112  21.70217885  095.97671919  21.70214560  095.97684207 1 102
111  21.70195946  095.97692809
111  21.70430502  095.97651543 1 102
112  21.70311723  095.97639167  21.70271370  095.97632096 1 102
112  21.70205419  095.97602552  21.70169291  095.97589695 1 102
112  21.70163068  095.97563172  21.70158257  095.97540020 1 102
113  21.70202276  095.97530665
112  21.69639085  095.97692044  21.69625008  095.97684974 1 102
112  21.69620785  095.97657704  21.69619846  095.97636494 1 102
111  21.69642467  095.97630392
111  21.69843899  095.97593459
112  21.69937639  095.97577534  21.69956726  095.97575737 1 102
112  21.69993681  095.97589269  21.70007258  095.97611449 1 102
111  21.69977866  095.97634474 1 102
112  21.69869006  095.97723860  21.69822083  095.97755170 1 102
113  21.69743253  095.97732950 1 102
110 2 0.00 0.0 New Taxiway 1
111  21.70707432  095.97441738 1 102
112  21.70717651  095.97503331  21.70665643  095.97557243 1 102
112  21.70619535  095.97585139  21.70596267  095.97601417 1 102
112  21.70494478  095.97640032  21.70478718  095.97644367
111  21.70743193  095.97596123 1 102
112  21.70727714  095.97538918  21.70763665  095.97502139
111  21.70727714  095.97538918
112  21.70727714  095.97538918  21.70752867  095.97516392 1 102
111  21.70771927  095.97501776 1 102
112  21.70862943  095.97424141  21.70877729  095.97411637 1 102
113  21.70908463  095.97402436
110 2 0.30 170.6 Default taxiway for RWY 17
111  21.71999987  095.97373752 1 102
111  21.71971603  095.97184220 1 102
111  21.70919992  095.97366294
111  21.70821396  095.97383427 1 102
111  21.70401700  095.97459129
111  21.70310323  095.97476002 1 102
111  21.68167763  095.97855626 1 102
111  21.68197983  095.98046699
112  21.68264136  095.98034685  21.68292729  095.98025217
111  21.68264136  095.98034685
112  21.68264136  095.98034685  21.68237233  095.98036309 1 102
111  21.68225270  095.98010958 1 102
112  21.68212266  095.97928978  21.68208654  095.97897066 1 102
111  21.68231194  095.97881834 1 102
111  21.69439609  095.97662361
111  21.69642467  095.97630392 1 102
111  21.69937639  095.97577534
111  21.70202276  095.97530665 1 102
111  21.70707432  095.97441738
111  21.70908463  095.97402436 1 102
112  21.71917200  095.97227257  21.71932925  095.97225193
111  21.71917200  095.97227257
112  21.71917200  095.97227257  21.71948650  095.97223128 1 102
111  21.71953632  095.97279476 1 102
112  21.71963092  095.97338220  21.71965557  095.97369991 1 102
113  21.71948256  095.97383218
110 2 0.00 0.0 New Taxiway 8
111  21.70919992  095.97366294 1 102
112  21.70884700  095.97348835  21.70880055  095.97331468 1 102
111  21.70866984  095.97257506 1 102
111  21.70865687  095.97257633 1 106
111  21.70831939  095.97036283 1
111  21.70831191  095.97031378 1 106
111  21.70708660  095.97052595
111  21.70663342  095.97060086
111  21.70662416  095.97054084
111  21.70458042  095.97082170
111  21.70459884  095.97095651
111  21.70414464  095.97103535 106
111  21.70289634  095.97125149 1 106
111  21.70322936  095.97354940 1 102
111  21.70322199  095.97355205 1 102
111  21.70332091  095.97444440 1 102
114  21.70310323  095.97476002  21.70289102  095.97480127
111  21.70401700  095.97459129 1 102
112  21.70369880  095.97443042  21.70367028  095.97429886 1 102
111  21.70357392  095.97364183 1 102
112  21.70371042  095.97346861  21.70386118  095.97344229 1 102
111  21.70820808  095.97265689 1 102
112  21.70836357  095.97278951  21.70839291  095.97293161 1 102
111  21.70848517  095.97348691 1 102
114  21.70821396  095.97383427  21.70791473  095.97389811
110 3 0.00 0.0 grassed area
111  21.70461787  095.96916761
111  21.70463354  095.96933631
111  21.70604704  095.96908019
113  21.70602567  095.96889616
130 Airport Boundary 7
111  21.70216497  095.96786981
111  21.70274186  095.97419958
111  21.67882044  095.97839392
111  21.67544988  095.98206774
111  21.67901421  095.98310445
111  21.67975352  095.98368949
111  21.68011182  095.98569773
111  21.68263398  095.98652066
111  21.68348110  095.98640908
111  21.68669597  095.98444285
111  21.68615327  095.98122897
111  21.72109374  095.97588430
111  21.72505800  095.97312900
111  21.72433069  095.97166539
111  21.72024469  095.97106121
111  21.71782602  095.97187643
111  21.71688675  095.96783278
111  21.71114067  095.96870418
111  21.70814216  095.96927382
111  21.70684741  095.96767810
113  21.70365399  095.96741781
120 Linear Feature 40
111  21.70587473  095.97183639 20
111  21.70604747  095.97294077 20
112  21.70602248  095.97299366  21.70600951  095.97299746 20
111  21.70362652  095.97342934 20
112  21.70359790  095.97340147  21.70359201  095.97337482 20
111  21.70341900  095.97231475 20
112  21.70344416  095.97228604  21.70346970  095.97228075 20
111  21.70586354  095.97182665 20
114  21.70587065  095.97183049  21.70587184  095.97183134 20
120 Linear Feature 39
111  21.70799788  095.97142609 20
112  21.70806648  095.97146075  21.70807336  095.97151045 20
111  21.70822371  095.97257098 20
112  21.70817561  095.97260949  21.70814872  095.97261212 20
111  21.70614647  095.97296875 20
112  21.70612186  095.97292681  21.70611832  095.97290016 20
111  21.70595186  095.97182056 20
114  21.70597336  095.97180582  21.70599203  095.97180054 20
120 Linear Feature 38
111  21.70457758  095.97104396 20
111  21.70466255  095.97162041 20
111  21.70457921  095.97196175 20
112  21.70454038  095.97198510  21.70450784  095.97199119 20
111  21.70317969  095.97224717 20
112  21.70311480  095.97219818  21.70310307  095.97214451 20
111  21.70299964  095.97137209 20
114  21.70304862  095.97131595  21.70309514  095.97131035 20
120 Linear Feature 37
111  21.70509418  095.97095581 20
111  21.70526939  095.97124835 20
112  21.70530090  095.97134245  21.70530326  095.97137291 20
111  21.70536990  095.97182161 20
112  21.70535229  095.97183990  21.70533855  095.97184347 20
111  21.70468937  095.97195971 20
112  21.70465905  095.97193286  21.70467105  095.97189808 20
111  21.70474775  095.97161309 20
113  21.70466036  095.97103473 20
120 Linear Feature 36
111  21.70676262  095.97065578 20
111  21.70698047  095.97080934 20
112  21.70702556  095.97088218  21.70703235  095.97094065 20
111  21.70710498  095.97144905 20
112  21.70707404  095.97150905  21.70703329  095.97151636 20
111  21.70545793  095.97181887 20
112  21.70544257  095.97180678  21.70543975  095.97179459 20
111  21.70536498  095.97127279 20
112  21.70534633  095.97122588  21.70533329  095.97120636
111  21.70534633  095.97122588
112  21.70534633  095.97122588  21.70533784  095.97121370 20
113  21.70517626  095.97093952 20
120 Linear Feature 35
111  21.70821545  095.97040967 20
112  21.70826440  095.97043775  21.70827147  095.97048648 20
111  21.70838074  095.97126181 20
112  21.70832757  095.97129426  21.70826645  095.97130522 20
111  21.70719073  095.97149004 20
112  21.70716628  095.97144399  21.70716221  095.97141987 20
111  21.70708289  095.97084331 20
112  21.70703601  095.97078413  21.70700715  095.97076586 20
111  21.70685852  095.97065148 20
114  21.70686388  095.97062642  21.70690123  095.97061911 20
120 Linear Feature 34
111  21.70289850  095.97125103 20
111  21.70830586  095.97031490 20
112  21.70831243  095.97032561  21.70831370  095.97033432 20
111  21.70845571  095.97129462 20
112  21.70838741  095.97135608  21.70829981  095.97136923 20
111  21.70814659  095.97139376 20
112  21.70811338  095.97145459  21.70811952  095.97150600 20
111  21.70828310  095.97259987 20
112  21.70824771  095.97264677  21.70821103  095.97265334 20
111  21.70359931  095.97348563 20
112  21.70355508  095.97344665  21.70354935  095.97340788 20
111  21.70337925  095.97232597 20
112  21.70334388  095.97230440  21.70331323  095.97231075 20
113  21.70305894  095.97235982 20
120 Linear Feature 25
111  21.70591200  095.97181933 22
115  21.70608752  095.97297502
120 Linear Feature 24
111  21.70513647  095.97094951 22
111  21.70531376  095.97124150 22
112  21.70533437  095.97131427  21.70534097  095.97135688 22
115  21.70540529  095.97182371
120 Linear Feature 23
111  21.70461891  095.97104259 22
111  21.70470050  095.97159504 22
112  21.70469649  095.97163695  21.70468847  095.97166900 22
115  21.70461345  095.97196545
120 Linear Feature 27
111  21.70605883  095.97291566 20
111  21.70606270  095.97293916 20
111  21.70605844  095.97294621 20
111  21.70605724  095.97293981 20
111  21.70606368  095.97294369 20
115  21.70605844  095.97294621
120 Linear Feature 27
111  21.70610175  095.97294513 20
111  21.70609727  095.97291358 20
111  21.70610193  095.97291776 20
111  21.70609466  095.97291908 20
115  21.70609727  095.97291358
120 Linear Feature 27
111  21.70340383  095.97234157 20
111  21.70340383  095.97234157 20
111  21.70340383  095.97234157 20
111  21.70340383  095.97234157 20
111  21.70339860  095.97231016 20
111  21.70339860  095.97231016 20
111  21.70339860  095.97231016 20
111  21.70339860  095.97231016 20
111  21.70340336  095.97231421 20
111  21.70340336  095.97231421 20
111  21.70340336  095.97231421 20
111  21.70340336  095.97231421 20
111  21.70339612  095.97231573 20
111  21.70339612  095.97231573 20
111  21.70339612  095.97231573 20
111  21.70339612  095.97231573 20
111  21.70339860  095.97231016 20
111  21.70339860  095.97231016 20
111  21.70339860  095.97231016 20
115  21.70339860  095.97231016
120 Linear Feature 27
111  21.70385531  095.97340921 20
111  21.70385531  095.97340921 20
111  21.70385531  095.97340921 20
111  21.70385531  095.97340921 20
111  21.70382611  095.97341469 20
111  21.70382611  095.97341469 20
111  21.70382611  095.97341469 20
111  21.70382611  095.97341469 20
111  21.70382989  095.97340958 20
111  21.70382989  095.97340958 20
111  21.70382989  095.97340958 20
111  21.70382989  095.97340958 20
111  21.70383126  095.97341739 20
111  21.70383126  095.97341739 20
111  21.70383126  095.97341739 20
111  21.70383126  095.97341739 20
111  21.70382611  095.97341469 20
111  21.70382611  095.97341469 20
111  21.70382611  095.97341469 20
115  21.70382611  095.97341469
120 Linear Feature 27
111  21.70525252  095.97315870 20
111  21.70525252  095.97315870 20
111  21.70525252  095.97315870 20
111  21.70525252  095.97315870 20
111  21.70522331  095.97316417 20
111  21.70522331  095.97316417 20
111  21.70522331  095.97316417 20
111  21.70522331  095.97316417 20
111  21.70522709  095.97315906 20
111  21.70522709  095.97315906 20
111  21.70522709  095.97315906 20
111  21.70522709  095.97315906 20
111  21.70522847  095.97316687 20
111  21.70522847  095.97316687 20
111  21.70522847  095.97316687 20
111  21.70522847  095.97316687 20
111  21.70522331  095.97316417 20
111  21.70522331  095.97316417 20
111  21.70522331  095.97316417 20
115  21.70522331  095.97316417
120 Linear Feature 27
111  21.70602679  095.97301540 20
111  21.70602679  095.97301540 20
111  21.70602679  095.97301540 20
111  21.70602679  095.97301540 20
111  21.70599758  095.97302087 20
111  21.70599758  095.97302087 20
111  21.70599758  095.97302087 20
111  21.70599758  095.97302087 20
111  21.70600136  095.97301577 20
111  21.70600136  095.97301577 20
111  21.70600136  095.97301577 20
111  21.70600136  095.97301577 20
111  21.70600274  095.97302357 20
111  21.70600274  095.97302357 20
111  21.70600274  095.97302357 20
111  21.70600274  095.97302357 20
111  21.70599758  095.97302087 20
111  21.70599758  095.97302087 20
111  21.70599758  095.97302087 20
115  21.70599758  095.97302087
120 Linear Feature 27
111  21.70618558  095.97298687 20
111  21.70615637  095.97299234 20
111  21.70616015  095.97298723 20
111  21.70616153  095.97299504 20
115  21.70615637  095.97299234
120 Linear Feature 27
111  21.70725126  095.97279555 20
111  21.70722205  095.97280103 20
111  21.70722584  095.97279592 20
111  21.70722721  095.97280373 20
115  21.70722205  095.97280103
120 Linear Feature 27
111  21.70819279  095.97262642 20
111  21.70816358  095.97263189 20
111  21.70816737  095.97262679 20
111  21.70816874  095.97263459 20
115  21.70816358  095.97263189
120 Linear Feature 27
111  21.70808576  095.97143371 20
111  21.70809152  095.97146501 20
111  21.70808669  095.97146106 20
111  21.70809391  095.97145940 20
115  21.70809152  095.97146501
120 Linear Feature 26
111  21.70681328  095.97065452 22
111  21.70701933  095.97080597 22
112  21.70705671  095.97088387  21.70706546  095.97094165 22
115  21.70714029  095.97149207
120 Linear Feature 22
111  21.70828398  095.97035839 22
111  21.70841646  095.97126875 22
112  21.70834369  095.97132568  21.70825938  095.97134066 22
111  21.70315490  095.97229519 22
112  21.70308542  095.97224720  21.70307354  095.97220375 22
111  21.70294768  095.97131809 22
114  21.70303555  095.97127208  21.70313054  095.97125547 22
120 Linear Feature 16
111  21.70418720  095.97318752 51
111  21.70417552  095.97320338 51
115  21.70416417  095.97321879
120 Linear Feature 15
111  21.70417552  095.97320338 51
111  21.70369999  095.97282737 51
111  21.70367877  095.97277255 51
111  21.70364498  095.97282652 51
115  21.70369999  095.97282737
120 Linear Feature 16
111  21.70467819  095.97309103 51
111  21.70466651  095.97310690 51
115  21.70465516  095.97312231
120 Linear Feature 15
111  21.70466651  095.97310690 51
111  21.70419098  095.97273089 51
111  21.70416976  095.97267607 51
111  21.70413597  095.97273004 51
115  21.70419098  095.97273089
120 Linear Feature 16
111  21.70517936  095.97300771 51
111  21.70516768  095.97302357 51
115  21.70515633  095.97303899
120 Linear Feature 15
111  21.70516768  095.97302357 51
111  21.70469216  095.97264757 51
111  21.70467094  095.97259275 51
111  21.70463715  095.97264671 51
115  21.70469216  095.97264757
120 Linear Feature 16
111  21.70566016  095.97293535 51
111  21.70564849  095.97295121 51
115  21.70563714  095.97296663
120 Linear Feature 15
111  21.70564849  095.97295121 51
111  21.70517296  095.97257520 51
111  21.70515174  095.97252038 51
111  21.70511795  095.97257435 51
115  21.70517296  095.97257520
120 Linear Feature 16
111  21.70609003  095.97281475 51
111  21.70607835  095.97283061 51
115  21.70606701  095.97284603
120 Linear Feature 15
111  21.70607835  095.97283061 51
111  21.70560283  095.97245460 51
111  21.70558161  095.97239978 51
111  21.70554782  095.97245375 51
115  21.70560283  095.97245460
120 Linear Feature 16
111  21.70662177  095.97275554 51
111  21.70661009  095.97277141 51
115  21.70659874  095.97278682
120 Linear Feature 15
111  21.70661009  095.97277141 51
111  21.70613457  095.97239540 51
111  21.70611334  095.97234058 51
111  21.70607955  095.97239455 51
115  21.70613457  095.97239540
120 Linear Feature 16
111  21.70711072  095.97265248 51
111  21.70709904  095.97266835 51
115  21.70708769  095.97268376
120 Linear Feature 15
111  21.70709904  095.97266835 51
111  21.70662352  095.97229234 51
111  21.70660230  095.97223752 51
111  21.70656851  095.97229149 51
115  21.70662352  095.97229234
120 Linear Feature 16
111  21.70757115  095.97254504 51
111  21.70755947  095.97256090 51
115  21.70754812  095.97257632
120 Linear Feature 15
111  21.70755947  095.97256090 51
111  21.70708395  095.97218489 51
111  21.70706273  095.97213007 51
111  21.70702894  095.97218404 51
115  21.70708395  095.97218489
120 Linear Feature 16
111  21.70805399  095.97245294 51
111  21.70804231  095.97246880 51
115  21.70803096  095.97248422
120 Linear Feature 15
111  21.70804231  095.97246880 51
111  21.70756679  095.97209279 51
111  21.70754557  095.97203798 51
111  21.70751178  095.97209195 51
115  21.70756679  095.97209279
120 Linear Feature 14
111  21.70790427  095.97083202 51
115  21.70786083  095.97083771
120 Linear Feature 14
111  21.70684080  095.97102674 51
115  21.70679736  095.97103243
120 Linear Feature 13
111  21.70789774  095.97107963 51
112  21.70779196  095.97097149  21.70773254  095.97094104 51
112  21.70772860  095.97083110  21.70775323  095.97078155 51
112  21.70782857  095.97080421  21.70785574  095.97081756 51
115  21.70786083  095.97083771
120 Linear Feature 13
111  21.70683427  095.97127435 51
112  21.70672849  095.97116621  21.70666907  095.97113576 51
112  21.70666513  095.97102582  21.70668976  095.97097627 51
112  21.70676510  095.97099893  21.70679227  095.97101228 51
115  21.70679736  095.97103243
120 Linear Feature 12
111  21.70784585  095.97063222 51
111  21.70782987  095.97063477 51
115  21.70781432  095.97063724
120 Linear Feature 11
111  21.70791879  095.97121766 51
112  21.70804972  095.97144038  21.70807303  095.97161601 51
111  21.70799054  095.97169591 51
112  21.70786209  095.97147404  21.70783992  095.97133819 51
115  21.70791879  095.97121766
120 Linear Feature 10
111  21.70782987  095.97063477 51
111  21.70786083  095.97083771 51
111  21.70789774  095.97107963 51
111  21.70791879  095.97121766 51
111  21.70794974  095.97142048 51
111  21.70798904  095.97146595 51
111  21.70791830  095.97147970 51
115  21.70794974  095.97142048
120 Linear Feature 12
111  21.70678238  095.97082694 51
111  21.70676640  095.97082948 51
115  21.70675085  095.97083196
120 Linear Feature 11
111  21.70685532  095.97141238 51
112  21.70698625  095.97163510  21.70700956  095.97181073 51
111  21.70692638  095.97189945 51
112  21.70679862  095.97166876  21.70677645  095.97153290 51
115  21.70685532  095.97141238
120 Linear Feature 10
111  21.70676640  095.97082948 51
111  21.70679736  095.97103243 51
111  21.70683427  095.97127435 51
111  21.70685532  095.97141238 51
111  21.70688627  095.97161520 51
111  21.70692557  095.97166067 51
111  21.70685483  095.97167442 51
115  21.70688627  095.97161520
120 Linear Feature 14
111  21.70736846  095.97092149 51
115  21.70732502  095.97092718
120 Linear Feature 13
111  21.70736193  095.97116910 51
112  21.70725615  095.97106096  21.70719673  095.97103051 51
112  21.70719279  095.97092056  21.70721742  095.97087101 51
112  21.70729276  095.97089367  21.70731994  095.97090703 51
115  21.70732502  095.97092718
120 Linear Feature 12
111  21.70731005  095.97072169 51
111  21.70729406  095.97072423 51
115  21.70727851  095.97072671
120 Linear Feature 11
111  21.70738298  095.97130712 51
112  21.70751391  095.97152985  21.70753722  095.97170548 51
111  21.70745933  095.97179787 51
112  21.70732628  095.97156351  21.70730411  095.97142765 51
115  21.70738298  095.97130712
120 Linear Feature 10
111  21.70729406  095.97072423 51
111  21.70732502  095.97092718 51
111  21.70736193  095.97116910 51
111  21.70738298  095.97130712 51
111  21.70741393  095.97150995 51
111  21.70745323  095.97155542 51
111  21.70738249  095.97156917 51
115  21.70741393  095.97150995
120 Linear Feature 12
111  21.70621208  095.97095303 51
111  21.70619609  095.97095557 51
115  21.70618054  095.97095804
120 Linear Feature 11
111  21.70628502  095.97153846 51
112  21.70641594  095.97176119  21.70643925  095.97193682 51
111  21.70635953  095.97200781 51
112  21.70622832  095.97179484  21.70620614  095.97165899 51
115  21.70628502  095.97153846
120 Linear Feature 10
111  21.70619609  095.97095557 51
111  21.70628502  095.97153846 51
111  21.70631596  095.97174129 51
111  21.70635526  095.97178676 51
111  21.70628452  095.97180051 51
115  21.70631596  095.97174129
120 Linear Feature 12
111  21.70557644  095.97108679 51
111  21.70556045  095.97108933 51
115  21.70554491  095.97109180
120 Linear Feature 11
111  21.70564938  095.97167222 51
112  21.70578031  095.97189495  21.70580362  095.97207058 51
111  21.70571826  095.97212978 51
112  21.70559268  095.97192860  21.70557050  095.97179275 51
115  21.70564938  095.97167222
120 Linear Feature 10
111  21.70556045  095.97108933 51
111  21.70564938  095.97167222 51
111  21.70568032  095.97187505 51
111  21.70571962  095.97192052 51
111  21.70564888  095.97193427 51
115  21.70568032  095.97187505
120 Linear Feature 12
111  21.70494895  095.97120300 51
111  21.70493297  095.97120555 51
115  21.70491742  095.97120802
120 Linear Feature 11
111  21.70502189  095.97178844 51
112  21.70515282  095.97201116  21.70517613  095.97218679 51
111  21.70508990  095.97224920 51
112  21.70496519  095.97204482  21.70494302  095.97190896 51
115  21.70502189  095.97178844
120 Linear Feature 10
111  21.70493297  095.97120555 51
111  21.70502189  095.97178844 51
111  21.70505283  095.97199126 51
111  21.70509213  095.97203673 51
111  21.70502139  095.97205048 51
115  21.70505283  095.97199126
120 Linear Feature 12
111  21.70382029  095.97140035 51
111  21.70380430  095.97140289 51
115  21.70378876  095.97140536
120 Linear Feature 11
111  21.70389323  095.97198578 51
112  21.70402416  095.97220851  21.70404747  095.97238414 51
111  21.70396518  095.97246278 51
112  21.70383653  095.97224217  21.70381435  095.97210631 51
115  21.70389323  095.97198578
120 Linear Feature 10
111  21.70380430  095.97140289 51
111  21.70389323  095.97198578 51
111  21.70392417  095.97218861 51
111  21.70396347  095.97223408 51
111  21.70389273  095.97224783 51
115  21.70392417  095.97218861
120 Linear Feature 12
111  21.70436343  095.97130782 51
111  21.70434745  095.97131036 51
115  21.70433190  095.97131283
120 Linear Feature 11
111  21.70443637  095.97189325 51
112  21.70456730  095.97211597  21.70459061  095.97229161 51
111  21.70450594  095.97236012 51
112  21.70437967  095.97214963  21.70435750  095.97201378 51
115  21.70443637  095.97189325
120 Linear Feature 10
111  21.70434745  095.97131036 51
111  21.70443637  095.97189325 51
111  21.70446731  095.97209608 51
111  21.70450661  095.97214155 51
111  21.70443587  095.97215529 51
115  21.70446731  095.97209608
120 Default hold RWY 17 (near)
111  21.71991056  095.97318007 54
115  21.71961734  095.97323040
120 Default hold RWY 17 (far)
111  21.68220128  095.97982554 54
115  21.68188740  095.97988233
120 Linear Feature 4
111  21.70727713  095.97537553 3
115  21.70708115  095.97513255
120 Linear Feature 3
111  21.70205419  095.97602552 3
115  21.70192841  095.97634430
120 Linear Feature 2
111  21.70039721  095.97626182 3
111  21.70022298  095.97602185 3
115  21.69998649  095.97603757
120 Linear Feature 1
111  21.69660171  095.97700973 4
115  21.69647531  095.97735473
120 Linear Feature 29
111  21.70865307  095.97346155 51
111  21.70870337  095.97377558 51
112  21.70860069  095.97404398  21.70846867  095.97415976 51
115  21.70843518  095.97419210
120 Linear Feature 28
111  21.70865307  095.97346155 51
116  21.70823625  095.97401444  21.70777175  095.97411443
120 Linear Feature 27
111  21.70865307  095.97346155 51
116  21.70913878  095.97384340  21.70951772  095.97379603
120 Linear Feature 26
111  21.70913878  095.97384340 51
112  21.70843518  095.97419210  21.70812538  095.97445734 51
111  21.70745298  095.97503707 51
111  21.70653766  095.97585173 51
112  21.70486897  095.97667774  21.70403814  095.97684067 51
115  21.70396069  095.97685961
120 Linear Feature 25
111  21.70313320  095.97492086 51
111  21.70393915  095.97477074 51
111  21.70717686  095.97422275 51
111  21.70823625  095.97401444 51
111  21.70913878  095.97384340 51
111  21.71926513  095.97207398 51
112  21.71965731  095.97241024  21.71972522  095.97276294 51
111  21.71982029  095.97348662 51
112  21.71941759  095.97412779  21.71894789  095.97420757 51
115  21.71891733  095.97421123
120 Linear Feature 24
111  21.69997900  095.97549139 51
112  21.70053179  095.97560789  21.70087161  095.97574208
111  21.70053179  095.97560789
112  21.70053179  095.97560789  21.70073306  095.97568737 51
112  21.70171736  095.97608824  21.70214105  095.97626102
111  21.70171736  095.97608824
112  21.70171736  095.97608824  21.70200902  095.97620718 51
111  21.70223578  095.97629991 51
111  21.70319658  095.97664197 51
112  21.70466099  095.97672091  21.70551176  095.97660513
111  21.70466099  095.97672091
112  21.70466099  095.97672091  21.70497007  095.97667138 51
115  21.70521350  095.97662618
120 Linear Feature 23
111  21.69959365  095.97676360 51
112  21.69951098  095.97725998  21.69960577  095.97745946 51
116  21.69987459  095.97756605  21.70000333  095.97758432
120 Linear Feature 22
111  21.70155180  095.97520634 51
112  21.70107150  095.97545863  21.70086494  095.97565050 51
115  21.69999908  095.97639523
120 Linear Feature 21
111  21.69972231  095.97553963 51
112  21.70014089  095.97589963  21.70018187  095.97621105 51
112  21.69999908  095.97639523  21.69995018  095.97643909 51
111  21.69959365  095.97676360 51
111  21.69888264  095.97733150 51
112  21.69739088  095.97800683  21.69654598  095.97815232
111  21.69739088  095.97800683
112  21.69739088  095.97800683  21.69708926  095.97806249 51
115  21.69695869  095.97808524
120 Linear Feature 20
111  21.69679579  095.97725206 51
111  21.69766844  095.97757547 51
112  21.69917773  095.97767779  21.70002661  095.97755354 51
115  21.70008603  095.97754440
120 Linear Feature 19
111  21.69452492  095.97645096 51
112  21.69500293  095.97651917  21.69524804  095.97661269 51
111  21.69627594  095.97703462 51
111  21.69679579  095.97725206 51
112  21.69701141  095.97773078  21.69696727  095.97796649 51
112  21.69669393  095.97814190  21.69651736  095.97819489
111  21.69669393  095.97814190
112  21.69669393  095.97814190  21.69651227  095.97817479 51
115  21.69601483  095.97825884
120 Linear Feature 18
111  21.70348787  095.97442648 51
112  21.70313320  095.97492086  21.70278030  095.97498473
111  21.70313320  095.97492086
112  21.70313320  095.97492086  21.70181710  095.97516206 51
111  21.70176572  095.97516687 51
111  21.70155180  095.97520634 51
111  21.69997900  095.97549139 51
111  21.69972231  095.97553963 51
111  21.69625993  095.97615276 51
111  21.69452492  095.97645096 51
111  21.68229766  095.97860803 51
112  21.68191142  095.97912416  21.68196519  095.97950174 51
111  21.68203118  095.97983543 51
111  21.68212307  095.98029218 51
112  21.68268814  095.98062383  21.68310834  095.98054618 51
115  21.68328236  095.98051573
120 Linear Feature 17
111  21.70865307  095.97346155 51
111  21.70851372  095.97260110 51
111  21.70844038  095.97213272 51
112  21.70799054  095.97169591  21.70766050  095.97176170
111  21.70799054  095.97169591
112  21.70799054  095.97169591  21.70792836  095.97170831 51
112  21.70745933  095.97179787  21.70718471  095.97185024
111  21.70745933  095.97179787
112  21.70745933  095.97179787  21.70730416  095.97182747 51
112  21.70692638  095.97189945  21.70672939  095.97193699
111  21.70692638  095.97189945
112  21.70692638  095.97189945  21.70674837  095.97193337 51
112  21.70635953  095.97200781  21.70616195  095.97204541
111  21.70635953  095.97200781
112  21.70635953  095.97200781  21.70615012  095.97204766 51
112  21.70571826  095.97212978  21.70550291  095.97217072
111  21.70571826  095.97212978
112  21.70571826  095.97212978  21.70550501  095.97217032 51
112  21.70508990  095.97224920  21.70488692  095.97228776
111  21.70508990  095.97224920
112  21.70508990  095.97224920  21.70488292  095.97228852 51
112  21.70450594  095.97236012  21.70432645  095.97239420
111  21.70450594  095.97236012
112  21.70450594  095.97236012  21.70429678  095.97239983 51
112  21.70396518  095.97246278  21.70381831  095.97249066
111  21.70396518  095.97246278
112  21.70396518  095.97246278  21.70374106  095.97250532 51
111  21.70360513  095.97253111 51
112  21.70328822  095.97299902  21.70333711  095.97333889 51
115  21.70348787  095.97442648
120 Linear Feature 32
111  21.70348787  095.97442648 51
116  21.70393915  095.97477074  21.70425289  095.97472688
120 Linear Feature 30
111  21.70176572  095.97516687 51
112  21.70144662  095.97555852  21.70143928  095.97581375 51
112  21.70162748  095.97602948  21.70166979  095.97606105 51
115  21.70171736  095.97608824
120 Linear Feature 31
111  21.70717686  095.97422275 51
112  21.70757699  095.97460382  21.70759114  095.97490228 51
116  21.70745298  095.97503707  21.70741336  095.97507667
120 Linear Feature 46
111  21.69625993  095.97615276 51
116  21.69627594  095.97703462  21.69705402  095.97750289
120 Linear Feature 52
111  21.70913631  095.97365977 2
115  21.70918394  095.97400253
120 Linear Feature 51
111  21.70883124  095.97342427 2
115  21.70848988  095.97348693
120 Linear Feature 53
111  21.70331807  095.97440967 2
115  21.70367987  095.97434620
120 Linear Feature 73
111  21.69569312  095.97700033 2
111  21.69582730  095.97667518 2
115  21.69620563  095.97661952
120 Linear Feature 72
111  21.70131248  095.97610031 2
111  21.70141407  095.97580874 2
115  21.70165393  095.97574496
120 Linear Feature 71
111  21.70795584  095.97479906 2
111  21.70777523  095.97456519 2
115  21.70739427  095.97463808
120 Linear Feature 70
111  21.70397462  095.97458779 2
115  21.70403700  095.97495092
120 Linear Feature 69
111  21.70311623  095.97476454 2
115  21.70316522  095.97510201
120 Linear Feature 68
111  21.69636930  095.97595481 2
115  21.69642033  095.97630470
120 Linear Feature 67
111  21.69410605  095.97635557 2
115  21.69415308  095.97666576
120 Linear Feature 75
111  21.69989928  095.97674199 4
115  21.69967908  095.97644092
21  21.71630756  095.97526703 2 170.6 3.00 17  PAPI-4L
21  21.68575864  095.97947232 2 350.6 3.00 35  PAPI-4L
20  21.70738187  095.97551890 141.5 0 2 {@L}A4{@R}17-35
20  21.70209868  095.97593862 25.3 0 2 {@L}A1{@R}17-35
20  21.69955151  095.97629529 320.5 0 2 {@Y,^ld}A{@L}A2{@Y}A{^ru,no-entry,@R,^r}
20  21.70000684  095.97686381 142.4 0 2 {@L}A2{@R}17-35
20  21.70201917  095.97542429 171.1 0 2 {@Y,^ld}A1|{^lu}A2{@L}A
20  21.69944446  095.97530462 351.6 0 2 {@L}A{@Y}A1{^ru}|A3{^rd}
20  21.69419267  095.97620772 350.9 0 2 {@L}A{@Y}A3{^ru}
20  21.68228306  095.97980218 80.3 0 2 {@R}35
20  21.69645114  095.97743775 198.4 0 2 {@Y,^lu}A{@L}A3{@Y}A{^rd}
20  21.69662899  095.97689991 21.8 0 2 {@L}A3{@R}17-35
20  21.69826430  095.97730994 354.1 0 2 {@Y,^lu}A2{@@}A3{^ru}
20  21.70188983  095.97644319 200.8 0 2 {@Y,^lu}A{@L}A1{@Y}A{^rd,@@,@R}17-35{@L}A1
20  21.70472433  095.97610842 351.9 0 2 {@Y,^lu}A4{@@}A1{^ru}
20  21.70695199  095.97494755 319.4 0 2 {@Y,^ld}A|{^lu}D{@L}A4{@Y}A{^ru,@@,@R}17-35{@L}A4
20  21.70948893  095.97408799 172.2 0 2 {@Y,^lu}A4{@L}A{@Y}E{^r}
20  21.70248527  095.97471267 349.6 0 2 {@Y,^l}E{@L}A
20  21.70377763  095.97430798 81.5 0 2 {@Y,^l}A{@L}E{@Y}A{^r}
20  21.70675414  095.97394026 351.4 0 2 {@Y,^l}D{@L}A{@Y}A4{^rd}
20  21.70438345  095.97504826 169.1 0 2 {@L}A{@Y}E{^r}
1300  21.70676686  095.97082713 262.4 gate heavy|jets|turboprops|props 3
1301 C airline 
1300  21.70766750  095.97216637 219.1 gate heavy|jets|turboprops|props 16
1301 F cargo 
1300  21.70717706  095.97226284 219.4 gate heavy|jets|turboprops|props 15
1301 C cargo 
1300  21.70626217  095.97248795 218.8 gate heavy|jets|turboprops|props 14
1301 C cargo 
1300  21.70572360  095.97254867 215.6 gate heavy|jets|turboprops|props 13
1301 C airline 
1300  21.70385643  095.97294740 217.7 gate heavy|jets|turboprops|props 9
1301 C airline 
1300  21.70435267  095.97285427 218.8 gate heavy|jets|turboprops|props 10
1301 C airline 
1300  21.70484770  095.97276433 217.3 gate heavy|jets|turboprops|props 11
1301 C general_aviation 
1300  21.70435191  095.97132225 260.7 gate heavy|jets|turboprops|props 7
1301 D airline 
1300  21.70729510  095.97072315 259.4 gate heavy|jets|turboprops 2
1301 C airline 
1300  21.70493253  095.97120582 259.4 gate heavy|jets|turboprops 6
1301 F airline 
1300  21.70528720  095.97266735 214.8 gate jets|turboprops|props 12
1301 C airline 
1300  21.70674540  095.97238029 214.8 gate jets|turboprops|props 15
1301 C cargo 
1300  21.70783795  095.97065976 258.4 gate heavy|jets|turboprops|props 1
1301 C airline 
1300  21.70619989  095.97096566 -99.3 gate heavy|jets|turboprops|props 4
1301 F airline 
1300  21.70380611  095.97140758 -99.3 gate heavy|jets|turboprops|props 8
1301 C airline 
1300  21.70556142  095.97109069 261.7 gate heavy|jets|turboprops|props 5
1301 E airline 
18  21.69178815  095.97504663 1 Mandalay Intl
19  21.71634925  095.97553191 1 WS
19  21.68572890  095.97906254 1 WS
1053 121725 GND
1054 118600 TWR
1055 119200 APP
1200 
1201  21.70013814  095.97600457 both 0 A2_stop
1201  21.70014342  095.97572103 both 1 A2_stop
1201  21.70030184  095.97600899 both 2 A2_stop
1201  21.70064792  095.97550460 both 3 A2_stop
1201  21.70002342  095.97633234 both 4 A2_stop
1201  21.70136880  095.97561324 both 5 A1_stop
1201  21.70145259  095.97597053 both 6 A1_stop
1201  21.70197833  095.97619861 both 7 A1_stop
1201  21.68223175  095.98054242 both 8 A_stop
1201  21.68203108  095.97983398 both 9 A_stop
1201  21.68186691  095.97893801 both 10 A_stop
1201  21.68220839  095.97863466 both 11 A_stop
1201  21.71926344  095.97208566 both 12 A_stop
1201  21.70909226  095.97385328 both 13 A_stop
1201  21.70857358  095.97394086 both 14 A_stop
1201  21.70838186  095.97397676 both 15 A_stop
1201  21.70745991  095.97418113 both 16 A_stop
1201  21.70383951  095.97480676 both 17 A_stop
1201  21.70329968  095.97490031 both 18 A_stop
1201  21.70151386  095.97521135 both 19 A_stop
1201  21.70130402  095.97525360 both 20 A_stop
1201  21.70047728  095.97541286 both 21 A_stop
1201  21.69981426  095.97552464 both 22 A_stop
1201  21.69469474  095.97642171 both 23 A_stop
1201  21.71958615  095.97223566 both 24 A_stop
1201  21.71976216  095.97319771 both 25 A_stop
1201  21.68203713  095.98075182 both 26 _stop
1201  21.72003992  095.97402627 both 27 _start
1201  21.71983808  095.97406059 both 28 _start
1201  21.70571144  095.97655653 both 29 _start
1201  21.70386732  095.97689369 both 30 _start
1201  21.69834477  095.97785984 both 31 _start
1201  21.69752810  095.97800645 both 32 _start
1201  21.69700236  095.97808996 both 33 _start
1201  21.68239369  095.98068638 both 34 _start
1201  21.69625666  095.97702645 both 35 A3_stop
1201  21.69709157  095.97739327 both 36 A3_stop
1201  21.70350059  095.97450708 both 37 _stop
1201  21.70326537  095.97284460 both 38 _stop
1201  21.70386136  095.97248499 both 39 _stop
1201  21.70344932  095.97262403 both 40 _stop
1201  21.70428388  095.97240292 both 41 _stop
1201  21.70473923  095.97231614 both 42 _stop
1201  21.70553608  095.97216298 both 43 _stop
1201  21.70616693  095.97204046 both 44 _stop
1201  21.70595149  095.97208230 both 45 _stop
1201  21.70684995  095.97191283 both 46 _stop
1201  21.70757092  095.97177499 both 47 _stop
1201  21.70788522  095.97198218 both 48 _stop
1201  21.70838008  095.97172648 both 49 _stop
1201  21.70812483  095.97170024 both 50 _stop
1201  21.70867349  095.97358899 both 51 A4_stop
1201  21.70724141  095.97524063 both 52 A4_stop
1201  21.70765805  095.97486571 both 53 A4_stop
1201  21.70851182  095.97412322 both 54 A4_start
1202 0 4 twoway taxiway_F A2
1202 1 0 twoway taxiway_F A2
1202 22 1 twoway taxiway_F A2
1202 2 3 twoway taxiway_F A2
1202 3 20 twoway taxiway_F A2
1202 4 2 twoway taxiway_F A2
1202 31 4 twoway taxiway_F A2
1204 departure 17,35
1204 arrival 17,35
1202 5 19 twoway taxiway_F A1
1202 6 5 twoway taxiway_F A1
1202 7 6 twoway taxiway_F A1
1202 30 7 twoway taxiway_F A1
1204 departure 17,35
1204 arrival 17,35
1202 8 34 twoway taxiway_F A
1204 departure 17,35
1204 arrival 17,35
1202 9 8 twoway taxiway_F A
1204 departure 17,35
1204 arrival 17,35
1202 10 9 twoway taxiway_F A
1202 11 10 twoway taxiway_F A
1202 12 13 twoway taxiway_F A
1202 13 14 twoway taxiway_F A
1202 14 15 twoway taxiway_F A
1202 15 16 twoway taxiway_F A
1202 16 17 twoway taxiway_F A
1202 17 18 twoway taxiway_F A
1202 18 19 twoway taxiway_F A
1202 19 20 twoway taxiway_F A
1202 20 21 twoway taxiway_F A
1202 21 22 twoway taxiway_F A
1202 22 23 twoway taxiway_F A
1202 23 11 twoway taxiway_F A
1202 24 12 twoway taxiway_F A
1202 6 3 twoway taxiway_F A1
1202 3 21 twoway taxiway_F A1
1202 25 24 twoway taxiway_F A
1202 28 25 twoway taxiway_F A
1204 departure 17,35
1204 arrival 17,35
1202 27 28 twoway runway 17/35
1204 departure 17,35
1204 arrival 17,35
1204 ils 17,35
1202 28 29 twoway runway 17/35
1204 departure 17,35
1204 arrival 17,35
1204 ils 17,35
1202 29 30 twoway runway 17/35
1204 departure 17,35
1204 arrival 17,35
1204 ils 17,35
1202 30 31 twoway runway 17/35
1204 departure 17,35
1204 arrival 17,35
1204 ils 17,35
1202 31 32 twoway runway 17/35
1204 departure 17,35
1204 arrival 17,35
1204 ils 17,35
1202 32 33 twoway runway 17/35
1204 departure 17,35
1204 arrival 17,35
1204 ils 17,35
1202 33 34 twoway runway 17/35
1204 departure 17,35
1204 arrival 17,35
1204 ils 17,35
1202 34 26 twoway runway 17/35
1204 departure 17,35
1204 arrival 17,35
1204 ils 17,35
1202 37 18 oneway taxiway_F E
1202 15 51 oneway taxiway_F A
1202 13 51 oneway taxiway_F A
1202 53 16 twoway taxiway_F A4
1202 36 33 twoway taxiway_F A3
1204 departure 17,35
1204 arrival 17,35
1202 35 36 twoway taxiway_F A3
1204 departure 17,35
1204 arrival 17,35
1202 36 32 twoway taxiway_F A3
1204 departure 17,35
1204 arrival 17,35
1202 23 35 twoway taxiway_F A3
1202 54 14 twoway taxiway_F A4
1202 14 51 oneway taxiway_F A4
1202 37 17 oneway taxiway_F E
1202 38 37 oneway taxiway_F E
1202 39 40 twoway taxiway_F 
1202 40 38 oneway taxiway_F E
1202 41 39 oneway taxiway_F 
1202 42 41 oneway taxiway_F 
1202 43 42 oneway taxiway_F 
1202 44 45 twoway taxiway_F 
1202 45 43 oneway taxiway_F 
1202 46 44 oneway taxiway_F 
1202 47 46 oneway taxiway_F 
1202 48 47 oneway taxiway_F 
1202 49 50 oneway taxiway_F F
1202 50 48 twoway taxiway_F 
1202 51 49 oneway taxiway_F F
1202 52 29 twoway taxiway_F A4
1204 departure 17,35
1204 arrival 17,35
1202 53 52 twoway taxiway_F A4
1202 54 53 twoway taxiway_F A4
99
