I
1130 Generated by WorldEditor 2.4.1r2

1    308 0 0 LPAZ Santa Maria
1302 city Vila do Porto
1302 country Portugal
1302 datum_lat 36.973888889
1302 datum_lon -25.171111111
1302 faa_code 
1302 gui_label 3D
1302 iata_code SMA
1302 icao_code LPAZ
1302 region_code LP
1302 state Autonomous Region of Azores
1302 transition_alt 4000
1302 transition_level 
100 60.05 1 0 0.25 1 3 0  18  36.98572119 -025.17342220 0 305 3 1 0 0 36  36.95856129 -025.16806852 0 305 3 1 0 0
110 1 0.00 0.0 New Taxiway 7
111  36.96867697 -025.16832988
111  36.96870237 -025.16807159
111  36.96955093 -025.16823422
112  36.96955093 -025.16823422  36.96967157 -025.16823024
112  36.96970808 -025.16779983  36.96960966 -025.16749385
111  36.96970808 -025.16779983
113  36.97042086 -025.16867133
110 1 0.00 351.1 Main Apron
111  36.97058841 -025.16887252
111  36.97042086 -025.16867133
111  36.96970808 -025.16779983
111  36.96815344 -025.16592511
111  36.96733140 -025.16484570
111  36.96762239 -025.16458954
111  36.97019203 -025.16123913
111  36.96988133 -025.16083997
111  36.97033496 -025.16030503
111  36.97188522 -025.16215594
111  36.97166060 -025.16243310
111  36.97245627 -025.16338971
111  36.97264689 -025.16373865
111  36.97273151 -025.16375893
111  36.97266444 -025.16426813
111  36.97310552 -025.16435214
112  36.97310552 -025.16435214  36.97311085 -025.16429543
112  36.97330144 -025.16429605  36.97338405 -025.16432273
111  36.97330144 -025.16429605
112  36.97330144 -025.16429605  36.97334815 -025.16432057
111  36.97372982 -025.16476269
111  36.97397394 -025.16505358
111  36.97452575 -025.16516779
111  36.97455993 -025.16492319
111  36.97555017 -025.16512478
111  36.97548844 -025.16575096
111  36.97664850 -025.16707191
111  36.97662274 -025.16733514
111  36.97682517 -025.16736819
111  36.97672439 -025.16829176
111  36.97657148 -025.16937458
111  36.97657586 -025.16941268
111  36.97658595 -025.16945087
111  36.97661231 -025.16947212
111  36.97665986 -025.16948912
111  36.97658341 -025.17004373
111  36.97603226 -025.16994712
111  36.97420782 -025.16959029
111  36.97306558 -025.16934585
111  36.97230534 -025.16921646
111  36.97210525 -025.16917925
113  36.97146952 -025.16905002
112  36.97393339 -025.16517554  36.97391668 -025.16514659
112  36.97339530 -025.16451002  36.97338373 -025.16449715
112  36.97330792 -025.16442155  36.97329764 -025.16442959
112  36.97343000 -025.16470786  36.97344776 -025.16473051
112  36.97373198 -025.16511481  36.97376026 -025.16513893
114  36.97392217 -025.16522740  36.97394273 -025.16523544
112  36.97336922 -025.16493855  36.97337810 -025.16490242
112  36.97326485 -025.16474399  36.97320045 -025.16471620
111  36.97326485 -025.16474399
112  36.97326485 -025.16474399  36.97330849 -025.16458097
112  36.97324042 -025.16437988  36.97322803 -025.16437135
112  36.97317159 -025.16444659  36.97315382 -025.16449384
112  36.97311607 -025.16491354  36.97312496 -025.16497746
111  36.97311607 -025.16491354
114  36.97311607 -025.16491354  36.97314494 -025.16493577
111  36.97439253 -025.16532170
112  36.97439253 -025.16532170  36.97443938 -025.16530122
112  36.97440752 -025.16519570  36.97436811 -025.16515940
111  36.97440752 -025.16519570
111  36.97413873 -025.16514208
112  36.97413873 -025.16514208  36.97409709 -025.16517559
112  36.97412267 -025.16527076  36.97415465 -025.16531358
113  36.97412267 -025.16527076
111  36.97534087 -025.16536742
112  36.97534087 -025.16536742  36.97536705 -025.16534093
112  36.97535158 -025.16527493  36.97533364 -025.16524261
111  36.97535158 -025.16527493
111  36.97496713 -025.16520388
112  36.97496713 -025.16520388  36.97492926 -025.16521735
112  36.97495749 -025.16529905  36.97498891 -025.16532976
113  36.97495749 -025.16529905
110 1 0.00 351.1 Taxiway C
111  36.97297764 -025.17060624
112  36.97297764 -025.17060624  36.97313762 -025.17057136
112  36.97336308 -025.17038284  36.97343266 -025.17024464
111  36.97336308 -025.17038284
112  36.97336308 -025.17038284  36.97350445 -025.17005709
112  36.97306558 -025.16934585  36.97273934 -025.16921342
111  36.97306558 -025.16934585
111  36.97420782 -025.16959029
112  36.97420782 -025.16959029  36.97409581 -025.16958823
112  36.97392897 -025.16969535  36.97386595 -025.16978258
111  36.97392897 -025.16969535
112  36.97392897 -025.16969535  36.97379653 -025.16985219
112  36.97398485 -025.17060124  36.97417066 -025.17091127
111  36.97398485 -025.17060124
112  36.97398485 -025.17060124  36.97404829 -025.17070710
112  36.97424613 -025.17085295  36.97435155 -025.17091477
113  36.97424613 -025.17085295
110 1 0.00 0.0 New Taxiway 1
111  36.96364731 -025.16878106
111  36.96392223 -025.16873345
111  36.96403227 -025.16866925
111  36.96410381 -025.16858570
111  36.96483441 -025.16776835
111  36.96494768 -025.16765968
111  36.96505032 -025.16759388
111  36.96513790 -025.16755250
111  36.96521979 -025.16752044
111  36.96536533 -025.16751691
111  36.96557140 -025.16754871
111  36.96732946 -025.16789312
111  36.96737532 -025.16764056
111  36.96777279 -025.16815333
111  36.96571205 -025.16774004
111  36.96552835 -025.16771231
111  36.96532069 -025.16769795
111  36.96518145 -025.16781172
111  36.96504857 -025.16799260
111  36.96498091 -025.16813460
111  36.96496908 -025.16821837
111  36.96496872 -025.16833919
111  36.96500857 -025.16849271
111  36.96506921 -025.16871557
111  36.96511440 -025.16883328
111  36.96521767 -025.16898252
113  36.96540936 -025.16911379
110 1 0.00 351.1 Taxiway D concrete
111  36.98483595 -025.17288040 53 102
111  36.98486574 -025.17288019 53 102
111  36.98494119 -025.17287090 53 102
111  36.98499594 -025.17286030 53 102
111  36.98506695 -025.17283850 53 102
111  36.98511826 -025.17281896 53 102
111  36.98518540 -025.17278077 53 102
111  36.98523423 -025.17274805 53 102
111  36.98529567 -025.17269600 53 102
111  36.98534126 -025.17265252 53 102
111  36.98539135 -025.17258899 53 102
111  36.98543086 -025.17253371 53 102
111  36.98547054 -025.17246521 53 102
111  36.98550534 -025.17239655 53 102
111  36.98553311 -025.17232727 53 102
111  36.98555723 -025.17224868 53 102
111  36.98557529 -025.17217128 53 102
111  36.98559186 -025.17209050 53 102
111  36.98559176 -025.17200975 53 102
111  36.98557900 -025.17192548 53 102
111  36.98555716 -025.17184698 53 102
111  36.98552397 -025.17177344 53 102
111  36.98548036 -025.17171308 53 102
111  36.98542642 -025.17166230 53 102
111  36.98536673 -025.17162196 53 102
111  36.98530431 -025.17160569 53 102
111  36.98453864 -025.17144752 53 102
111  36.98299384 -025.17115556 53 102
111  36.98273702 -025.17110101
112  36.98273702 -025.17110101  36.98257632 -025.17108785
111  36.98241228 -025.17119872
111  36.98214027 -025.17138078
111  36.98193516 -025.17093199 53 102
111  36.98088865 -025.17072598 53 102
111  36.98061645 -025.17067914 53 102
111  36.98034323 -025.17062780 53 102
111  36.98008217 -025.17057136 53 102
111  36.97901286 -025.17036281 53 102
111  36.97874297 -025.17031025 53 102
111  36.97847122 -025.17025732 53 102
111  36.97820552 -025.17020557 53 102
111  36.97794399 -025.17014780 53 102
111  36.97768575 -025.17008862 53 102
111  36.97739899 -025.17003585 53 102
111  36.97660587 -025.16989231
111  36.97667261 -025.16965196 53 102
111  36.97716066 -025.16973355 53 102
111  36.97743255 -025.16978052 53 102
111  36.97769692 -025.16983284 53 102
111  36.97795555 -025.16988535 53 102
111  36.97820944 -025.16994236 53 102
111  36.97847076 -025.16999916 53 102
111  36.97873703 -025.17004577 53 102
111  36.97900156 -025.17009722 53 102
111  36.97926423 -025.17015110 53 102
111  36.97952578 -025.17020564 53 102
111  36.97979274 -025.17025527 53 102
111  36.98005834 -025.17030753 53 102
111  36.98046231 -025.17038893 53 102
111  36.98066823 -025.17042419 53 102
111  36.98091103 -025.17046974 53 102
111  36.98114902 -025.17051619 53 102
111  36.98138983 -025.17056339 53 102
111  36.98163026 -025.17060883 53 102
111  36.98186923 -025.17065710 53 102
111  36.98209569 -025.17070806
112  36.98209569 -025.17070806  36.98228019 -025.17075346 53 102
111  36.98239545 -025.17077956 53 102
111  36.98291966 -025.17087843 53 102
111  36.98617403 -025.17151334 53 102
112  36.98642981 -025.17185023  36.98646024 -025.17210161 53 102
111  36.98634010 -025.17223125 53 102
111  36.98630325 -025.17227323 53 102
111  36.98577664 -025.17274793 53 102
111  36.98574760 -025.17278078 53 102
111  36.98573574 -025.17281770 53 102
111  36.98570854 -025.17300727 53 102
111  36.98570775 -025.17304331 53 102
111  36.98572761 -025.17307522
113  36.98475437 -025.17295350
110 1 0.00 27.0 Taxiway D asphalt edge
111  36.98434415 -025.17286049
111  36.98476029 -025.17269450
112  36.98476029 -025.17269450  36.98492412 -025.17271358
112  36.98530162 -025.17246877  36.98547306 -025.17223507
111  36.98530162 -025.17246877
112  36.98530162 -025.17246877  36.98540829 -025.17229707
112  36.98531773 -025.17179308  36.98506077 -025.17163842
111  36.98531773 -025.17179308
112  36.98452563 -025.17161355  36.98425452 -025.17155361
111  36.98452563 -025.17161355
111  36.98232948 -025.17119075
111  36.98214027 -025.17138078
111  36.98121903 -025.17197870
111  36.98118322 -025.17200531
111  36.98116195 -025.17207756
111  36.98117572 -025.17213955
111  36.98121483 -025.17217556
111  36.98121603 -025.17226257
111  36.98100392 -025.17219995
111  36.98082631 -025.17166200
111  36.98173336 -025.17106785
111  36.97658341 -025.17004373
111  36.97665986 -025.16948912
111  36.97742476 -025.16960988
111  36.97783266 -025.16968895
111  36.97822991 -025.16977736
111  36.97910276 -025.16994362
111  36.97948325 -025.17003790
111  36.97994320 -025.17011396
111  36.98034805 -025.17019642
111  36.98040486 -025.17019455
111  36.98265411 -025.16872228
112  36.98294422 -025.16857350  36.98310352 -025.16852599
111  36.98294422 -025.16857350
112  36.98294422 -025.16857350  36.98302211 -025.16855027
112  36.98318643 -025.16856175  36.98326512 -025.16856372
111  36.98318643 -025.16856175
111  36.98538672 -025.16867712
111  36.98557200 -025.16913217
111  36.98310812 -025.17074337
111  36.98624486 -025.17135669
112  36.98624486 -025.17135669  36.98667151 -025.17161236
112  36.98640837 -025.17238129  36.98619775 -025.17259206
111  36.98640837 -025.17238129
112  36.98588203 -025.17285753  36.98558648 -025.17313210
111  36.98588203 -025.17285753
111  36.98585801 -025.17291944
113  36.98583272 -025.17318696
111  36.98347392 -025.16993368
112  36.98347392 -025.16993368  36.98363267 -025.16982107
112  36.98359348 -025.16955723  36.98356051 -025.16939660
111  36.98359348 -025.16955723
111  36.98337140 -025.16905750
112  36.98337140 -025.16905750  36.98328427 -025.16890150
112  36.98273305 -025.16886037  36.98237111 -025.16904638
111  36.98273305 -025.16886037
112  36.98065299 -025.17021896  36.98030580 -025.17044188
111  36.98065299 -025.17021896
111  36.98063071 -025.17024353
111  36.98175523 -025.17046102
113  36.98242450 -025.17061311
110 1 0.00 27.0 New Taxiway 4
111  36.97967308 -025.17299175
111  36.97949035 -025.17252114
111  36.98082631 -025.17166200
113  36.98102091 -025.17213616
110 1 0.00 30.0 New Taxiway 5
111  36.97048368 -025.17073525
111  36.97071681 -025.17078710
112  36.97063415 -025.17101197  36.97074308 -025.17117494
111  36.97063415 -025.17101197
111  36.97357324 -025.17455887
112  36.97357324 -025.17455887  36.97389735 -025.17490384
112  36.97418808 -025.17418840  36.97420130 -025.17393450
111  36.97418808 -025.17418840
111  36.97381693 -025.17172041
112  36.97381693 -025.17172041  36.97380106 -025.17148197
111  36.97364215 -025.17136235
111  36.97417101 -025.17146597
112  36.97394424 -025.17169023  36.97396492 -025.17192744
111  36.97394424 -025.17169023
111  36.97441158 -025.17477975
112  36.97441158 -025.17477975  36.97449799 -025.17546142
112  36.97525283 -025.17531517  36.97562324 -025.17508887
111  36.97525283 -025.17531517
112  36.97924817 -025.17268816  36.98017276 -025.17205581
111  36.97924817 -025.17268816
112  36.97924817 -025.17268816  36.97936428 -025.17262384
112  36.97928276 -025.17248460  36.97923784 -025.17244691
111  36.97928276 -025.17248460
111  36.97941250 -025.17224649
111  36.97967308 -025.17299175
111  36.97660639 -025.17500362
111  36.97511324 -025.17597224
111  36.97502488 -025.17631804
111  36.97426597 -025.17682713
111  36.97367247 -025.17539223
113  36.97015421 -025.17112949
110 1 0.00 0.0 New Taxiway 6
111  36.97015421 -025.17112949
111  36.96906811 -025.16981725
111  36.96935078 -025.16946417
111  36.96966986 -025.16984539
111  36.96980505 -025.16993725
113  36.97048368 -025.17073525
110 1 0.00 42.0 New Taxiway 8
111  36.96157404 -025.16071509
111  36.96188241 -025.16037574
111  36.96200863 -025.16054638
111  36.96200635 -025.16058706
111  36.96235121 -025.16100721
111  36.96237497 -025.16099768
111  36.96283949 -025.16156079
111  36.96378086 -025.16296150
111  36.96392237 -025.16318231
111  36.96479016 -025.16417119
111  36.96482416 -025.16410734
111  36.96502596 -025.16431625
111  36.96502953 -025.16438323
111  36.96599550 -025.16543246
111  36.96793798 -025.16776006
111  36.96952000 -025.16806524
112  36.96952000 -025.16806524  36.96958409 -025.16804451
112  36.96956412 -025.16789546  36.96951563 -025.16779645
111  36.96956412 -025.16789546
111  36.96732944 -025.16519567
111  36.96726878 -025.16492363
111  36.96733298 -025.16485092
111  36.96970808 -025.16779983
111  36.97042086 -025.16867133
111  36.97058841 -025.16887252
111  36.96885220 -025.16853441
112  36.96885220 -025.16853441  36.96874013 -025.16852291
112  36.96876719 -025.16872212  36.96884980 -025.16881794
111  36.96876719 -025.16872212
111  36.96935078 -025.16946417
111  36.96906811 -025.16981725
111  36.96877148 -025.16978314
112  36.96887473 -025.16958820  36.96881962 -025.16945575
113  36.96887473 -025.16958820
110 1 0.00 0.0 New Taxiway 12
111  36.95856826 -025.16790588
111  36.95871678 -025.16745191
111  36.95837769 -025.16684639
112  36.95837769 -025.16684639  36.95825197 -025.16662230
112  36.95837769 -025.16581177  36.95851485 -025.16547325
112  36.95922350 -025.16533975  36.95960449 -025.16541603
111  36.95922350 -025.16533975
111  36.95905586 -025.16674627
112  36.95905586 -025.16674627  36.95904126 -025.16730252
112  36.95975147 -025.16797938  36.96020231 -025.16817407
113  36.95975147 -025.16797938
110 1 0.00 0.0 New Taxiway 3
111  36.95852336 -025.16773537
111  36.95856496 -025.16748483
111  36.95831407 -025.16707312
112  36.95831407 -025.16707312  36.95817569 -025.16684469
112  36.95812407 -025.16610609  36.95817702 -025.16559919
111  36.95812407 -025.16610609
112  36.95812407 -025.16610609  36.95827209 -025.16519768
112  36.95914235 -025.16517207  36.95936320 -025.16523980
111  36.95914235 -025.16517207
112  36.95954839 -025.16515409  36.95961127 -025.16508472
111  36.95954839 -025.16515409
111  36.95963277 -025.16506528
111  36.96244728 -025.16171250
111  36.96257937 -025.16188813
111  36.95926436 -025.16583575
111  36.95916310 -025.16675541
112  36.95916310 -025.16675541  36.95915781 -025.16732628
112  36.95986699 -025.16781001  36.96028036 -025.16791805
111  36.95986699 -025.16781001
113  36.96023739 -025.16813769
110 1 0.00 315.0 New Taxiway 4
111  36.96378086 -025.16296150
111  36.96275314 -025.16169052
111  36.96303173 -025.16133802
111  36.96375989 -025.16116705
112  36.96468320 -025.16142229  36.96514380 -025.16177443
111  36.96468320 -025.16142229
112  36.96474298 -025.16161386  36.96476789 -025.16168539
111  36.96474298 -025.16161386
112  36.96541800 -025.16231009  36.96547094 -025.16238162
111  36.96541800 -025.16231009
111  36.96709915 -025.16427624
111  36.96762398 -025.16459476
111  36.96733298 -025.16485092
111  36.96469531 -025.16177890
112  36.96469531 -025.16177890  36.96444057 -025.16158327
111  36.96407885 -025.16155709
112  36.96407885 -025.16155709  36.96392842 -025.16153386
112  36.96383227 -025.16180783  36.96380144 -025.16200070
111  36.96383227 -025.16180783
112  36.96368799 -025.16256318  36.96365716 -025.16275605
113  36.96368799 -025.16256318
110 1 0.25 350.0 New Taxiway 3
111  36.97730418 -025.16821470
112  36.97755686 -025.16828437  36.97763243 -025.16831279
112  36.97771924 -025.16868987  36.97769780 -025.16891073
112  36.97750986 -025.16896431  36.97742576 -025.16899321
112  36.97727745 -025.16897016  36.97723787 -025.16895777
112  36.97710462 -025.16890083  36.97700785 -025.16883676
111  36.97694917 -025.16860175
111  36.97702368 -025.16861331
112  36.97708271 -025.16880456  36.97711899 -025.16884790
112  36.97725166 -025.16890866  36.97732190 -025.16891937
112  36.97750095 -025.16869976  36.97756361 -025.16854083
112  36.97750501 -025.16835300  36.97748001 -025.16832052
113  36.97729802 -025.16825979
110 1 0.25 350.0 New Taxiway 1
111  36.97371469 -025.17141013
111  36.97334938 -025.17215599
112  36.97330991 -025.17234416  36.97329384 -025.17244545
111  36.97330991 -025.17234416
112  36.97330991 -025.17234416  36.97321366 -025.17249363
112  36.97324103 -025.17260519  36.97324347 -025.17263936
111  36.97324103 -025.17260519
112  36.97324103 -025.17260519  36.97324580 -025.17267208
112  36.97324103 -025.17289194  36.97321622 -025.17298152
112  36.97305639 -025.17304601  36.97293997 -025.17300062
112  36.97296748 -025.17280634  36.97298466 -025.17274065
112  36.97313368 -025.17249083  36.97314513 -025.17244783
111  36.97318632 -025.17126990
111  36.97321183 -025.17127288
112  36.97317847 -025.17212847  36.97317847 -025.17224027
112  36.97330232 -025.17218903  36.97336416 -025.17210819
113  36.97369579 -025.17138974
112  36.97317754 -025.17292013  36.97318716 -025.17289089
112  36.97318324 -025.17277390  36.97317500 -025.17272402
112  36.97309960 -025.17270351  36.97306250 -025.17273619
112  36.97301900 -025.17287630  36.97301401 -025.17290314
114  36.97306744 -025.17299756  36.97313202 -025.17303885
110 2 0.00 0.0 New Taxiway 48
111  36.97669407 -025.16813377
111  36.97727177 -025.16821043
111  36.97723140 -025.16855128
113  36.97668084 -025.16846153
110 2 0.00 351.1 Car park
111  36.97397553 -025.16505880
111  36.97373141 -025.16476791
111  36.97377827 -025.16468710
111  36.97391820 -025.16480458
111  36.97456152 -025.16492841
113  36.97452734 -025.16517301
130 Airport Boundary 10
111  36.99302440 -025.17446509
111  36.99299522 -025.17538306
111  36.98057243 -025.17357293
111  36.97428284 -025.17748016
111  36.96871014 -025.17104007
111  36.95174740 -025.16781451
111  36.95195013 -025.16575281
111  36.95691220 -025.16484242
111  36.95876687 -025.16260115
111  36.96037640 -025.16048194
111  36.96255035 -025.15936648
111  36.97062413 -025.16007556
111  36.97953489 -025.16869798
111  36.98464638 -025.16700468
111  36.98647286 -025.16894314
113  36.98679332 -025.17114084
120 Linear Feature 30
111  36.97430187 -025.16622332 51
115  36.97430542 -025.16619926
120 Linear Feature 30
111  36.97406763 -025.16617253 51
115  36.97407048 -025.16614891
120 Linear Feature 29
111  36.97421832 -025.16716604 51
115  36.97422224 -025.16713530
120 Linear Feature 29
111  36.97391467 -025.16711124 51
115  36.97391859 -025.16708049
120 Linear Feature 13
111  36.97361641 -025.16996873 57 105
111  36.97356008 -025.16948577 51 101
111  36.97355091 -025.16942733 51 101
111  36.97350543 -025.16913736 51 101
111  36.97348247 -025.16902349 51 101
111  36.97344422 -025.16883383 51 101
111  36.97340063 -025.16863692 51 101
111  36.97336237 -025.16842271 51 101
111  36.97331511 -025.16801696 51 101
111  36.97330497 -025.16783064 51 101
111  36.97330764 -025.16770413 51 101
111  36.97332404 -025.16756960 51 101
111  36.97337406 -025.16725986 51 101
111  36.97342572 -025.16674474 51 101
115  36.97343714 -025.16663678
120 Linear Feature 17
111  36.97308029 -025.16724809 51
115  36.97308222 -025.16722989
120 Linear Feature 17
111  36.97305845 -025.16724499 51
115  36.97306039 -025.16722680
120 Linear Feature 18
111  36.97365127 -025.16918228 51 101
112  36.97356017 -025.16914412  36.97350702 -025.16910819 51 101
115  36.97348247 -025.16902349
120 Linear Feature 17
111  36.97296204 -025.16723519 51
115  36.97296418 -025.16721081
120 Linear Feature 27
111  36.97439012 -025.16668766 51
115  36.97439304 -025.16666275
120 Linear Feature 27
111  36.97435345 -025.16667964 51
115  36.97435638 -025.16665472
120 Linear Feature 27
111  36.97426624 -025.16666092 51
115  36.97426916 -025.16663601
120 Linear Feature 27
111  36.97397540 -025.16659810 51
115  36.97397762 -025.16657496
120 Linear Feature 24
111  36.97344632 -025.16699823 51
111  36.97374328 -025.16706280 51
111  36.97391617 -025.16709567 51
111  36.97422017 -025.16715015 51
111  36.97456181 -025.16722221 51
115  36.97475877 -025.16727541
120 Linear Feature 23
111  36.97429565 -025.16747731 51
115  36.97429815 -025.16745355
120 Linear Feature 25
111  36.97354370 -025.16653156 51
111  36.97358895 -025.16652109 51
111  36.97362859 -025.16652417 51
111  36.97389414 -025.16657131 51
111  36.97397627 -025.16658699 51
111  36.97426786 -025.16664882 51
111  36.97435496 -025.16666729 51
111  36.97439178 -025.16667510 51
111  36.97465168 -025.16673022 51
111  36.97469502 -025.16675546 51
111  36.97475207 -025.16681892 51
111  36.97477127 -025.16685074 51
115  36.97479480 -025.16689566
120 Linear Feature 23
111  36.97432336 -025.16748325 51
115  36.97432574 -025.16745986
120 Linear Feature 22
111  36.97415630 -025.16764410 51
115  36.97415810 -025.16762281
120 Linear Feature 21
111  36.97338587 -025.16748589 51
111  36.97384915 -025.16758926 51
111  36.97415714 -025.16763541 51
111  36.97442518 -025.16767557 51
111  36.97447338 -025.16769615 51
111  36.97450347 -025.16772622 51
111  36.97453403 -025.16777036 51
111  36.97455834 -025.16782309 51
111  36.97457161 -025.16788935 51
111  36.97457334 -025.16794878 51
111  36.97455854 -025.16802873 51
115  36.97453143 -025.16811110
120 Linear Feature 20
111  36.97342704 -025.16717849 58
111  36.97348841 -025.16716066 58
111  36.97355247 -025.16716519 58
111  36.97361880 -025.16719281 58
111  36.97367046 -025.16722639 58
111  36.97371866 -025.16728791 58
111  36.97376488 -025.16737274 58
111  36.97426421 -025.16746129 51
111  36.97432455 -025.16747203 51
111  36.97435180 -025.16747683 58
111  36.97443259 -025.16749116 58
111  36.97448863 -025.16751007 58
111  36.97452958 -025.16754059 58
111  36.97457928 -025.16759361 58
111  36.97460821 -025.16763883 58
111  36.97463225 -025.16768616 58
111  36.97465687 -025.16776391 58
111  36.97466069 -025.16783319 58
111  36.97465450 -025.16789017 58
111  36.97464332 -025.16793628 58
115  36.97462541 -025.16799542
120 Linear Feature 19
111  36.97387969 -025.16922782 51 101
112  36.97379433 -025.16912187  36.97377042 -025.16905312 51 101
115  36.97379784 -025.16897622
120 Linear Feature 17
111  36.97289158 -025.16722411 51
115  36.97289373 -025.16719972
120 Linear Feature 17
111  36.97278673 -025.16720735 51
115  36.97278887 -025.16718296
120 Linear Feature 17
111  36.97275789 -025.16720348 51
115  36.97276003 -025.16717910
120 Linear Feature 17
111  36.97273852 -025.16720038 51
115  36.97274067 -025.16717600
120 Linear Feature 16
111  36.97317104 -025.16643096 51
115  36.97317317 -025.16641359
120 Linear Feature 16
111  36.97315395 -025.16642695 51
115  36.97315608 -025.16640958
120 Linear Feature 16
111  36.97312725 -025.16642250 51
115  36.97312939 -025.16640512
120 Linear Feature 16
111  36.97306353 -025.16641537 51
115  36.97306638 -025.16638997
120 Linear Feature 16
111  36.97300337 -025.16640646 51
115  36.97300622 -025.16638062
120 Linear Feature 16
111  36.97289835 -025.16638819 51
115  36.97290085 -025.16636235
120 Linear Feature 16
111  36.97287094 -025.16638240 51
115  36.97287344 -025.16635923
120 Linear Feature 16
111  36.97285315 -025.16637928 51
115  36.97285564 -025.16635611
120 Linear Feature 17
111  36.96913423 -025.16815616 54
115  36.96910522 -025.16841355
120 Linear Feature 15
111  36.97660587 -025.16989231 53 102
111  36.97611256 -025.16980364 53 102
111  36.97584152 -025.16975164 53 102
111  36.97503521 -025.16958967 53 102
111  36.97476556 -025.16953120 53 102
111  36.97449378 -025.16948071 53 102
111  36.97409249 -025.16940098 53 102
111  36.97402435 -025.16940693 53 102
111  36.97394174 -025.16944084 53 102
111  36.97388140 -025.16948349 53 102
111  36.97381646 -025.16956044 53 102
111  36.97377136 -025.16963454 53 102
111  36.97374003 -025.16973053 53 102
111  36.97372105 -025.16982510 53 102
111  36.97372304 -025.16992720 53 102
111  36.97376763 -025.17027535 53 102
111  36.97380585 -025.17044544 53 102
111  36.97388229 -025.17059693 53 102
111  36.97398074 -025.17071140 53 102
111  36.97411087 -025.17080574 53 102
115  36.97413220 -025.17081464
120 Linear Feature 26
111  36.97357015 -025.16639342 51
111  36.97360803 -025.16638362 51
111  36.97364692 -025.16638326 51
111  36.97369753 -025.16639424 51
111  36.97373657 -025.16641223 51
111  36.97376650 -025.16643223 51
111  36.97381053 -025.16646851 51
111  36.97384100 -025.16650842 51
111  36.97385656 -025.16653202 51
111  36.97387355 -025.16655488 51
115  36.97389414 -025.16657131
120 Linear Feature 14
111  36.97355103 -025.16943086 51 101
111  36.97358037 -025.16928238 51 101
111  36.97364287 -025.16918020 51 101
111  36.97379784 -025.16897622 51 101
111  36.97453143 -025.16811110 51 101
111  36.97469303 -025.16790993 51 101
111  36.97474366 -025.16780393 51 101
111  36.97476350 -025.16773277 51 101
111  36.97477849 -025.16765066 51 101
111  36.97481547 -025.16718906 51 101
111  36.97481066 -025.16701251 51 101
111  36.97479480 -025.16689566 51 101
111  36.97475514 -025.16673900 51 101
111  36.97471356 -025.16664105 51 101
111  36.97467188 -025.16655980 51 101
111  36.97460988 -025.16646957 51 101
111  36.97450974 -025.16632867 51 101
111  36.97445061 -025.16627101 51 101
111  36.97437485 -025.16622803 51 101
111  36.97430310 -025.16621150 51 101
111  36.97406890 -025.16616103 51 101
111  36.97399433 -025.16614843 51 101
111  36.97391162 -025.16614431 51 101
111  36.97386845 -025.16615170 51 101
111  36.97381497 -025.16616881 51 101
111  36.97377093 -025.16619033 51 101
111  36.97371685 -025.16622649 51 101
111  36.97366863 -025.16627205 51 101
111  36.97357087 -025.16639305 51 101
111  36.97350469 -025.16647899 51 101
111  36.97346690 -025.16655278 51 101
115  36.97343714 -025.16663678
120 Linear Feature 2
111  36.98273702 -025.17110101 10
115  36.98271789 -025.17125392
120 Linear Feature 12
111  36.97271978 -025.16899255 51
112  36.97303888 -025.16891341  36.97316286 -025.16884635 51
115  36.97325010 -025.16874481
120 Linear Feature 2
111  36.98299384 -025.17115556 10
115  36.98297624 -025.17130269
120 Linear Feature 2
111  36.98325151 -025.17120358 10
115  36.98323391 -025.17135071
120 Linear Feature 5
111  36.98834456 -025.17407926 10
111  36.98824358 -025.17391026 10
115  36.98839345 -025.17375323
120 Linear Feature 8
111  36.98640644 -025.17178278 10
115  36.98652331 -025.17173041
120 Linear Feature 11
111  36.98209569 -025.17070806 10
115  36.98211301 -025.17055730
120 Linear Feature 11
111  36.98186923 -025.17065710 10
115  36.98188655 -025.17050634
120 Linear Feature 11
111  36.98163026 -025.17060883 10
115  36.98164758 -025.17045807
120 Linear Feature 11
111  36.98138983 -025.17056339 10
115  36.98140715 -025.17041263
120 Linear Feature 11
111  36.98114902 -025.17051619 10
115  36.98116634 -025.17036543
120 Linear Feature 11
111  36.98091103 -025.17046974 10
115  36.98092835 -025.17031898
120 Linear Feature 11
111  36.98066823 -025.17042419 10
115  36.98068555 -025.17027343
120 Linear Feature 11
111  36.98005834 -025.17030753 10
115  36.98007787 -025.17015400
120 Linear Feature 11
111  36.97979274 -025.17025527 10
115  36.97980858 -025.17010636
120 Linear Feature 11
111  36.97952578 -025.17020564 10
115  36.97954162 -025.17005673
120 Linear Feature 11
111  36.97926423 -025.17015110 10
115  36.97928450 -025.17000034
120 Linear Feature 11
111  36.97900156 -025.17009722 10
115  36.97902184 -025.16994646
120 Linear Feature 11
111  36.97873703 -025.17004577 10
115  36.97875730 -025.16989501
120 Linear Feature 11
111  36.97847076 -025.16999916 10
115  36.97849103 -025.16984840
120 Linear Feature 11
111  36.97820944 -025.16994236 10
115  36.97822972 -025.16979160
120 Linear Feature 11
111  36.97795555 -025.16988535 10
115  36.97797583 -025.16973459
120 Linear Feature 11
111  36.97769692 -025.16983284 10
115  36.97771867 -025.16967839
120 Linear Feature 11
111  36.97743255 -025.16978052 10
115  36.97744914 -025.16963160
120 Linear Feature 11
111  36.97716066 -025.16973355 10
115  36.97717725 -025.16958464
120 Linear Feature 11
111  36.97688450 -025.16968788 10
115  36.97690108 -025.16953897
120 Linear Feature 11
111  36.97661814 -025.16963706 10
115  36.97663042 -025.16949046
120 Linear Feature 11
111  36.97656340 -025.16933831 10
115  36.97644404 -025.16931798
120 Linear Feature 11
111  36.97660953 -025.16899566 10
115  36.97649017 -025.16897534
120 Linear Feature 11
111  36.97665628 -025.16865687 10
115  36.97653692 -025.16863654
120 Linear Feature 7
111  36.98642920 -025.17188982 10
115  36.98654361 -025.17187288
120 Linear Feature 5
111  36.98821063 -025.17422698 10
111  36.98798103 -025.17386102 10
115  36.98827866 -025.17358822
120 Linear Feature 5
111  36.98793851 -025.17417907 10
111  36.98770679 -025.17381312 10
115  36.98800441 -025.17354032
120 Linear Feature 6
111  36.98654332 -025.17201986 10
115  36.98643012 -025.17199778
120 Linear Feature 6
111  36.98651872 -025.17216618 10
115  36.98640490 -025.17210405
120 Linear Feature 6
111  36.98645720 -025.17229170 10
115  36.98636184 -025.17220339
120 Linear Feature 6
111  36.98637047 -025.17240259 10
115  36.98629725 -025.17227963
120 Linear Feature 10
111  36.97394174 -025.16944084 10
115  36.97396979 -025.16951661
120 Linear Feature 10
111  36.97584152 -025.16975164 10
115  36.97582235 -025.16989708
120 Linear Feature 10
111  36.98169849 -025.17088507 10
115  36.98167990 -025.17103403
120 Linear Feature 10
111  36.98142467 -025.17083213 10
115  36.98140609 -025.17098109
120 Linear Feature 10
111  36.98115512 -025.17077865 10
115  36.98113654 -025.17092761
120 Linear Feature 10
111  36.98088865 -025.17072598 10
115  36.98087006 -025.17087494
120 Linear Feature 10
111  36.98061645 -025.17067914 10
115  36.98059787 -025.17082810
120 Linear Feature 10
111  36.98034323 -025.17062780 10
115  36.98032362 -025.17078061
120 Linear Feature 10
111  36.98008217 -025.17057136 10
115  36.98006256 -025.17072417
120 Linear Feature 10
111  36.97981612 -025.17051874 10
115  36.97979908 -025.17066706
120 Linear Feature 10
111  36.97954649 -025.17046677 10
115  36.97952944 -025.17061637
120 Linear Feature 10
111  36.97927942 -025.17041479 10
115  36.97926237 -025.17056439
120 Linear Feature 10
111  36.97901286 -025.17036281 10
115  36.97899582 -025.17051241
120 Linear Feature 10
111  36.97874297 -025.17031025 10
115  36.97872592 -025.17045985
120 Linear Feature 10
111  36.97847122 -025.17025732 10
115  36.97845418 -025.17040692
120 Linear Feature 10
111  36.97820552 -025.17020557 10
115  36.97818540 -025.17035645
120 Linear Feature 10
111  36.97794399 -025.17014716 10
115  36.97792387 -025.17029804
120 Linear Feature 10
111  36.97768575 -025.17008862 10
115  36.97766295 -025.17024222
120 Linear Feature 10
111  36.97741395 -025.17003872 10
115  36.97739690 -025.17018960
120 Linear Feature 10
111  36.97713970 -025.16998931 10
115  36.97712266 -025.17014019
120 Linear Feature 10
111  36.97686546 -025.16993926 10
115  36.97685303 -025.17008886
120 Linear Feature 10
111  36.97659531 -025.16989050 10
115  36.97658339 -025.17003753
120 Linear Feature 10
111  36.97639010 -025.16985354 10
115  36.97637819 -025.17000057
120 Linear Feature 10
111  36.97611256 -025.16980364 10
115  36.97609768 -025.16995899
120 Linear Feature 10
111  36.97557259 -025.16969778 10
115  36.97555145 -025.16984349
120 Linear Feature 10
111  36.97530243 -025.16964326 10
115  36.97528128 -025.16979083
120 Linear Feature 10
111  36.97503521 -025.16958967 10
115  36.97501333 -025.16973908
120 Linear Feature 10
111  36.97476556 -025.16953120 10
115  36.97474368 -025.16968061
120 Linear Feature 10
111  36.97449378 -025.16948071 10
115  36.97447190 -025.16963012
120 Linear Feature 10
111  36.97409249 -025.16940098 10
115  36.97409175 -025.16948598
120 Linear Feature 10
111  36.97381646 -025.16956044 10
115  36.97386887 -025.16961403
120 Linear Feature 10
111  36.97374003 -025.16973053 10
115  36.97380572 -025.16975548
120 Linear Feature 10
111  36.97372304 -025.16992720 10
115  36.97379095 -025.16991704
120 Linear Feature 10
111  36.97376763 -025.17027535 10
115  36.97383259 -025.17026242
120 Linear Feature 10
111  36.97380585 -025.17044544 10
115  36.97386785 -025.17041311
120 Linear Feature 10
111  36.97388229 -025.17059693 10
115  36.97393396 -025.17054334
120 Linear Feature 10
111  36.97398074 -025.17071140 10
115  36.97400658 -025.17066520
120 Linear Feature 10
111  36.97411136 -025.17080731 10
115  36.97411874 -025.17077774
120 Linear Feature 6
111  36.98620500 -025.17255122 10
115  36.98613178 -025.17242826
120 Linear Feature 6
111  36.98603707 -025.17270293 10
115  36.98596385 -025.17257997
120 Linear Feature 6
111  36.98586705 -025.17285587 10
115  36.98579384 -025.17273291
120 Linear Feature 6
111  36.98582946 -025.17304519 10
115  36.98570840 -025.17302116
120 Linear Feature 9
111  36.98440787 -025.17116748 10
115  36.98442510 -025.17102116
120 Linear Feature 9
111  36.98315608 -025.17092414 10
115  36.98317576 -025.17076935
120 Linear Feature 9
111  36.98340767 -025.17097188 10
115  36.98342735 -025.17081710
120 Linear Feature 9
111  36.98365557 -025.17102040 10
115  36.98367525 -025.17086561
120 Linear Feature 9
111  36.98390593 -025.17106968 10
115  36.98392561 -025.17091489
120 Linear Feature 9
111  36.98415382 -025.17111897 10
115  36.98417351 -025.17096418
120 Linear Feature 9
111  36.98465639 -025.17121522 10
115  36.98467361 -025.17106891
120 Linear Feature 9
111  36.98489875 -025.17126374 10
115  36.98491597 -025.17111742
120 Linear Feature 9
111  36.98515095 -025.17131225 10
115  36.98517064 -025.17116440
120 Linear Feature 9
111  36.98540316 -025.17136154 10
115  36.98542284 -025.17121368
120 Linear Feature 9
111  36.98564983 -025.17141005 10
115  36.98566705 -025.17126451
120 Linear Feature 9
111  36.98589588 -025.17145780 10
115  36.98591310 -025.17131225
120 Linear Feature 9
111  36.98614501 -025.17150631 10
115  36.98616038 -025.17136077
120 Linear Feature 9
111  36.98622743 -025.17155098 10
115  36.98627726 -025.17140928
120 Linear Feature 9
111  36.98630432 -025.17160489 10
115  36.98637999 -025.17148475
120 Linear Feature 9
111  36.98637014 -025.17168343 10
115  36.98646303 -025.17159333
120 Linear Feature 5
111  36.98766640 -025.17413116 10
111  36.98743680 -025.17375989 10
115  36.98773443 -025.17348709
120 Linear Feature 5
111  36.98739960 -025.17408060 10
111  36.98717425 -025.17370533 10
115  36.98746125 -025.17343652
120 Linear Feature 5
111  36.98713386 -025.17402870 10
111  36.98691277 -025.17364811 10
115  36.98719976 -025.17338197
120 Linear Feature 5
111  36.98687131 -025.17397015 10
111  36.98665235 -025.17359222 10
115  36.98694147 -025.17332741
120 Linear Feature 5
111  36.98660983 -025.17391559 10
111  36.98638873 -025.17354166 10
115  36.98668530 -025.17327685
120 Linear Feature 5
111  36.98633452 -025.17386635 10
111  36.98611768 -025.17349242 10
115  36.98641424 -025.17322761
120 Linear Feature 5
111  36.98606666 -025.17381445 10
111  36.98584344 -025.17344186 10
115  36.98614213 -025.17317172
120 Linear Feature 4
111  36.98568320 -025.17357863 10
115  36.98578851 -025.17375963
120 Linear Feature 4
111  36.98572626 -025.17324826 10
115  36.98586725 -025.17312123
120 Linear Feature 3
111  36.98568728 -025.17375171 10
115  36.98579269 -025.17293555
120 Linear Feature 2
111  36.98351345 -025.17125299 10
115  36.98349585 -025.17140077
120 Linear Feature 2
111  36.98376770 -025.17130176 10
115  36.98375010 -025.17144954
120 Linear Feature 2
111  36.98402247 -025.17135118 10
115  36.98400333 -025.17149831
120 Linear Feature 2
111  36.98428387 -025.17140068 10
115  36.98426422 -025.17154909
120 Linear Feature 2
111  36.98453864 -025.17144752 10
115  36.98452002 -025.17160877
120 Linear Feature 2
111  36.98479252 -025.17150404 10
115  36.98477284 -025.17165806
120 Linear Feature 2
111  36.98504411 -025.17155487 10
115  36.98502442 -025.17170888
120 Linear Feature 2
111  36.98530431 -025.17160569 10
115  36.98527909 -025.17175971
120 Linear Feature 2
111  36.98542642 -025.17166230 10
115  36.98535630 -025.17179398
120 Linear Feature 2
111  36.98552397 -025.17177344 10
115  36.98542186 -025.17186739
120 Linear Feature 2
111  36.98557900 -025.17192548 10
115  36.98545843 -025.17196168
120 Linear Feature 2
111  36.98559186 -025.17209050 10
115  36.98546637 -025.17206739
120 Linear Feature 2
111  36.98555723 -025.17224868 10
115  36.98543666 -025.17219940
120 Linear Feature 2
111  36.98550534 -025.17239655 10
115  36.98539585 -025.17232494
120 Linear Feature 2
111  36.98543086 -025.17253371 10
115  36.98533552 -025.17243591
120 Linear Feature 2
111  36.98534126 -025.17265252 10
115  36.98525884 -025.17253547
120 Linear Feature 2
111  36.98523423 -025.17274805 10
115  36.98517272 -025.17261714
120 Linear Feature 2
111  36.98511826 -025.17281896 10
115  36.98507274 -025.17267418
120 Linear Feature 2
111  36.98499594 -025.17286030 10
115  36.98497195 -025.17271013
120 Linear Feature 2
111  36.98486574 -025.17288019 10
115  36.98486451 -025.17272310
120 Linear Feature 2
111  36.98473443 -025.17288514 10
115  36.98475473 -025.17271496
120 Linear Feature 3
111  36.95866510 -025.16774530 53 102
111  36.95870494 -025.16745317 53 102
111  36.95844804 -025.16700278 53 102
111  36.95839988 -025.16691930 53 102
111  36.95834632 -025.16682240 53 102
111  36.95830124 -025.16671027 53 102
111  36.95826736 -025.16659697 53 102
111  36.95825106 -025.16647431 53 102
111  36.95824496 -025.16635454 53 102
111  36.95825116 -025.16623596 53 102
111  36.95826456 -025.16611419 53 102
111  36.95828291 -025.16599159 53 102
111  36.95832419 -025.16586240 53 102
111  36.95837620 -025.16574450 53 102
111  36.95844237 -025.16563956 53 102
111  36.95851909 -025.16554484 53 102
111  36.95860654 -025.16546535 53 102
111  36.95870328 -025.16540435 53 102
111  36.95879972 -025.16536139 53 102
111  36.95890333 -025.16533519 53 102
111  36.95901171 -025.16532681 53 102
111  36.95911706 -025.16533922 53 102
111  36.95918522 -025.16535237 53 102
111  36.95910643 -025.16605634 53 102
111  36.95908793 -025.16622163 53 102
111  36.95906646 -025.16641351 53 102
111  36.95904493 -025.16660583 53 102
111  36.95903229 -025.16677486 53 102
111  36.95904085 -025.16694777 53 102
111  36.95906592 -025.16711595 53 102
111  36.95910456 -025.16728115 53 102
111  36.95917127 -025.16742986 53 102
111  36.95925476 -025.16756686 53 102
111  36.95935300 -025.16768601 53 102
111  36.95946748 -025.16779141 53 102
111  36.95958555 -025.16787363 53 102
111  36.95970988 -025.16793558 53 102
115  36.95979387 -025.16796614
120 Linear Feature 20
111  36.98569618 -025.17204481 51 101
111  36.98574390 -025.17169247 51 101
112  36.98576104 -025.17163119  36.98576960 -025.17161740 51 101
111  36.98580998 -025.17159442 51 101
112  36.98591889 -025.17156379  36.98597518 -025.17156225 51 101
111  36.98606573 -025.17159289 51 101
112  36.98618688 -025.17170013  36.98621870 -025.17174762 51 101
111  36.98625541 -025.17186098 51 101
112  36.98626642 -025.17199426  36.98626520 -025.17202949 51 101
112  36.98623705 -025.17214286  36.98622481 -025.17217503 51 101
111  36.98614650 -025.17227767 51 101
112  36.98606941 -025.17233588  36.98603759 -025.17235120 51 101
111  36.98595560 -025.17238490 51 101
111  36.98587729 -025.17243852 51 101
111  36.98574408 -025.17256291 51 101
112  36.98566380 -025.17264911  36.98565278 -025.17266443 51 101
115  36.98561193 -025.17273296
120 Linear Feature 16
111  36.97966158 -025.17220798 51 105
111  36.98020301 -025.17232192 51 105
111  36.98026140 -025.17231749 51 105
111  36.98031886 -025.17228359 51 105
111  36.98213340 -025.17109486 51 105
111  36.98215177 -025.17105405 51 105
111  36.98215465 -025.17100717 51 105
111  36.98215375 -025.17097082 51 105
111  36.98214554 -025.17093453 51 105
111  36.98213477 -025.17089740 51 105
115  36.98210089 -025.17083681
120 Linear Feature 11
111  36.95864208 -025.16734232 10
115  36.95854677 -025.16742380
120 Linear Feature 18
111  36.96970071 -025.16808838 10
115  36.96959243 -025.16802224
120 Linear Feature 19
111  36.97319332 -025.17060556 53 102
111  36.97320777 -025.17060130 53 102
111  36.97329105 -025.17057896 53 102
111  36.97335308 -025.17054705 53 102
111  36.97342021 -025.17048536 53 102
111  36.97346525 -025.17042048 53 102
111  36.97350009 -025.17034070 53 102
111  36.97352049 -025.17025029 53 102
111  36.97352558 -025.17015456 53 102
111  36.97351794 -025.17006202 53 102
111  36.97347800 -025.16971207 53 102
111  36.97346065 -025.16962940 53 102
111  36.97343551 -025.16953551 53 102
111  36.97340552 -025.16947011 53 102
111  36.97336073 -025.16938766 53 102
111  36.97331520 -025.16932933 53 102
111  36.97325450 -025.16927278 53 102
111  36.97319091 -025.16923167 53 102
111  36.97312109 -025.16919726 53 102
115  36.97304631 -025.16917918
120 Linear Feature 18
111  36.96948398 -025.16822829 10
115  36.96949857 -025.16809273
120 Linear Feature 18
111  36.96923993 -025.16817382 10
115  36.96925538 -025.16802545
120 Linear Feature 18
111  36.96899845 -025.16812683 10
115  36.96901390 -025.16797846
120 Linear Feature 18
111  36.97320706 -025.17055593 10
115  36.97320777 -025.17060130
120 Linear Feature 18
111  36.97332241 -025.17047081 10
115  36.97335308 -025.17054705
120 Linear Feature 18
111  36.97340639 -025.17036629 10
115  36.97346525 -025.17042048
120 Linear Feature 18
111  36.97345282 -025.17023139 10
115  36.97352049 -025.17025029
120 Linear Feature 18
111  36.97345027 -025.17007841 10
115  36.97351794 -025.17006202
120 Linear Feature 18
111  36.97341033 -025.16972846 10
115  36.97347800 -025.16971207
120 Linear Feature 18
111  36.97337420 -025.16957691 10
115  36.97343572 -025.16953795
120 Linear Feature 18
111  36.97331109 -025.16944405 10
115  36.97336073 -025.16938766
120 Linear Feature 18
111  36.97321716 -025.16934354 10
115  36.97325450 -025.16927278
120 Linear Feature 18
111  36.97310137 -025.16928290 10
115  36.97312109 -025.16919726
120 Linear Feature 18
111  36.97286254 -025.16931054 10
115  36.97287037 -025.16915257
120 Linear Feature 18
111  36.97258381 -025.16924459 10
115  36.97259929 -025.16909833
120 Linear Feature 18
111  36.97229999 -025.16920524 10
115  36.97231886 -025.16905259
120 Linear Feature 18
111  36.97202126 -025.16915844 10
115  36.97204013 -025.16900579
120 Linear Feature 18
111  36.97175018 -025.16910206 10
115  36.97176905 -025.16894942
120 Linear Feature 18
111  36.97148164 -025.16904782 10
115  36.97150052 -025.16889517
120 Linear Feature 18
111  36.97121481 -025.16899357 10
115  36.97123369 -025.16884093
120 Linear Feature 18
111  36.97094798 -025.16893507 10
115  36.97096940 -025.16878242
120 Linear Feature 18
111  36.97068370 -025.16887870 10
115  36.97070512 -025.16872605
120 Linear Feature 18
111  36.97040894 -025.16882316 10
115  36.97043036 -025.16867051
120 Linear Feature 18
111  36.97023913 -025.16879326 10
115  36.97026056 -025.16864061
120 Linear Feature 18
111  36.97000533 -025.16874947 10
115  36.97002675 -025.16859682
120 Linear Feature 18
111  36.96977324 -025.16870568 10
115  36.96979466 -025.16855303
120 Linear Feature 18
111  36.96954371 -025.16865869 10
115  36.96956513 -025.16850604
120 Linear Feature 18
111  36.96931673 -025.16861490 10
115  36.96933815 -025.16846225
120 Linear Feature 18
111  36.96908890 -025.16856684 10
115  36.96911032 -025.16841419
120 Linear Feature 18
111  36.96886449 -025.16851665 10
115  36.96888591 -025.16836400
120 Linear Feature 18
111  36.96863581 -025.16846965 10
115  36.96865808 -025.16830953
120 Linear Feature 18
111  36.96875100 -025.16808411 10
115  36.96876645 -025.16793574
120 Linear Feature 18
111  36.96850440 -025.16803819 10
115  36.96851985 -025.16788981
120 Linear Feature 18
111  36.96825609 -025.16798586 10
115  36.96827154 -025.16783748
120 Linear Feature 13
111  36.95603357 -025.16791274 10
111  36.95621689 -025.16762408 10
115  36.95612893 -025.16728064
120 Linear Feature 13
111  36.95629878 -025.16796528 10
111  36.95649848 -025.16767790 10
115  36.95638185 -025.16731651
120 Linear Feature 13
111  36.95655988 -025.16801525 10
111  36.95677597 -025.16772787 10
115  36.95664295 -025.16736777
120 Linear Feature 13
111  36.95682201 -025.16806651 10
111  36.95705448 -025.16777785 10
115  36.95690918 -025.16742158
120 Linear Feature 13
111  36.95708824 -025.16811904 10
111  36.95733197 -025.16783038 10
115  36.95717029 -025.16747412
120 Linear Feature 13
111  36.95735549 -025.16816646 10
111  36.95760946 -025.16788420 10
115  36.95743651 -025.16752153
120 Linear Feature 13
111  36.95760840 -025.16821771 10
111  36.95788285 -025.16793802 10
115  36.95769659 -025.16757150
120 Linear Feature 13
111  36.95787053 -025.16827409 10
111  36.95816444 -025.16799440 10
115  36.95795770 -025.16762147
120 Linear Feature 13
111  36.95813369 -025.16832279 10
111  36.95842964 -025.16805206 10
115  36.95822393 -025.16767400
120 Linear Feature 12
111  36.95848609 -025.16771845 10
115  36.95858418 -025.16789024
120 Linear Feature 12
111  36.95841083 -025.16837028 10
115  36.95853678 -025.16825880
120 Linear Feature 11
111  36.95925643 -025.16535168 10
115  36.95927527 -025.16520339
120 Linear Feature 11
111  36.95911706 -025.16533922 10
115  36.95913447 -025.16518559
120 Linear Feature 11
111  36.95901171 -025.16532681 10
115  36.95901277 -025.16517407
120 Linear Feature 11
111  36.95890333 -025.16533519 10
115  36.95888519 -025.16518424
120 Linear Feature 11
111  36.95879972 -025.16536139 10
115  36.95876309 -025.16521221
120 Linear Feature 11
111  36.95870328 -025.16540435 10
115  36.95864958 -025.16526229
120 Linear Feature 11
111  36.95860654 -025.16546535 10
115  36.95854218 -025.16533041
120 Linear Feature 11
111  36.95851909 -025.16554484 10
115  36.95844122 -025.16542324
120 Linear Feature 11
111  36.95844237 -025.16563956 10
115  36.95834807 -025.16553270
120 Linear Feature 11
111  36.95837620 -025.16574450 10
115  36.95827337 -025.16565988
120 Linear Feature 11
111  36.95832419 -025.16586240 10
115  36.95820998 -025.16579558
120 Linear Feature 11
111  36.95828589 -025.16598337 10
115  36.95816315 -025.16594325
120 Linear Feature 11
111  36.95826456 -025.16611419 10
115  36.95813756 -025.16609453
120 Linear Feature 11
111  36.95825116 -025.16623596 10
115  36.95812416 -025.16621630
120 Linear Feature 11
111  36.95824496 -025.16635454 10
115  36.95811725 -025.16634645
120 Linear Feature 11
111  36.95825106 -025.16647431 10
115  36.95811908 -025.16648580
120 Linear Feature 11
111  36.95826736 -025.16659697 10
115  36.95814249 -025.16663605
120 Linear Feature 11
111  36.95830124 -025.16671027 10
115  36.95818002 -025.16677200
120 Linear Feature 11
111  36.95834632 -025.16682240 10
115  36.95823152 -025.16689957
120 Linear Feature 11
111  36.95840186 -025.16692239 10
115  36.95829792 -025.16701563
120 Linear Feature 11
111  36.95852151 -025.16713272 10
115  36.95842168 -025.16722194
120 Linear Feature 11
111  36.95868899 -025.16742368 10
115  36.95856365 -025.16746191
120 Linear Feature 11
111  36.95910643 -025.16605634 10
115  36.95922390 -025.16607965
120 Linear Feature 11
111  36.95908793 -025.16622163 10
115  36.95920540 -025.16624495
120 Linear Feature 11
111  36.95906646 -025.16641351 10
115  36.95918393 -025.16643682
120 Linear Feature 11
111  36.95904493 -025.16660583 10
115  36.95916240 -025.16662915
120 Linear Feature 11
111  36.95903229 -025.16677486 10
115  36.95914976 -025.16678215
120 Linear Feature 11
111  36.95904085 -025.16694777 10
115  36.95915761 -025.16692837
120 Linear Feature 11
111  36.95906592 -025.16711595 10
115  36.95917912 -025.16707787
120 Linear Feature 11
111  36.95910456 -025.16728115 10
115  36.95921776 -025.16721904
120 Linear Feature 11
111  36.95917127 -025.16742986 10
115  36.95927309 -025.16734906
120 Linear Feature 11
111  36.95925476 -025.16756686 10
115  36.95934734 -025.16746915
120 Linear Feature 11
111  36.95935300 -025.16768601 10
115  36.95942922 -025.16757584
120 Linear Feature 11
111  36.95946748 -025.16779141 10
115  36.95953020 -025.16766166
120 Linear Feature 11
111  36.95958555 -025.16787363 10
115  36.95963476 -025.16773321
120 Linear Feature 11
111  36.95970988 -025.16793558 10
115  36.95974629 -025.16778982
120 Linear Feature 11
111  36.95984328 -025.16797894 10
115  36.95986049 -025.16783140
120 Linear Feature 11
111  36.95997838 -025.16800475 10
115  36.95998493 -025.16793996
120 Linear Feature 11
111  36.95869640 -025.16752101 10
115  36.95857352 -025.16749539
120 Linear Feature 11
111  36.95867253 -025.16769456 10
115  36.95854965 -025.16766893
120 Linear Feature 5
111  36.95877821 -025.16791039 51 105
111  36.95879617 -025.16786774 51 105
111  36.95882820 -025.16781177 51 105
111  36.95885864 -025.16777630 51 105
111  36.95888636 -025.16774360 51 105
111  36.95893357 -025.16771366 51 105
111  36.95897388 -025.16769630 51 105
111  36.95901022 -025.16768689 51 105
111  36.95905349 -025.16768523 51 105
111  36.95909593 -025.16768990 51 105
111  36.95912204 -025.16769944 51 105
111  36.95915650 -025.16771279 51 105
115  36.95921298 -025.16774802
120 Linear Feature 4
111  36.95992250 -025.16835473 51 105
111  36.95937074 -025.16824588 51 105
111  36.95934317 -025.16824199 51 105
111  36.95930640 -025.16824278 51 105
111  36.95923469 -025.16826720 51 105
111  36.95915282 -025.16832816 51 105
111  36.95909876 -025.16835236 51 105
111  36.95904045 -025.16835812 51 105
111  36.95897216 -025.16834844 51 105
111  36.95889597 -025.16830114 51 105
111  36.95884909 -025.16825355 51 105
111  36.95879364 -025.16815545 51 105
111  36.95876897 -025.16806087 51 105
111  36.95877269 -025.16795499 51 105
111  36.95877821 -025.16791039 51 105
111  36.95882903 -025.16750001 51 105
111  36.95882359 -025.16740558 51 105
111  36.95880072 -025.16730516 51 105
111  36.95877455 -025.16722796 51 105
111  36.95869986 -025.16710144 51 105
111  36.95867332 -025.16705937
111  36.95865209 -025.16702173 57 105
111  36.95842398 -025.16669112 57 105
111  36.95838361 -025.16660707 51 101
111  36.95836588 -025.16653959 51 101
111  36.95835453 -025.16645868 51 101
111  36.95835279 -025.16639069 51 101
111  36.95835693 -025.16632263 51 101
111  36.95836545 -025.16626002 51 101
111  36.95838561 -025.16618822 51 101
111  36.95841325 -025.16613186 51 101
111  36.95845267 -025.16607530 51 101
111  36.95850169 -025.16602973 51 101
111  36.95857841 -025.16599799 51 101
111  36.95865408 -025.16598933 51 101
111  36.95871933 -025.16600095 51 101
111  36.95879012 -025.16602928 51 101
111  36.95886572 -025.16609103 51 101
111  36.95890834 -025.16615919 51 101
111  36.95894050 -025.16624009 51 101
111  36.95895300 -025.16631133 51 101
111  36.95895465 -025.16638402 51 101
111  36.95891396 -025.16677816 51 101
111  36.95890870 -025.16693666 51 101
111  36.95891725 -025.16708431
111  36.95892114 -025.16711173 51 105
111  36.95893639 -025.16722307 51 105
111  36.95896881 -025.16735166 51 105
111  36.95901687 -025.16747311 51 105
111  36.95907143 -025.16757087 51 105
111  36.95915293 -025.16768440 51 105
111  36.95921298 -025.16774802 51 105
111  36.95959557 -025.16814558 51 105
111  36.95965356 -025.16819531 51 105
111  36.95974705 -025.16825836 51 105
111  36.95984493 -025.16830194 51 105
115  36.96048666 -025.16843096
120 Runway hold North yes that is where it is
111  36.98333896 -025.17121888 4
115  36.98336943 -025.17096338
120 Runway hold center
111  36.97350903 -025.17000411 4
115  36.97372531 -025.16995649
120 Runway hold South
111  36.95844804 -025.16700278 54
115  36.95906943 -025.16713165
120 Taxiline
111  36.97330067 -025.16910135 51 101
111  36.97271978 -025.16899255 51 101
111  36.97241784 -025.16893645 51 101
111  36.97200785 -025.16887187 51 101
111  36.97122999 -025.16870164 51 101
111  36.97051517 -025.16855812 51 101
112  36.97038657 -025.16848372  36.97035462 -025.16845296 51 101
112  36.97024896 -025.16833446  36.97024650 -025.16832167 51 101
111  36.97018877 -025.16706945 51 101
112  36.97014508 -025.16607702  36.97013809 -025.16598368 51 101
112  36.97002653 -025.16578843  36.96992866 -025.16574176
111  36.97002653 -025.16578843
112  36.97002653 -025.16578843  36.96995629 -025.16575494 51 101
112  36.96925146 -025.16546505  36.96919488 -025.16543431
111  36.96925146 -025.16546505
112  36.96925146 -025.16546505  36.96905098 -025.16535616 51 101
112  36.96908998 -025.16575341  36.96920936 -025.16589421
111  36.96908998 -025.16575341
112  36.96908998 -025.16575341  36.96909944 -025.16576458 51 101
112  36.96938487 -025.16609159  36.96954528 -025.16627537
111  36.96938487 -025.16609159
112  36.96938487 -025.16609159  36.96968248 -025.16643257 51 101
112  36.97013105 -025.16694879  36.97016020 -025.16698443
111  36.97013105 -025.16694879
112  36.97013105 -025.16694879  36.97018904 -025.16701969 51 101
115  36.97018877 -025.16706945
120 Taxiline
112  36.97485208 -025.16793286  36.97483817 -025.16803001 51 101
112  36.97489775 -025.16812947  36.97493931 -025.16821144
111  36.97489775 -025.16812947 51 101
112  36.97499376 -025.16831579  36.97503532 -025.16839776
111  36.97499376 -025.16831579 51 101
112  36.97525163 -025.16900067  36.97529319 -025.16908264
111  36.97525163 -025.16900067 51 101
111  36.97548993 -025.16954886 51 101
111  36.97387969 -025.16922782 51 101
115  36.97365127 -025.16918228
120 Taxiline Bay 3
112  36.97215858 -025.16740407  36.97216287 -025.16738232 51 101
112  36.97217683 -025.16734235  36.97218464 -025.16732295
111  36.97217683 -025.16734235
112  36.97217683 -025.16734235  36.97218379 -025.16732504
112  36.97219939 -025.16729313  36.97220883 -025.16727761
111  36.97219939 -025.16729313
112  36.97219939 -025.16729313  36.97227189 -025.16715457 51 101
112  36.97254699 -025.16712821  36.97270142 -025.16717418
111  36.97254699 -025.16712821 51 101
112  36.97262392 -025.16717068  36.97265399 -025.16719270
111  36.97262392 -025.16717068 51 101
112  36.97273920 -025.16718832  36.97277282 -025.16719385
111  36.97273920 -025.16718832 51 101
112  36.97305954 -025.16723614  36.97309317 -025.16724167
111  36.97305954 -025.16723614 51 101
111  36.97310620 -025.16724310
112  36.97310620 -025.16724310  36.97316309 -025.16725709 51 101
116  36.97332454 -025.16756381  36.97332149 -025.16782364
120 Taxiline Bay 4
112  36.97227150 -025.16655126  36.97227896 -025.16652726 51 101
112  36.97229790 -025.16648555  36.97230783 -025.16646565
111  36.97229790 -025.16648555
112  36.97229790 -025.16648555  36.97230725 -025.16646681
112  36.97232781 -025.16643422  36.97233822 -025.16641866
111  36.97232781 -025.16643422
112  36.97232781 -025.16643422  36.97240785 -025.16631459 51 101
112  36.97265939 -025.16633087  36.97278680 -025.16636578
111  36.97265939 -025.16633087 51 101
112  36.97285486 -025.16636549  36.97297978 -025.16638747
111  36.97285486 -025.16636549 51 101
111  36.97312818 -025.16641390
112  36.97312818 -025.16641390  36.97332573 -025.16644124 51 101
116  36.97342572 -025.16674474  36.97343197 -025.16688249
120 Taxiline Bay 5
111  36.97350543 -025.16913736 51 101
111  36.97346845 -025.16905831
112  36.97346845 -025.16905831  36.97342607 -025.16895547 51 101
112  36.97332061 -025.16883866  36.97328602 -025.16880028
111  36.97332061 -025.16883866 51 101
112  36.97323772 -025.16876073  36.97320101 -025.16872235
111  36.97323772 -025.16876073 51 101
112  36.97294955 -025.16846706  36.97287350 -025.16837812
111  36.97294955 -025.16846706 51 101
112  36.97263271 -025.16811954  36.97248149 -025.16797792
111  36.97263271 -025.16811954
112  36.97263271 -025.16811954  36.97254396 -025.16804141 51 101
112  36.97245746 -025.16796454  36.97245328 -025.16796114
111  36.97245746 -025.16796454 51 101
111  36.97231167 -025.16785058
112  36.97231167 -025.16785058  36.97222975 -025.16778821 51 101
112  36.97214736 -025.16748882  36.97214582 -025.16731685
111  36.97214736 -025.16748882 51 101
112  36.97215858 -025.16740407  36.97216011 -025.16738729
111  36.97215858 -025.16740407 51 101
111  36.97227150 -025.16655126
112  36.97227150 -025.16655126  36.97227468 -025.16652373 51 101
112  36.97228182 -025.16647336  36.97228569 -025.16644725
111  36.97228182 -025.16647336
112  36.97228182 -025.16647336  36.97228487 -025.16645281
112  36.97229206 -025.16641369  36.97229584 -025.16639403
111  36.97229206 -025.16641369
112  36.97229206 -025.16641369  36.97236929 -025.16601201 51 101
112  36.97295542 -025.16588165  36.97331037 -025.16596481
111  36.97295542 -025.16588165 51 101
111  36.97333918 -025.16596007
112  36.97333918 -025.16596007  36.97346990 -025.16604567 51 101
112  36.97347013 -025.16617560  36.97348618 -025.16625695
111  36.97347013 -025.16617560
112  36.97347013 -025.16617560  36.97346220 -025.16630744 51 101
116  36.97343714 -025.16663678  36.97342486 -025.16681196
120 Taxiline TWY C
111  36.97362121 -025.17001127 51 105
111  36.97366795 -025.17035024
112  36.97366795 -025.17035024  36.97369618 -025.17053520 51 105
112  36.97419573 -025.17114282  36.97464930 -025.17129212
111  36.97419573 -025.17114282
112  36.97419573 -025.17114282  36.97441499 -025.17118762 51 105
112  36.97476601 -025.17125693  36.97491984 -025.17129747
111  36.97476601 -025.17125693 51
111  36.97261812 -025.17083009
112  36.97261812 -025.17083009  36.97291802 -025.17087672 51 105
112  36.97307793 -025.17091240  36.97327986 -025.17093690
111  36.97307793 -025.17091240
112  36.97307793 -025.17091240  36.97356436 -025.17100966 51 105
116  36.97366795 -025.17035024  36.97364937 -025.17015423
120 Taxiline TWY D
111  36.97548993 -025.16954886 51 101
111  36.98210089 -025.17083681 51 101
111  36.98229637 -025.17088481 51 101
111  36.98243738 -025.17091732 51 101
111  36.98291583 -025.17100531 57 105
111  36.98333835 -025.17108569
111  36.98336898 -025.17109185 51 105
111  36.98543214 -025.17150679
112  36.98543214 -025.17150679  36.98557422 -025.17158082 51 105
112  36.98569647 -025.17204781  36.98568982 -025.17226352
111  36.98569647 -025.17204781 51 105
111  36.98561193 -025.17273296
112  36.98561193 -025.17273296  36.98558487 -025.17298010 51 105
112  36.98503468 -025.17326445  36.98470679 -025.17322129
111  36.98503468 -025.17326445
112  36.98503468 -025.17326445  36.98482815 -025.17322713 51 105
116  36.98448518 -025.17315305  36.98437969 -025.17313372
120 Apron edge lights
111  36.96762398 -025.16459476 1 102
111  36.96775996 -025.16465070 1 102
115  36.97029170 -025.16138500
120 Linear Feature 6
111  36.97214736 -025.16748882 51 101
112  36.97211278 -025.16783981  36.97210184 -025.16797010
111  36.97211278 -025.16783981
112  36.97211278 -025.16783981  36.97210273 -025.16794086 51 101
112  36.97201503 -025.16801088  36.97201225 -025.16801288
111  36.97201503 -025.16801088
112  36.97201503 -025.16801088  36.97165494 -025.16813760 51 101
112  36.97052434 -025.16850336  36.97046617 -025.16852296
111  36.97052434 -025.16850336
112  36.97052434 -025.16850336  36.97045421 -025.16852699 51 101
111  36.97034992 -025.16852846 51 101
112  36.97019690 -025.16849864  36.97011544 -025.16848235
111  36.97019690 -025.16849864
112  36.97019690 -025.16849864  36.96996598 -025.16845246 51 101
112  36.96912655 -025.16828010  36.96876799 -025.16820675
111  36.96912655 -025.16828010
112  36.96912655 -025.16828010  36.96888891 -025.16823148 51
112  36.96868317 -025.16819093  36.96866135 -025.16818772
111  36.96868317 -025.16819093
112  36.96868317 -025.16819093  36.96861809 -025.16817637 51
112  36.96838089 -025.16833907  36.96831983 -025.16847371
111  36.96838089 -025.16833907
112  36.96838089 -025.16833907  36.96834438 -025.16841290 51
116  36.96842976 -025.16867774  36.96853243 -025.16878940
120 Linear Feature 40
111  36.97397399 -025.16589174 74
111  36.97394164 -025.16615438 74
111  36.97391730 -025.16643392 74
111  36.97379329 -025.16652373 74
111  36.97375831 -025.16684601 74
111  36.97371888 -025.16715904 74
111  36.97376495 -025.16716791 74
111  36.97369231 -025.16783094 74
111  36.97394455 -025.16786798 74
111  36.97414849 -025.16789192 74
111  36.97437083 -025.16757593 74
111  36.97442486 -025.16744842 74
111  36.97446813 -025.16703689 74
111  36.97449572 -025.16671443 74
111  36.97434779 -025.16651263 74
111  36.97437171 -025.16624432 74
115  36.97440537 -025.16598265
120 Linear Feature 8
111  36.97024896 -025.16833446 51 101
112  36.97024659 -025.16840941  36.97024298 -025.16846136 51 101
115  36.97019690 -025.16849864
120 Linear Feature 7
111  36.97051958 -025.16855812 51 101
115  36.97035334 -025.16852953
21  36.98225055 -025.17206458 2 171.1 3.00 18 PAPI-4L
21  36.96219998 -025.16947646 2 351.1 3.00 36 PAPI-4L
20  36.97457071 -025.17079814 171.0 0 3 {@Y,^lu}C
20  36.97243269 -025.17035808 351.3 0 3 {@Y}C{^ru}
20  36.95955436 -025.16497680 41.8 0 3 {no-entry}
20  36.95987484 -025.16532945 45.0 0 3 {no-entry}
20  36.96737496 -025.16510204 136.2 0 3 {no-entry}
20  36.96772404 -025.16455842 141.3 0 3 {no-entry}
20  36.97674947 -025.16941666 351.0 0 3 {@L}D
20  36.97666505 -025.17017555 351.6 0 3 {@L}D
20  36.98044011 -025.17004859 29.0 0 3 {no-entry}
20  36.98094138 -025.17014819 29.0 0 3 {no-entry}
20  36.98610868 -025.17277571 262.6 0 3 {@Y}18-36{@L}D
20  36.98536363 -025.17220728 239.6 0 3 {@L}D{@Y}18-36
20  36.97390659 -025.16991238 -82.6 0 3 {@Y}18-36{@L}C
20  36.97333831 -025.17004567 -88.8 0 3 {@L}C{@Y}18-36
14  36.97284743 -025.16517101 230 0 Santa Maria
1300  36.97415714 -025.16763541 -6.8 tie_down heavy|jets|turboprops|props 1
1301 D airline 
1300  36.97432455 -025.16747203 -8.1 tie_down heavy|jets|turboprops|props 1A
1301 D airline 
1300  36.97422017 -025.16715015 -8.2 tie_down jets|turboprops|props 2A
1301 C airline 
1300  36.97273920 -025.16718832 173.2 gate heavy|jets|turboprops|props 3A
1301 E airline 
1300  36.97305954 -025.16723614 -7.1 gate heavy|jets|turboprops|props 3
1301 E airline 
1300  36.97295542 -025.16588165 170.7 gate jets|turboprops|props 5A
1301 C airline 
1300  36.97333918 -025.16596007 -9.3 gate jets|turboprops|props 5
1301 C airline 
1300  36.97285486 -025.16636549 171.9 gate jets|turboprops|props 4A
1301 C airline 
1300  36.97312818 -025.16641390 -8.0 gate jets|turboprops|props 4
1301 D airline 
1300  36.96938487 -025.16609159 137.5 tie_down heavy|jets|turboprops|props 6
1301 E airline 
1200 
1201  36.97479824 -025.16693795 both 0 2 A
1201  36.97318098 -025.16724513 both 1 3 A
1201  36.97327689 -025.16642430 both 2 4 A
1201  36.97368058 -025.16621697 both 3 unnamed entity(split)
1201  36.97256614 -025.16631697 both 4 unnamed entity(split)
1201  36.97238743 -025.16709389 both 5 unnamed entity(split)
1201  36.97354468 -025.16790295 both 6 unnamed entity(split)
1201  36.97355406 -025.16778454 both 7 unnamed entity(split)
1201  36.97369902 -025.16622048 both 8 unnamed entity(split)
1201  36.97402138 -025.16613486 both 9 _split
1201  36.97445799 -025.16627291 both 10 _split
1201  36.97469889 -025.16660048 both 11 _split
1201  36.97364232 -025.16667019 both 12 unnamed entity(split)
1201  36.97361059 -025.16707674 both 13 unnamed entity(split)
1201  36.97243156 -025.16710230 both 14 unnamed entity(split)
1201  36.97261471 -025.16632430 both 15 unnamed entity(split)
1201  36.97377104 -025.16684988 both 16 _stop
1201  36.97355020 -025.16783332 both 17 unnamed entity(split)
1201  36.97365512 -025.16996328 both 18 C holding point
1201  36.97487144 -025.16799869 both 19 D_stop
1201  36.97237211 -025.16581353 both 20 E_stop
1201  36.97218145 -025.16767482 both 21 E_stop
1201  36.97224161 -025.16706609 both 22 unnamed entity(split)
1201  36.97232369 -025.16628035 both 23 unnamed entity(split)
1201  36.97018176 -025.16700110 both 24 Arrival_stop
1201  36.95846507 -025.16651079 both 25 South one_stop
1201  36.95849288 -025.16594888 both 26 South one_stop
1201  36.95877104 -025.16574997 both 27 South one_stop
1201  36.95897838 -025.16607138 both 28 South one_stop
1201  36.95878625 -025.16697555 both 29 South one_stop
1201  36.97372357 -025.17103994 both 30 South one_stop
1201  36.98516156 -025.17329443 both 31 Arrival_stop
1201  36.98575351 -025.17201603 both 32 Arrival_stop
1201  36.98560643 -025.17292517 both 33 unnamed entity(split)
1201  36.98547019 -025.17150674 both 34 Arrival_stop
1201  36.97554869 -025.16954440 both 35 Arrival_stop
1201  36.98336860 -025.17109253 both 36 unnamed entity(split)
1201  36.97356801 -025.16915159 both 37 South one_stop
1201  36.97365127 -025.16918228 both 38 unnamed entity(split)
1201  36.97077098 -025.16861103 both 39 South one_stop
1201  36.97025449 -025.16836946 both 40 South one_stop
1201  36.97042375 -025.16854620 both 41 B_split
1201  36.95908055 -025.16816600 both 42 _start
1201  36.97477921 -025.16766158 both 43 unnamed entity(split)
1201  36.97463696 -025.16798381 both 44 unnamed entity(split)
1201  36.97454889 -025.16811683 both 45 unnamed entity(split)
1201  36.97442700 -025.16824552 both 46 unnamed entity(split)
1202 13 16 twoway taxiway_D 
1202 3 8 twoway taxiway_C 
1202 8 9 twoway taxiway_C 
1202 9 10 twoway taxiway_C 
1202 10 11 twoway taxiway_C 
1202 11 0 twoway taxiway_C 
1202 23 4 twoway taxiway_E 
1202 4 15 twoway taxiway_E 
1202 15 2 twoway taxiway_E 
1202 22 5 twoway taxiway_E 
1202 5 14 twoway taxiway_E 
1202 14 1 twoway taxiway_E 
1202 6 37 twoway taxiway_E 
1202 3 12 twoway taxiway_E 
1202 12 13 twoway taxiway_E 
1202 13 7 twoway taxiway_E 
1202 7 17 twoway taxiway_E 
1202 17 6 twoway taxiway_E 
1202 43 44 twoway taxiway_E C
1202 44 45 twoway taxiway_E C
1202 45 46 twoway taxiway_E C
1202 46 37 twoway taxiway_E C
1202 18 30 twoway taxiway_E C
1204 departure 18,36
1204 arrival 18,36
1204 ils 18
1202 37 18 twoway taxiway_E C
1204 arrival 18,36
1204 ils 18
1202 32 33 twoway taxiway_E D
1204 departure 18,36
1204 arrival 18,36
1204 ils 18
1202 33 31 twoway taxiway_E D
1204 departure 18,36
1204 arrival 18,36
1204 ils 18
1202 34 32 twoway taxiway_E D
1204 departure 18,36
1204 arrival 18,36
1202 35 36 twoway taxiway_E D
1202 36 34 twoway taxiway_E D
1204 departure 18,36
1204 arrival 18,36
1202 37 38 twoway taxiway_E D
1204 arrival 36
1202 38 35 twoway taxiway_E D
1202 19 35 twoway taxiway_E D
1202 43 19 twoway taxiway_E D
1202 21 22 twoway taxiway_E E
1202 22 23 twoway taxiway_E E
1202 23 20 twoway taxiway_E E
1202 37 21 twoway taxiway_E E
1202 30 42 twoway runway 18/36
1204 departure 18,36
1204 arrival 18,36
1204 ils 18,36
1202 31 30 twoway runway 18/36
1204 departure 18,36
1204 arrival 18,36
1204 ils 18,36
1202 40 24 twoway taxiway_B B
1202 39 37 twoway taxiway_B B
1202 40 41 twoway taxiway_B B
1202 41 39 twoway taxiway_B B
1202 25 29 twoway taxiway_E L
1202 26 25 twoway taxiway_E L
1202 27 26 twoway taxiway_E L
1202 28 27 twoway taxiway_E L
1202 29 28 twoway taxiway_E L
1202 42 29 twoway taxiway_E L
1204 departure 18,36
1204 arrival 18,36
1204 ils 18
1202 0 43 twoway taxiway_E 
99
