I
1130 Generated by WorldEditor 2.4.0r2

1    431 0 0 SBIZ Imperatriz
1302 city Imperatriz
1302 country Brazil
1302 datum_lat -5.530555556
1302 datum_lon -47.458333333
1302 faa_code 
1302 gui_label 3D
1302 iata_code IMP
1302 icao_code SBIZ
1302 region_code SB
1302 state Maranhão
1302 transition_alt 3000
1302 transition_level 
100 45.00 1 1 0.25 1 2 1  07 -05.53640237 -047.46702917 63 0 1 9 0 0 25 -05.52615620 -047.45297417 66 0 1 9 0 0
110 1 0.00 0.0 New Taxiway 103
111 -05.52711244 -047.45394308
111 -05.52710540 -047.45381148
111 -05.52710164 -047.45377977
111 -05.52709982 -047.45373612
111 -05.52711580 -047.45368992
111 -05.52714298 -047.45362599
111 -05.52715250 -047.45356266
111 -05.52714434 -047.45348894
111 -05.52711821 -047.45341850
111 -05.52708588 -047.45336085
111 -05.52703814 -047.45330208
111 -05.52698326 -047.45326066
111 -05.52691610 -047.45322943
111 -05.52682540 -047.45321773
111 -05.52676367 -047.45322957
111 -05.52668175 -047.45326200
113 -05.52663853 -047.45329583
110 1 0.00 0.0 New Taxiway 102
111 -05.53546784 -047.46608919
111 -05.53546513 -047.46612430
111 -05.53547456 -047.46622512
111 -05.53547388 -047.46626369
111 -05.53544578 -047.46634258
111 -05.53542557 -047.46639897
111 -05.53541373 -047.46647739
111 -05.53542019 -047.46653829
111 -05.53544335 -047.46661962
111 -05.53546193 -047.46666915
111 -05.53552058 -047.46673273
111 -05.53557392 -047.46676683
111 -05.53567255 -047.46680581
111 -05.53576387 -047.46681474
111 -05.53585192 -047.46680579
113 -05.53595323 -047.46675684
110 1 0.00 0.0 New Taxiway 94
111 -05.53132513 -047.45652310
111 -05.53131182 -047.45627557
111 -05.53137278 -047.45636463
111 -05.53141501 -047.45633475
111 -05.53147032 -047.45641158
111 -05.53153043 -047.45636580
111 -05.53135977 -047.45612555
111 -05.53136756 -047.45611928
111 -05.53134039 -047.45608217
111 -05.53123824 -047.45616487
111 -05.53125860 -047.45619367
113 -05.53127567 -047.45656086
110 2 0.00 0.0 New Taxiway 90
111 -05.53150429 -047.45687824
111 -05.53151480 -047.45655590
111 -05.53140408 -047.45655590
113 -05.53139115 -047.45687662
110 2 0.00 0.0 New Taxiway 89
111 -05.53129836 -047.45756277
111 -05.53130902 -047.45732314
111 -05.53121976 -047.45731720
113 -05.53121078 -047.45756135
110 2 0.00 0.0 New Taxiway 88
111 -05.53157557 -047.45794362
111 -05.53158680 -047.45770492
111 -05.53149747 -047.45770210
113 -05.53149092 -047.45794409
110 2 0.00 0.0 New Taxiway 87
111 -05.53179643 -047.45694151
111 -05.53167718 -047.45693666
111 -05.53166514 -047.45725896
113 -05.53182053 -047.45728322
110 2 0.00 0.0 New Taxiway 86
111 -05.53207758 -047.45732211
111 -05.53196132 -047.45730997
111 -05.53195484 -047.45756136
113 -05.53206803 -047.45756324
110 2 0.00 0.0 New Taxiway 92
111 -05.53113828 -047.45666603
111 -05.53127573 -047.45656215
111 -05.53125861 -047.45619360
111 -05.53106879 -047.45592275
113 -05.53076040 -047.45614383
110 2 0.00 0.0 New Taxiway 91
111 -05.53132512 -047.45652300
111 -05.53147042 -047.45641176
111 -05.53141518 -047.45633480
111 -05.53137248 -047.45636503
113 -05.53131198 -047.45627565
110 2 0.00 0.0 New Taxiway 85
111 -05.53202423 -047.45794926
111 -05.53235189 -047.45771132
111 -05.53220608 -047.45763578
113 -05.53194062 -047.45783193
110 1 0.00 0.0 New Taxiway 93
111 -05.53093498 -047.45918570
111 -05.53089464 -047.45904410
111 -05.53087733 -047.45900698
111 -05.53087546 -047.45897315
111 -05.53087866 -047.45891869
111 -05.53088941 -047.45887781
111 -05.53091211 -047.45882276
111 -05.53093923 -047.45878846
111 -05.53245809 -047.45768440
111 -05.53241286 -047.45762039
111 -05.53242745 -047.45759164
111 -05.53241118 -047.45755330
111 -05.53239378 -047.45754991
111 -05.53153045 -047.45636574
111 -05.53113801 -047.45666621
111 -05.53109452 -047.45660892
111 -05.53018281 -047.45731151
111 -05.53006839 -047.45740459
111 -05.53001421 -047.45744193
111 -05.52996594 -047.45746956
111 -05.52990977 -047.45748031
111 -05.52985427 -047.45748198
111 -05.52979397 -047.45747194
111 -05.52975165 -047.45745195
111 -05.52965680 -047.45742037
111 -05.52964709 -047.45741889
111 -05.53009490 -047.45803323
111 -05.53008283 -047.45790587
111 -05.53006949 -047.45786334
111 -05.53006638 -047.45781274
111 -05.53008088 -047.45775730
111 -05.53009761 -047.45770990
111 -05.53013746 -047.45766818
111 -05.53067976 -047.45728302
111 -05.53071736 -047.45727287
111 -05.53080359 -047.45725880
111 -05.53084939 -047.45726286
111 -05.53089182 -047.45727301
111 -05.53094367 -047.45731022
111 -05.53136200 -047.45786127
111 -05.53138950 -047.45790920
111 -05.53141298 -047.45798368
111 -05.53141635 -047.45801920
111 -05.53141304 -047.45808168
111 -05.53138976 -047.45813046
111 -05.53134221 -047.45818645
111 -05.53126999 -047.45824941
111 -05.53081296 -047.45858147
111 -05.53074763 -047.45860379
111 -05.53067189 -047.45860802
111 -05.53059834 -047.45860234
111 -05.53053853 -047.45858691
113 -05.53046333 -047.45854739
130 Airport Boundary 28
111 -05.53487139 -047.46975940
111 -05.54079745 -047.46570944
111 -05.54031073 -047.46498416
111 -05.54157718 -047.46399895
111 -05.54081645 -047.46277325
111 -05.52631766 -047.44260411
113 -05.51899018 -047.44791747
1300 -05.53208546 -047.45738949 145.2 gate jets 4
1301 B general_aviation 
1300 -05.53187655 -047.45713579 142.9 gate jets 3
1301 C airline 
1300 -05.53166819 -047.45683806 142.7 gate jets 2
1301 C airline 
1300 -05.53147856 -047.45653060 143.7 gate jets 1
1301 C airline 
1200 
1201 -05.53606572 -047.46656741 both 0 B_stop
1201 -05.52650555 -047.45345343 both 1 B_start
1201 -05.53036260 -047.45734137 both 2 B_stop
1201 -05.52969070 -047.45782260 both 3 B_split
1201 -05.53075238 -047.45705759 both 4 B_stop
1201 -05.53092756 -047.45699342 both 5 B_stop
1201 -05.53097961 -047.45699474 both 6 B_stop
1201 -05.53103541 -047.45700311 both 7 B_stop
1201 -05.53109857 -047.45702480 both 8 B_stop
1201 -05.53116921 -047.45706738 both 9 B_stop
1201 -05.53167024 -047.45776060 both 10 B_start
1202 1 3 twoway runway 07/25
1204 departure 07,25
1204 arrival 07,25
1204 ils 07,25
1202 3 0 twoway runway 07/25
1204 departure 07,25
1204 arrival 07,25
1204 ils 07,25
1202 2 3 twoway taxiway_C B
1204 departure 07,25
1204 arrival 07,25
1202 4 2 twoway taxiway_C B
1204 ils 07,25
1202 5 4 twoway taxiway_C B
1202 6 5 twoway taxiway_C B
1202 7 6 twoway taxiway_C B
1202 8 7 twoway taxiway_C B
1202 9 8 twoway taxiway_C B
1202 10 9 twoway taxiway_C B
99
