I
1130 Generated by WorldEditor 2.4.1r2

1   2229 0 0 ZBMZ manzhoulixijiao
1302 city 
1302 country 
1302 datum_lat 49.565
1302 datum_lon 117.333333333
1302 faa_code 
1302 gui_label 3D
1302 iata_code 
1302 icao_code ZBMZ
1302 region_code ZB
1302 state 
1302 transition_alt 9843
1302 transition_level 11811
100 45.00 2 0 0.00 1 0 1  12  49.57048223  117.31104150 0 54 2 1 1 1 30  49.56300011  117.34814129 0 54 2 1 1 1
110 2 0.00 0.0 New Taxiway 1
111  49.57222225  117.32695684
111  49.57218115  117.32716573
111  49.57194360  117.32705599
111  49.57181530  117.32773607
111  49.57180427  117.32777008
111  49.57179324  117.32779944
111  49.57178122  117.32781645
111  49.57176075  117.32781071
111  49.57173565  117.32779698
111  49.57171101  117.32789578
111  49.57173511  117.32790566
111  49.57175315  117.32791228
111  49.57176017  117.32793237
111  49.57176317  117.32795555
111  49.57176017  117.32798801
111  49.57160580  117.32877629
111  49.57202378  117.32895404
111  49.57236559  117.32725692
111  49.57222225  117.32718273
113  49.57226565  117.32697766
111  49.57191735  117.32814195 101
111  49.57189674  117.32812209 101
111  49.57187355  117.32809030 101
111  49.57186324  117.32806051 101
111  49.57186968  117.32801879 101
111  49.57191091  117.32781617 101
111  49.57193281  117.32773870 101
111  49.57196115  117.32770095 101
111  49.57198434  117.32768903 101
113  49.57200881  117.32769499 101
110 2 0.00 0.0 New Taxiway 1
111  49.57150675  117.33251771
112  49.57166118  117.33218272  49.57166263  117.33217823
112  49.57168595  117.33212992  49.57168740  117.33212992
112  49.57171290  117.33210745  49.57171582  117.33210521
111  49.57174132  117.33210184
111  49.57176244  117.33210184
111  49.57503424  117.33366716
111  49.57505960  117.33353503
111  49.57178502  117.33196799
111  49.57176404  117.33195505
111  49.57175975  117.33193901
111  49.57176823  117.33192755
111  49.57178817  117.33193725
111  49.57506684  117.33350195
111  49.57509252  117.33336683
111  49.57177593  117.33177394
111  49.57175600  117.33172541
112  49.57174026  117.33164614  49.57174026  117.33164452
111  49.57173292  117.33154098
113  49.57172953  117.33148103
110 2 0.00 0.0 New Taxiway 223
111  49.56904806  117.32593006
111  49.57046580  117.32659576
111  49.57051333  117.32661628
111  49.57053520  117.32664707
111  49.57054281  117.32666906
111  49.57055041  117.32671305
111  49.57055302  117.32674875
111  49.57060307  117.32651096
111  49.57056943  117.32655178
111  49.57055232  117.32656790
111  49.57053615  117.32657084
111  49.57051619  117.32656351
113  49.56905792  117.32586673
110 2 0.00 0.0 New Taxiway 222
111  49.57247720  117.30831121
111  49.57153382  117.31296428
111  49.57150415  117.31299243
111  49.57148019  117.31314373
111  49.57149160  117.31319123
111  49.56896592  117.32577046
111  49.56898070  117.32581859
111  49.56899220  117.32586419
111  49.56901192  117.32589966
111  49.56902835  117.32591992
111  49.56904806  117.32593006
111  49.56905792  117.32586673
111  49.56903163  117.32583126
111  49.56901520  117.32580339
111  49.56900535  117.32576033
113  49.57251101  117.30832914
110 2 0.00 0.0 New Taxiway 221
111  49.56955103  117.30680489
111  49.56955759  117.30679061
111  49.56957699  117.30678005
111  49.56960095  117.30678005
111  49.56961806  117.30678885
111  49.57027067  117.30709848
111  49.57030148  117.30711432
111  49.57034369  117.30713367
111  49.57037906  117.30712311
111  49.57040302  117.30709848
111  49.57042242  117.30707033
111  49.57044295  117.30703515
111  49.57068825  117.30583003
111  49.57070308  117.30577901
111  49.57072590  117.30575614
111  49.57074758  117.30574735
111  49.57077382  117.30575966
112  49.57215210  117.30641819  49.57215289  117.30641819
112  49.57218141  117.30643529  49.57218379  117.30643651
112  49.57220598  117.30645606  49.57220677  117.30645728
112  49.57222816  117.30647561  49.57222895  117.30647683
112  49.57224559  117.30650005  49.57224718  117.30650371
111  49.57225035  117.30652937
111  49.57225035  117.30656480
111  49.57224876  117.30659046
111  49.57200473  117.30777802
111  49.57199681  117.30782811
112  49.57200314  117.30787087  49.57200711  117.30787698
112  49.57202295  117.30790997  49.57202612  117.30791363
111  49.57204038  117.30792952
112  49.57246348  117.30814088  49.57246427  117.30814210
112  49.57248012  117.30815921  49.57248091  117.30816043
111  49.57249042  117.30818365
111  49.57249200  117.30820075
111  49.57249121  117.30822396
111  49.57249042  117.30825451
111  49.57248487  117.30827650
111  49.57247720  117.30831121
111  49.57251101  117.30832914
112  49.57252449  117.30827406  49.57252528  117.30827406
111  49.57252924  117.30823863
111  49.57252765  117.30820930
111  49.57252449  117.30817265
111  49.57251419  117.30812989
111  49.57250547  117.30811034
112  49.57249992  117.30809934  49.57249596  117.30809568
111  49.57246902  117.30807491
112  49.57242624  117.30805536  49.57242386  117.30805536
111  49.57236919  117.30803092
111  49.57228600  117.30799427
111  49.57212824  117.30792016
112  49.57207832  117.30789084  49.57207516  117.30788962
112  49.57205693  117.30786885  49.57205535  117.30786518
112  49.57204346  117.30784319  49.57204267  117.30784075
111  49.57203871  117.30782120
112  49.57228987  117.30657989  49.57228987  117.30657744
111  49.57229621  117.30651757
111  49.57228512  117.30648947
111  49.57227085  117.30645893
111  49.57223996  117.30641495
111  49.57221222  117.30639418
111  49.57219790  117.30637718
111  49.57079254  117.30570935
111  49.57074918  117.30569351
111  49.57071838  117.30569527
111  49.57069328  117.30571638
111  49.57067844  117.30573046
111  49.57065791  117.30576389
111  49.57041897  117.30692786
112  49.57041105  117.30696940  49.57041105  117.30697062
112  49.57039917  117.30701582  49.57039837  117.30701949
111  49.57038728  117.30704026
111  49.57038403  117.30704867
111  49.57035939  117.30706767
111  49.57033474  117.30706978
111  49.56962114  117.30672788
112  49.56958446  117.30672081  49.56958401  117.30672081
111  49.56955833  117.30673071
111  49.56954136  117.30674626
111  49.56953036  117.30675899
113  49.56952146  117.30678208
110 2 0.00 0.0 New Taxiway 220
111  49.56819714  117.31522077
111  49.56820348  117.31517435
111  49.56820903  117.31510838
112  49.56820586  117.31503630  49.56820507  117.31503386
111  49.56819001  117.31492146
111  49.56807592  117.31418479
112  49.56807513  117.31413471  49.56807513  117.31413348
112  49.56807433  117.31407607  49.56807433  117.31407362
112  49.56807671  117.31402598  49.56807750  117.31402353
111  49.56808939  117.31396734
111  49.56955103  117.30680489
111  49.56952146  117.30678208
111  49.56804549  117.31400701
111  49.56804093  117.31405275
111  49.56803522  117.31410552
112  49.56804207  117.31417941  49.56804207  117.31418117
111  49.56817283  117.31507144
111  49.56817099  117.31510184
111  49.56816916  117.31514214
111  49.56816090  117.31518809
113  49.56815861  117.31520506
110 2 0.00 0.0 New Taxiway 219
111  49.56267778  117.34241929
111  49.56268695  117.34240423
111  49.56270439  117.34237125
111  49.56271865  117.34233827
111  49.56273370  117.34227841
111  49.56275113  117.34219291
111  49.56819714  117.31522077
111  49.56815861  117.31520506
111  49.56269312  117.34230715
111  49.56268718  117.34232344
111  49.56267595  117.34234481
113  49.56265995  117.34236941
110 2 0.00 0.0 New Taxiway 218
111  49.56205138  117.34301587
111  49.56205714  117.34299443
111  49.56207166  117.34297102
112  49.56208685  117.34294659  49.56208685  117.34294557
111  49.56211524  117.34290791
111  49.56267778  117.34241929
111  49.56265995  117.34236941
111  49.56210591  117.34284994
111  49.56208875  117.34286622
111  49.56207092  117.34288455
111  49.56205376  117.34291203
111  49.56204187  117.34294257
111  49.56202668  117.34298023
113  49.56202008  117.34300466
110 2 0.00 0.0 New Taxiway 217
111  49.56053180  117.35078728
111  49.56051260  117.35077244
112  49.56050218  117.35074377  49.56050218  117.35074010
112  49.56050297  117.35068269  49.56050297  117.35067903
111  49.56052119  117.35056543
111  49.56205138  117.34301587
111  49.56202008  117.34300466
111  49.56045427  117.35066008
111  49.56045032  117.35072390
111  49.56045427  117.35076949
111  49.56046412  117.35079989
113  49.56051523  117.35086388
110 2 0.00 0.0 New Taxiway 216
111  49.56146794  117.35148390
111  49.56147508  117.35144815
111  49.56148049  117.35140368
111  49.56147340  117.35134168
111  49.56144737  117.35128332
111  49.56140715  117.35122496
112  49.56135984  117.35118849  49.56135747  117.35118484
111  49.56053180  117.35078728
111  49.56051523  117.35086388
111  49.56135510  117.35125049
111  49.56139769  117.35128332
111  49.56141898  117.35132709
111  49.56143888  117.35139639
111  49.56143888  117.35142629
113  49.56143443  117.35146567
110 2 0.00 0.0 New Taxiway 215
111  49.56109093  117.35371137
111  49.56107997  117.35370225
111  49.56106172  117.35367939
111  49.56104232  117.35365300
111  49.56104004  117.35361958
111  49.56104917  117.35356857
111  49.56105487  117.35353691
111  49.56146794  117.35148390
111  49.56143443  117.35146567
111  49.56101843  117.35354162
111  49.56100463  117.35360241
111  49.56100463  117.35362977
111  49.56102041  117.35366320
111  49.56103167  117.35369728
111  49.56104801  117.35373007
113  49.56107955  117.35375742
110 2 0.00 0.0 New Taxiway 214
111  49.56261803  117.35427331
111  49.56260135  117.35432591
111  49.56258424  117.35435522
111  49.56256903  117.35437721
111  49.56253860  117.35439333
111  49.56251293  117.35439040
111  49.56109093  117.35371137
111  49.56107955  117.35375742
111  49.56249685  117.35443379
111  49.56252656  117.35443888
111  49.56255099  117.35444194
111  49.56258004  117.35441649
111  49.56259787  117.35440020
111  49.56262362  117.35435134
111  49.56263880  117.35431571
113  49.56264879  117.35428790
110 2 0.00 0.0 New Taxiway 213
111  49.56363268  117.35215432
111  49.56362306  117.35217906
111  49.56361022  117.35220026
111  49.56359600  117.35222218
112  49.56357812  117.35223985  49.56357674  117.35223985
111  49.56355611  117.35224904
111  49.56353731  117.35224904
111  49.56318196  117.35209211
111  49.56315216  117.35208787
111  49.56310769  117.35210554
111  49.56307651  117.35214442
111  49.56305908  117.35219178
111  49.56304861  117.35221616
111  49.56261803  117.35427331
111  49.56264879  117.35428790
111  49.56308706  117.35222592
111  49.56311171  117.35216766
111  49.56313799  117.35213727
111  49.56317085  117.35214233
111  49.56320700  117.35215500
111  49.56348330  117.35227802
111  49.56351565  117.35229329
111  49.56354008  117.35230143
111  49.56355791  117.35230347
111  49.56357376  117.35229940
111  49.56359290  117.35228718
111  49.56361073  117.35227089
111  49.56362592  117.35225461
111  49.56363516  117.35223832
111  49.56365167  117.35220982
113  49.56365914  117.35218979
110 2 0.00 0.0 New Taxiway 212
111  49.56708855  117.33500167
111  49.56708796  117.33507078
111  49.56363268  117.35215432
111  49.56365914  117.35218979
111  49.56711524  117.33512191
111  49.56712079  117.33507793
113  49.56714463  117.33502854
110 2 0.00 0.0 New Taxiway 211
111  49.57154428  117.32492848
111  49.57128552  117.32479742
111  49.57122802  117.32509383
111  49.57121488  117.32512929
112  49.57119023  117.32515463  49.57118859  117.32515463
111  49.57114916  117.32516983
111  49.57090765  117.32506596
111  49.57054456  117.32678866
111  49.57054125  117.32679472
111  49.57052144  117.32683015
111  49.57049767  117.32683626
111  49.57045926  117.32684009
111  49.57059762  117.32690899
111  49.57092156  117.32529565
111  49.57093423  117.32526755
111  49.57095800  117.32523701
111  49.57097385  117.32522238
111  49.57099566  117.32522340
112  49.57102060  117.32523212  49.57103169  117.32523823
111  49.57105546  117.32524923
113  49.57144981  117.32542461
110 2 0.00 0.0 New Taxiway 208
111  49.57258492  117.32685440
111  49.57257699  117.32688480
111  49.57255727  117.32692432
111  49.57252573  117.32694561
111  49.57248827  117.32694865
111  49.57244292  117.32692432
111  49.57191061  117.32667200
111  49.57187710  117.32665376
111  49.57186330  117.32661727
111  49.57185344  117.32657167
111  49.57189681  117.32634670
111  49.57114369  117.32598495
111  49.57111017  117.32615215
111  49.57108257  117.32614607
111  49.57109243  117.32609439
111  49.57084402  117.32596063
111  49.57065283  117.32693028
111  49.57059762  117.32690899
111  49.57057462  117.32703313
111  49.57088345  117.32717058
111  49.57090711  117.32704897
111  49.57118115  117.32717065
111  49.57115552  117.32730130
111  49.57166023  117.32754146
111  49.57179492  117.32686247
111  49.57180684  117.32683490
111  49.57182564  117.32680591
111  49.57185499  117.32679247
111  49.57189763  117.32680025
111  49.57194669  117.32682429
111  49.57247353  117.32707759
111  49.57248227  117.32709009
111  49.57249526  117.32710836
111  49.57250558  117.32712132
111  49.57251093  117.32713546
111  49.57251322  117.32715667
113  49.57251414  117.32720593
110 2 0.00 0.0 New Taxiway 207
111  49.57292390  117.32563099
111  49.57296545  117.32542606
111  49.57172878  117.32481668
111  49.57155504  117.32569398
111  49.57188738  117.32584070
111  49.57202566  117.32520769
111  49.57204209  117.32517476
111  49.57207002  117.32514942
111  49.57211766  117.32515955
111  49.57278962  117.32547623
111  49.57281262  117.32549397
111  49.57282741  117.32553197
111  49.57283891  117.32556491
113  49.57283873  117.32559422
110 2 0.00 0.0 New Taxiway 206
111  49.57195416  117.32956023
111  49.57196342  117.32957314
111  49.57197689  117.32959514
111  49.57199274  117.32963301
111  49.57199829  117.32966844
111  49.57200462  117.32969899
111  49.57200383  117.32972587
111  49.57199963  117.32976033
111  49.57208243  117.32979681
111  49.57292390  117.32563099
111  49.57283873  117.32559422
111  49.57208924  117.32931564
111  49.57206596  117.32939587
111  49.57205090  117.32941065
111  49.57203037  117.32943176
111  49.57200572  117.32943176
113  49.57198538  117.32942342
110 2 0.00 0.0 New Taxiway 205
111  49.57120777  117.33276453
111  49.57126031  117.33278827
111  49.57129974  117.33281867
111  49.57132340  117.33284907
111  49.57134114  117.33289164
111  49.57134731  117.33291658
111  49.57135297  117.33295244
111  49.57135037  117.33297491
111  49.57141454  117.33299465
111  49.57150675  117.33251771
111  49.57172953  117.33148103
111  49.57208243  117.32979681
111  49.57199963  117.32976033
111  49.57148703  117.33229273
111  49.57146535  117.33239306
111  49.57145746  117.33241434
111  49.57136086  117.33253898
111  49.57128988  117.33260282
111  49.57125834  117.33262106
113  49.57122488  117.33263845
110 2 0.00 0.0 New Taxiway 204
111  49.57093319  117.33536840
111  49.57141454  117.33299465
111  49.57135037  117.33297491
111  49.57092166  117.33507405
111  49.57091003  117.33510054
111  49.57089880  117.33511276
111  49.57088560  117.33511276
111  49.57084796  117.33509952
111  49.57080175  117.33507916
111  49.57078260  117.33505880
111  49.57077203  117.33501807
111  49.57075313  117.33511362
111  49.57086579  117.33517690
111  49.57087702  117.33518810
112  49.57088626  117.33520846  49.57088692  117.33520948
111  49.57089022  117.33524613
113  49.57087205  117.33534308
110 2 0.00 0.0 New Taxiway 203
111  49.57031966  117.33242110
111  49.57032194  117.33245276
111  49.57031852  117.33249147
111  49.57018845  117.33310897
111  49.57015993  117.33315471
111  49.57011886  117.33318638
111  49.57008349  117.33319518
111  49.57003785  117.33317934
111  49.56999678  117.33316175
112  49.56997966  117.33312481  49.56997966  117.33312129
111  49.56997738  117.33306323
111  49.57003443  117.33278703
111  49.57005383  117.33265508
111  49.57003671  117.33265156
111  49.57005497  117.33256008
111  49.56989752  117.33248091
111  49.56988953  117.33253721
111  49.56967960  117.33245453
111  49.56974235  117.33215194
111  49.56970470  117.33213435
111  49.56938866  117.33368425
111  49.56981537  117.33387777
111  49.56993061  117.33329369
111  49.56999107  117.33332536
111  49.56999678  117.33327434
111  49.57002758  117.33328490
111  49.57005725  117.33330953
111  49.57008235  117.33334295
111  49.57009832  117.33339045
111  49.57010973  117.33345555
111  49.57011543  117.33351360
111  49.57008805  117.33365962
111  49.56984275  117.33487175
111  49.56982678  117.33490694
111  49.56980396  117.33494036
111  49.56979255  117.33495268
111  49.56975299  117.33496595
111  49.56993859  117.33505349
111  49.56992034  117.33503184
111  49.56990665  117.33499666
111  49.56990094  117.33495795
111  49.56989752  117.33491397
111  49.56996369  117.33456036
111  49.56999221  117.33452518
111  49.57001503  117.33451990
111  49.57002758  117.33444073
111  49.57000591  117.33441082
112  49.57000134  117.33437212  49.57000134  117.33437036
112  49.57001389  117.33431055  49.57001389  117.33430703
112  49.57002758  117.33424545  49.57002873  117.33424193
111  49.57006067  117.33420499
111  49.57007778  117.33419620
111  49.57019074  117.33422434
111  49.57005154  117.33487527
111  49.57034590  117.33502305
111  49.57039040  117.33478027
111  49.57045429  117.33481018
111  49.57054671  117.33432286
111  49.57020671  117.33415749
111  49.57020101  117.33418564
111  49.57015879  117.33416980
111  49.57013255  117.33414869
111  49.57011201  117.33413286
112  49.57008805  117.33410823  49.57008691  117.33410823
111  49.57006980  117.33406249
111  49.57007208  117.33400795
111  49.57023751  117.33323211
111  49.57027745  117.33325146
111  49.57026840  117.33329865
111  49.57029114  117.33330952
111  49.57025121  117.33354702
111  49.57037222  117.33360423
111  49.57052731  117.33285914
111  49.57032844  117.33275996
111  49.57034637  117.33267216
111  49.57036633  117.33257687
111  49.57039010  117.33251089
111  49.57042433  117.33246398
111  49.57048803  117.33243173
111  49.57052416  117.33243759
111  49.57080464  117.33256367
111  49.57082460  117.33258127
111  49.57083696  117.33260326
111  49.57084457  117.33263258
111  49.57083982  117.33270295
111  49.57079893  117.33288035
111  49.57077075  117.33288878
111  49.57075971  117.33294833
111  49.57081605  117.33297564
111  49.57082460  117.33296245
111  49.57087404  117.33268243
111  49.57088260  117.33266337
111  49.57090067  117.33263844
111  49.57092158  117.33262378
111  49.57095581  117.33263551
111  49.57120777  117.33276453
111  49.57122488  117.33263845
111  49.57114882  117.33259739
111  49.57112220  117.33258127
111  49.57110699  117.33254901
111  49.57110889  117.33251236
111  49.57111744  117.33248744
111  49.57115167  117.33246003
111  49.57103377  117.33240455
111  49.57104233  117.33242146
111  49.57104994  117.33243906
111  49.57105089  117.33245958
111  49.57104994  117.33247278
111  49.57104138  117.33250503
111  49.57101951  117.33252116
111  49.57099099  117.33252116
111  49.57081890  117.33244346
111  49.57079418  117.33242440
111  49.57077421  117.33238481
111  49.57075615  117.33234523
111  49.57074094  117.33230418
111  49.57074427  117.33227105
113  49.57038661  117.33215067
110 2 0.00 0.0 New Taxiway 202
111  49.57064103  117.33085463
111  49.57018657  117.33062360
111  49.56997452  117.33162707
111  49.56992279  117.33190916
111  49.57003670  117.33196448
111  49.57003670  117.33200459
111  49.57002437  117.33205525
111  49.57001205  117.33208903
111  49.56999425  117.33210381
111  49.56997098  117.33210381
111  49.56960805  117.33192192
112  49.56958714  117.33190410  49.56958659  117.33190326
111  49.56957501  117.33187035
111  49.56953792  117.33204187
111  49.56955853  117.33203221
111  49.56959099  117.33202628
111  49.56960255  117.33203137
111  49.57029625  117.33236076
111  49.57031103  117.33240129
111  49.57032089  117.33241902
111  49.57038661  117.33215067
111  49.57030282  117.33165648
111  49.57030775  117.33159822
112  49.57031432  117.33154502  49.57031432  117.33154248
111  49.57032910  117.33150702
111  49.57035375  117.33146648
111  49.57037675  117.33145128
111  49.57041125  117.33145635
111  49.57044904  117.33146648
111  49.57047533  117.33147915
111  49.57049340  117.33150195
111  49.57050326  117.33152982
111  49.57050549  117.33156039
111  49.57055256  117.33131761
111  49.57051476  117.33135755
111  49.57048025  117.33135502
111  49.57043754  117.33132968
111  49.57040304  117.33130182
111  49.57038332  117.33125875
112  49.57037511  117.33121062  49.57037511  117.33120301
111  49.57038332  117.33116755
111  49.57040139  117.33110928
111  49.57043261  117.33103581
111  49.57050654  117.33090915
113  49.57062087  117.33096618
110 2 0.00 0.0 New Taxiway 201
111  49.57108600  117.32953754
111  49.57106464  117.32956541
111  49.57104164  117.32957554
111  49.57099564  117.32956541
111  49.57090363  117.32952234
111  49.57072948  117.33034569
111  49.57083956  117.33039129
111  49.57085435  117.33040649
111  49.57087242  117.33042929
113  49.57087570  117.33043689
110 2 0.00 0.0 New Taxiway 200
111  49.57114023  117.32915401
111  49.57114515  117.32916006
111  49.57115007  117.32919553
111  49.57115007  117.32923100
111  49.57114679  117.32926900
111  49.57113036  117.32934753
111  49.57108929  117.32952234
111  49.57087735  117.33044196
111  49.57078863  117.33084983
111  49.57076070  117.33088023
111  49.57073277  117.33089036
111  49.57064103  117.33085463
111  49.57062087  117.33096618
111  49.57050276  117.33157437
111  49.57038661  117.33215067
111  49.57074427  117.33227105
111  49.57085435  117.33168584
111  49.57086585  117.33166811
111  49.57088228  117.33165544
111  49.57090810  117.33164884
111  49.57093321  117.33167064
111  49.57094635  117.33170358
111  49.57095126  117.33173855
111  49.57098191  117.33158766
111  49.57093156  117.33160731
111  49.57090363  117.33159464
111  49.57088556  117.33157096
111  49.57088063  117.33153891
111  49.57088063  117.33151611
111  49.57103671  117.33076116
111  49.57113756  117.33081598
111  49.57116123  117.33069915
111  49.57105475  117.33063793
111  49.57113693  117.33030768
111  49.57115665  117.33029248
111  49.57118786  117.33028995
111  49.57120265  117.33030008
111  49.57121908  117.33032288
111  49.57122403  117.33034739
111  49.57122432  117.33038533
111  49.57125802  117.33021771
111  49.57121415  117.33025448
111  49.57118129  117.33024435
111  49.57116486  117.33022408
111  49.57115665  117.33019115
111  49.57116157  117.33015568
111  49.57131930  117.32937286
111  49.57133080  117.32932980
111  49.57135544  117.32929940
111  49.57137351  117.32928673
113  49.57140707  117.32928155
110 2 0.00 0.0 New Taxiway 199
111  49.56986996  117.33080891
111  49.56980426  117.33077738
111  49.56963229  117.33160541
111  49.56965223  117.33158691
111  49.56966840  117.33158545
111  49.56969882  117.33158691
111  49.56975359  117.33159717
111  49.56981215  117.33157841
111  49.56987721  117.33124484
113  49.56978762  117.33120193
110 2 0.00 0.0 New Taxiway 197
111  49.57024043  117.32867916
111  49.56980426  117.33077738
111  49.56998300  117.33086162
113  49.57042045  117.32877288
110 2 0.00 0.0 New Taxiway 194
111  49.57024043  117.32867916
111  49.57112840  117.32913942
111  49.57114023  117.32915401
111  49.57140707  117.32928155
111  49.57195416  117.32956023
111  49.57198538  117.32942342
111  49.57132656  117.32911181
111  49.57128549  117.32908395
111  49.57126906  117.32905354
111  49.57126577  117.32901048
111  49.57126742  117.32894968
111  49.57147607  117.32792111
111  49.57149907  117.32787045
112  49.57152207  117.32783751  49.57152371  117.32783751
111  49.57154507  117.32782738
111  49.57155986  117.32782231
111  49.57171101  117.32789578
111  49.57173565  117.32779698
111  49.57145800  117.32766778
111  49.57122997  117.32880371
111  49.57121887  117.32883670
111  49.57119986  117.32887457
111  49.57117530  117.32889412
111  49.57115715  117.32889952
111  49.57092549  117.32879312
111  49.57090742  117.32876526
112  49.57089921  117.32873232  49.57089921  117.32872979
111  49.57089921  117.32869686
111  49.57089940  117.32868367
111  49.57100733  117.32811634
113  49.57042511  117.32778807
110 2 0.00 0.0 New Taxiway 193
111  49.57093475  117.33716786
111  49.57089367  117.33736293
111  49.57104647  117.33744400
111  49.57101491  117.33760646
111  49.57102614  117.33761203
111  49.57105961  117.33744400
111  49.57119926  117.33751494
113  49.57123376  117.33731480
110 2 0.00 0.0 New Taxiway 192
111  49.57150183  117.33735282
111  49.57115150  117.33718262
111  49.57116014  117.33713824
111  49.57106902  117.33709371
111  49.57105952  117.33714313
111  49.57093063  117.33708917
111  49.57091611  117.33706616
111  49.57092086  117.33704172
111  49.57092856  117.33702629
111  49.57089471  117.33700996
111  49.57088917  117.33703806
111  49.57088441  117.33707105
111  49.57088758  117.33709426
111  49.57090343  117.33711503
111  49.57107298  117.33719444
111  49.57106506  117.33723191
111  49.57112242  117.33726012
111  49.57112845  117.33722499
111  49.57145646  117.33738381
111  49.57147072  117.33739970
111  49.57148102  117.33742413
113  49.57148408  117.33744152
110 2 0.00 0.0 New Taxiway 189
111  49.57085675  117.33571146
111  49.57090193  117.33563900
111  49.57157850  117.33596799
111  49.57162414  117.33598382
112  49.57163441  117.33600669  49.57163441  117.33600845
111  49.57164125  117.33603484
111  49.57163669  117.33607882
111  49.57162186  117.33610697
111  49.57160246  117.33613160
111  49.57157051  117.33613512
111  49.57128756  117.33599790
111  49.57111528  117.33678431
111  49.57091904  117.33669459
111  49.57084146  117.33706756
111  49.57066804  117.33699895
111  49.57060187  117.33735960
111  49.57077073  117.33743525
111  49.57075018  117.33754325
111  49.57143236  117.33786400
111  49.57174295  117.33621952
111  49.57172710  117.33621219
111  49.57171284  117.33619753
112  49.57170412  117.33617554  49.57170412  117.33617310
111  49.57169700  117.33615233
111  49.57169700  117.33614377
112  49.57169937  117.33613033  49.57169937  117.33612911
111  49.57173265  117.33595929
111  49.57173265  117.33593119
111  49.57172948  117.33591775
111  49.57172552  117.33590797
111  49.57171760  117.33590309
111  49.57169937  117.33589454
111  49.57143395  117.33576747
111  49.57140226  117.33575159
111  49.57138403  117.33572838
111  49.57137611  117.33570516
111  49.57137294  117.33568440
111  49.57142206  117.33546570
111  49.57132619  117.33541073
111  49.57136660  117.33523479
111  49.57121051  117.33514561
111  49.57117486  117.33534353
111  49.57102908  117.33527145
111  49.57099501  117.33543394
111  49.57098788  117.33542905
111  49.57096015  117.33541806
111  49.57094747  117.33540217
113  49.57093319  117.33536840
111  49.57151070  117.33730799 101
111  49.57142260  117.33775002 101
111  49.57140739  117.33777201 101
111  49.57138647  117.33778374 101
111  49.57135795  117.33777640 101
111  49.57083407  117.33751690 101
111  49.57081030  117.33749931 101
111  49.57080269  117.33746999 101
111  49.57080650  117.33742601 101
113  49.57089471  117.33700996 101
110 2 0.00 0.0 New Taxiway 188
111  49.57077544  117.33556467
111  49.57078881  117.33558321
111  49.57079515  117.33560154
111  49.57079753  117.33562353
111  49.57080070  117.33567362
111  49.57079594  117.33571272
111  49.57052693  117.33703125
111  49.57051903  117.33704500
111  49.57049964  117.33706436
111  49.57047682  117.33707667
111  49.57044145  117.33706964
111  49.57028400  117.33698871
111  49.57023467  117.33721286
111  49.57052463  117.33735217
111  49.57085675  117.33571146
111  49.57093319  117.33536840
111  49.57087205  117.33534308
111  49.57086701  117.33537192
111  49.57085261  117.33539914
112  49.57083243  117.33543519  49.57082922  117.33544014
112  49.57081317  117.33545287  49.57081272  117.33545287
113  49.57079700  117.33545775
110 2 0.00 0.0 New Taxiway 187
111  49.57056276  117.33534750
111  49.57054944  117.33531818
112  49.57054659  117.33526101  49.57054659  117.33525954
111  49.57070442  117.33452064
111  49.57065973  117.33450305
111  49.57050856  117.33526247
111  49.57049905  117.33528006
111  49.57048669  117.33529619
111  49.57047909  117.33530059
113  49.57047516  117.33530589
110 2 0.00 0.0 New Taxiway 186
111  49.56973382  117.33507573
111  49.57077544  117.33556467
111  49.57079700  117.33545775
113  49.56975299  117.33496595
110 2 0.00 0.0 New Taxiway 185
111  49.56884378  117.33583836
111  49.56886755  117.33584863
112  49.56889227  117.33588674  49.56889322  117.33588821
111  49.56889227  117.33592926
111  49.56889132  117.33596004
111  49.56887895  117.33602015
111  49.56889533  117.33602767
111  49.56894992  117.33574160
111  49.56892840  117.33575480
111  49.56891223  117.33577239
111  49.56887991  117.33579438
113  49.56885180  117.33578786
110 2 0.00 0.0 New Taxiway 184
111  49.56908422  117.33476381
111  49.56910722  117.33479468
111  49.56911544  117.33482508
111  49.56912201  117.33484028
111  49.56889036  117.33605372
111  49.56907436  117.33613226
111  49.56909244  117.33619559
111  49.56924359  117.33548627
111  49.56921894  117.33544067
111  49.56906286  117.33536720
111  49.56912037  117.33503281
111  49.56914173  117.33494161
111  49.56915815  117.33488588
111  49.56918444  117.33485295
113  49.56920723  117.33482247
110 2 0.00 0.0 New Taxiway 183
111  49.56899506  117.33472106
111  49.56973382  117.33507573
111  49.56975299  117.33496595
111  49.56953804  117.33486884
111  49.56952161  117.33483718
111  49.56951476  117.33479707
111  49.56951750  117.33475907
111  49.56959158  117.33434574
111  49.56945750  117.33428901
111  49.56946958  117.33422918
111  49.56948738  117.33414052
111  49.56940797  117.33410885
111  49.56933952  117.33447196
111  49.56934773  117.33449096
111  49.56949066  117.33454120
111  49.56950545  117.33459187
111  49.56951367  117.33466026
111  49.56950217  117.33472360
111  49.56948409  117.33478186
111  49.56945452  117.33481733
111  49.56914639  117.33468740
111  49.56907825  117.33465563
111  49.56905448  117.33462509
111  49.56903784  117.33459333
111  49.56903150  117.33456034
113  49.56902825  117.33453867
110 2 0.00 0.0 New Taxiway 182
111  49.56926231  117.33282333
111  49.56927843  117.33284042
111  49.56928897  117.33285597
111  49.56929952  117.33288142
111  49.56930639  117.33291182
111  49.56930639  117.33293516
111  49.56930425  117.33296182
111  49.56895376  117.33469678
111  49.56899506  117.33472106
111  49.56902825  117.33453867
111  49.56905914  117.33435271
111  49.56907015  117.33429926
111  49.56908665  117.33426702
111  49.56910151  117.33425599
111  49.56912627  117.33425938
111  49.56914553  117.33426447
111  49.56926960  117.33432640
111  49.56929133  117.33435186
111  49.56934553  117.33440121
111  49.56937029  117.33427536
111  49.56928528  117.33427635
111  49.56915708  117.33422969
111  49.56913672  117.33421102
111  49.56911306  117.33417369
111  49.56910426  117.33414315
111  49.56910646  117.33411091
113  49.56936069  117.33287932
110 2 0.00 0.0 New Taxiway 181
111  49.56711328  117.33492420
111  49.56711102  117.33493428
111  49.56710561  117.33494263
111  49.56709664  117.33494823
111  49.56715897  117.33497800
111  49.56715273  117.33496521
111  49.56714700  117.33495196
113  49.56714567  117.33493712
110 2 0.00 0.0 New Taxiway 180
111  49.56885180  117.33578786
111  49.56605092  117.33444793
111  49.56604047  117.33450217
113  49.56884378  117.33583836
110 2 0.00 0.0 New Taxiway 179
111  49.56869962  117.33215563
111  49.56865665  117.33238142
111  49.56864873  117.33240891
111  49.56863817  117.33242418
111  49.56862562  117.33243538
111  49.56860317  117.33244149
111  49.56871674  117.33249748
111  49.56870816  117.33248628
111  49.56869759  117.33246592
111  49.56868967  117.33244759
111  49.56868703  117.33242825
111  49.56868967  117.33240280
111  49.56869957  117.33234681
111  49.56871476  117.33227147
111  49.56872730  117.33221344
113  49.56873680  117.33217336
110 2 0.00 0.0 New Taxiway 178
111  49.56934675  117.33246493
111  49.56936028  117.33248771
111  49.56937220  117.33251033
111  49.56938045  117.33253508
111  49.56938045  117.33260012
111  49.56935340  117.33270122
111  49.56934010  117.33273445
111  49.56931993  117.33275496
111  49.56929517  117.33276061
111  49.56927316  117.33276132
111  49.56924428  117.33274647
111  49.56871662  117.33249743
111  49.56769862  117.33200207
111  49.56711328  117.33492420
111  49.56714567  117.33493712
111  49.56769901  117.33217148
111  49.56771270  117.33214509
111  49.56772753  117.33212222
111  49.56774578  117.33210639
111  49.56776746  117.33210639
111  49.56781310  117.33213102
111  49.56926231  117.33282333
111  49.56936069  117.33287932
113  49.56943725  117.33250821
110 2 0.00 0.0 New Taxiway 30
111  49.56742294  117.32764022 1 102
112  49.56743154  117.32762249  49.56743247  117.32762107 1 102
111  49.56744122  117.32760260 1 102
112  49.56745815  117.32756934  49.56745894  117.32756690 1 102
112  49.56747357  117.32754085  49.56747551  117.32753665 1 102
111  49.56749337  117.32750665 1 102
112  49.56752427  117.32746633  49.56752506  117.32746633 1 102
112  49.56754646  117.32744312  49.56754804  117.32744190 1 102
111  49.56756785  117.32742235 1 102
111  49.56759954  117.32739548 1 102
112  49.56762331  117.32738082  49.56762410  117.32737837 1 102
112  49.56765342  117.32736494  49.56765421  117.32736494 1 102
112  49.56768194  117.32735516  49.56768273  117.32735394 1 102
112  49.56771522  117.32734661  49.56771760  117.32734661 1 102
112  49.56775404  117.32734294  49.56775642  117.32734294 1 102
112  49.56779762  117.32734539  49.56780158  117.32734539 1 102
111  49.56782060  117.32734417 1 102
111  49.56785942  117.32736127 1 102
111  49.56850306  117.32766137 1 102
111  49.56859053  117.32770241 1 102
112  49.56863522  117.32773173  49.56863712  117.32773173 1 102
111  49.56866279  117.32775079 1 102
112  49.56868751  117.32778451  49.56868751  117.32778598 1 102
111  49.56871128  117.32781236 1 102
111  49.56877118  117.32790766 1 102
111  49.56879210  117.32796190 1 102
111  49.56880921  117.32802200 1 102
112  49.56882537  117.32808504  49.56882632  117.32808651 1 102
111  49.56883678  117.32813196 1 102
111  49.56883868  117.32817740 1 102
111  49.56883868  117.32821699 1 102
111  49.56883773  117.32825804 1 102
111  49.56883773  117.32831668 1 102
111  49.56883488  117.32836945 1 102
111  49.56882918  117.32840171 1 102
111  49.56882442  117.32843249 1 102
111  49.56883013  117.32843542 1 102
111  49.56885675  117.32845155 1 102
111  49.56836367  117.33090492 1 102
111  49.56833172  117.33088556 1 102
111  49.56829635  117.33100695 1 102
111  49.56827696  117.33106500 1 102
111  49.56825186  117.33111250 1 102
111  49.56822676  117.33115824 1 102
111  49.56820052  117.33119166 1 102
111  49.56815488  117.33124092 1 102
111  49.56812293  117.33126731 1 102
111  49.56806132  117.33130425 1 102
111  49.56800770  117.33131657 1 102
112  49.56794153  117.33132009  49.56793924  117.33132009 1 102
111  49.56791414  117.33131657 1 102
111  49.56719723  117.33098318 1 102
112  49.56711394  117.33094272  49.56710139  117.33093745 1 102
112  49.56707059  117.33090402  49.56706945  117.33090226 1 102
111  49.56701696  117.33084245 1 102
112  49.56698045  117.33078792  49.56697817  117.33078616 1 102
112  49.56694851  117.33071228  49.56694851  117.33071052 1 102
111  49.56692455  117.33064367 1 102
111  49.56690515  117.33055747 1 102
111  49.56689032  117.33043257 1 102
111  49.56688424  117.33031098
111  49.56659757  117.33173219 1 102
112  49.56665073  117.33163935  49.56665757  117.33162703 1 102
112  49.56669180  117.33157602  49.56669750  117.33156898 1 102
112  49.56674086  117.33151973  49.56674314  117.33151621 1 102
112  49.56680703  117.33147223  49.56681274  117.33146695 1 102
112  49.56685381  117.33144760  49.56685838  117.33144760 1 102
112  49.56693596  117.33143529  49.56693938  117.33143705 1 102
112  49.56698388  117.33143705  49.56698730  117.33143705 1 102
112  49.56701582  117.33144233  49.56701696  117.33144233 1 102
111  49.56704891  117.33146344 1 102
111  49.56835159  117.33208329 1 102
111  49.56836802  117.33199716 1 102
111  49.56943725  117.33250821 1 102
111  49.56944066  117.33249187 1 102
111  49.56963229  117.33160541 1 102
111  49.57042511  117.32778807 1 102
111  49.57057462  117.32703313 1 102
111  49.57059762  117.32690899 1 102
111  49.57047605  117.32684819 1 102
111  49.56925998  117.32627925 1 102
111  49.56912078  117.32693718 1 102
111  49.56910167  117.32698077 1 102
111  49.56908976  117.32700288 1 102
111  49.56906808  117.32704510 1 102
111  49.56901902  117.32711195 1 102
111  49.56897110  117.32715418 1 102
111  49.56892547  117.32718760 1 102
111  49.56885701  117.32721223 1 102
111  49.56880567  117.32721927 1 102
111  49.56876345  117.32722103 1 102
111  49.56794521  117.32683754 1 102
111  49.56789371  117.32681188 1 102
111  49.56782874  117.32672881 1 102
111  49.56779863  117.32667872 1 102
111  49.56775267  117.32657977 1 102
112  49.56773445  117.32652357  49.56773366  117.32652113 1 102
112  49.56772019  117.32645516  49.56771861  117.32644172 1 102
112  49.56771306  117.32638308  49.56771306  117.32636842 1 102
112  49.56770989  117.32631955  49.56771068  117.32631466 1 102
113  49.56771046  117.32621464
110 2 0.00 0.0 New Taxiway 19
111  49.57043468  117.31022611
111  49.57037551  117.31019807
111  49.56260360  117.34873216
113  49.56266284  117.34876206
110 2 0.00 0.0 New Taxiway 13
111  49.56327495  117.34820620
111  49.56350027  117.34832326
111  49.56369256  117.34736781
113  49.56360669  117.34656731
110 2 0.00 0.0 New Taxiway 12
111  49.56942520  117.31771814
111  49.56971769  117.31729461
111  49.56985965  117.31658712
113  49.56967212  117.31649309
110 2 0.00 0.0 New Taxiway 11
111  49.57040037  117.31288206
111  49.57076810  117.31229037
111  49.57097991  117.31125308
113  49.57075145  117.31113999
110 2 0.00 0.0 New Taxiway 10
111  49.57082133  117.31041148
111  49.56304952  117.34894754
111  49.56311790  117.34898462
113  49.57089088  117.31044607
110 2 0.00 0.0 New Taxiway 1
111  49.57162724  117.32939358
111  49.57163492  117.32940802
112  49.57164395  117.32942960  49.57164395  117.32943030
112  49.57164621  117.32945049  49.57164621  117.32945118
111  49.57164621  117.32947416
111  49.57164259  117.32950130
111  49.57163266  117.32951592
111  49.57162363  117.32952915
111  49.57160624  117.32954009
111  49.57168729  117.32958025
112  49.57169361  117.32954655  49.57169406  117.32954447
111  49.57171302  117.32950270
112  49.57172521  117.32947764  49.57172611  117.32947624
111  49.57173875  117.32946371
113  49.57175230  117.32945739
130 Airport Boundary 2
111  49.57239448  117.30634550
111  49.57158024  117.30597461
111  49.57065814  117.30552108
111  49.57038832  117.30686754
111  49.57028039  117.30695832
111  49.56950528  117.30658766
111  49.56791331  117.31444497
111  49.56805459  117.31535265
111  49.56264065  117.34227843
111  49.56200358  117.34281417
111  49.56085353  117.34855719
111  49.56028555  117.35075269
111  49.56131129  117.35134077
111  49.56137064  117.35147146
111  49.56091287  117.35378458
111  49.56263374  117.35463403
111  49.56310168  117.35232839
111  49.56322317  117.35222253
111  49.56368264  117.35244854
111  49.56705978  117.33581558
111  49.57163981  117.33799401
111  49.57427766  117.32489709
111  49.57138108  117.32347282
111  49.57118008  117.32446568
111  49.57098249  117.32437638
111  49.57069973  117.32593656
111  49.56919226  117.32522421
111  49.57265528  117.30809362
111  49.57217501  117.30787109
113  49.57211350  117.30768868
120 Linear Feature 225
111  49.57042646  117.32693204 20
111  49.57045275  117.32696750 20
111  49.57046260  117.32700297 20
111  49.57046096  117.32706377 20
111  49.57045110  117.32716510 20
111  49.56948387  117.33192469 20
111  49.56946684  117.33195971 20
111  49.56943466  117.33196983 20
111  49.56878264  117.33160951 20
111  49.56941993  117.32840430 20
111  49.56943965  117.32838150 20
111  49.56948072  117.32838910 20
111  49.57008861  117.32867283 20
112  49.57011489  117.32871590  49.57011818  117.32872857 20
111  49.57012043  117.32879247 20
111  49.57018367  117.32848097 20
111  49.57016090  117.32851577 20
111  49.57013461  117.32854870 20
111  49.57009353  117.32855883 20
111  49.56950208  117.32827764 20
111  49.56945936  117.32825230 20
111  49.56944786  117.32818897 20
111  49.56974688  117.32673232 20
111  49.56976659  117.32667152 20
113  49.56979616  117.32665885 20
120 Linear Feature 227
111  49.56940020  117.32828161 22
115  49.57019095  117.32864490
120 Linear Feature 226
111  49.57044324  117.32688620 22
111  49.56979879  117.32659290 22
112  49.56974485  117.32661042  49.56974201  117.32661042 22
112  49.56971930  117.32671110  49.56971646  117.32671110 22
111  49.56875404  117.33143440 22
112  49.56873417  117.33156134  49.56873417  117.33156572 22
111  49.56873133  117.33166640 22
111  49.56938998  117.33203411 22
111  49.56946379  117.33207351 22
111  49.56949786  117.33206037 22
111  49.56953477  117.33189841 22
111  49.57049435  117.32714009 22
112  49.57050570  117.32707005  49.57050570  117.32706567 22
111  49.57050570  117.32698687 22
113  49.57046596  117.32692121 22
120 Linear Feature 224
111  49.57057337  117.32689895 20
111  49.56951726  117.33215632 20
111  49.56866107  117.33176355 20
113  49.56971773  117.32649934 20
120 Linear Feature 140
111  49.56789155  117.33132702 1
115  49.56787238  117.33142202
120 Linear Feature 139
111  49.56796959  117.33133758 1
115  49.56797644  117.33143257
120 Linear Feature 138
111  49.56805995  117.33131013 1
115  49.56808323  117.33141146
120 Linear Feature 137
111  49.56813799  117.33125947 1
115  49.56817348  117.33134860
120 Linear Feature 136
111  49.56821603  117.33119191 1
115  49.56825300  117.33126909
120 Linear Feature 135
111  49.56827080  117.33112225 1
115  49.56831050  117.33117925
120 Linear Feature 134
111  49.56831735  117.33102092 1
115  49.56835979  117.33105681
120 Linear Feature 133
111  49.56839265  117.33093648 1
111  49.56838033  117.33099136 1
112  49.56835979  117.33105681  49.56835568  117.33106525 1
111  49.56834199  117.33111169 1
111  49.56831050  117.33117925 1
112  49.56827627  117.33123413  49.56827354  117.33124258 1
112  49.56824068  117.33128691  49.56823794  117.33129113 1
112  49.56819002  117.33133335  49.56818728  117.33133546 1
111  49.56815579  117.33136502 1
112  49.56808323  117.33141146  49.56808049  117.33141568 1
111  49.56797644  117.33143257 1
112  49.56794358  117.33143046  49.56793536  117.33143046 1
115  49.56787238  117.33142202
120 Linear Feature 132
111  49.56885787  117.32823817 1
115  49.56891263  117.32823183
120 Linear Feature 131
111  49.56885239  117.32814528 1
115  49.56890579  117.32812206
120 Linear Feature 130
111  49.56882638  117.32804395 1
115  49.56888682  117.32801702
120 Linear Feature 129
111  49.56877709  117.32790884 1
115  49.56883320  117.32784462
120 Linear Feature 128
111  49.56872917  117.32780539 1
115  49.56877162  117.32774840
120 Linear Feature 127
111  49.56886253  117.32722466 1
115  49.56886515  117.32730398
120 Linear Feature 126
111  49.56895695  117.32720226 1
115  49.56897815  117.32728869
120 Linear Feature 125
111  49.56902958  117.32713405 1
115  49.56906937  117.32720426
120 Linear Feature 124
111  49.56910815  117.32702817 1
115  49.56914810  117.32707936
120 Linear Feature 123
111  49.56913522  117.32694163 1
115  49.56918474  117.32698541
120 Linear Feature 122
111  49.56890166  117.32842868 1
111  49.56890964  117.32832841 1
112  49.56891263  117.32823183  49.56891263  117.32822831 1
111  49.56890579  117.32812206 1
112  49.56888682  117.32801527  49.56888682  117.32801351 1
111  49.56886971  117.32795721 1
111  49.56884461  117.32787629 1
111  49.56883320  117.32784462 1
111  49.56881038  117.32779888 1
115  49.56877162  117.32774840
120 Linear Feature 121
111  49.56918474  117.32698541 1
111  49.56916179  117.32704241 1
112  49.56914810  117.32707936  49.56914353  117.32708288 1
111  49.56910360  117.32715676 1
111  49.56906937  117.32720426 1
111  49.56902602  117.32726408 1
112  49.56899635  117.32728167  49.56898565  117.32728637 1
111  49.56897815  117.32728869 1
112  49.56887656  117.32730454  49.56887313  117.32730278 1
115  49.56886515  117.32730398
120 Linear Feature 75
111  49.56891554  117.33024224 1 101
111  49.56889573  117.33023980 1 101
111  49.56886721  117.33023369 1 101
111  49.56883947  117.33023125 1 101
112  49.56880857  117.33023491  49.56880699  117.33023613 1 101
112  49.56877134  117.33024957  49.56877054  117.33024957 1 101
111  49.56873251  117.33027767 1 101
112  49.56870003  117.33030333  49.56869844  117.33030577 1 101
112  49.56867230  117.33033142  49.56866913  117.33033509 1 101
112  49.56861921  117.33040595  49.56861921  117.33040717 1 101
112  49.56859465  117.33046092  49.56859465  117.33046337 1 101
115  49.56857023  117.33051284
120 Linear Feature 74
111  49.56957244  117.33054771 1
115  49.56954867  117.33066785
120 Linear Feature 73
111  49.56951962  117.33052185 1
115  49.56949480  117.33065624
120 Linear Feature 82
111  49.56859984  117.33127043 1 101
111  49.56857166  117.33127188 1 101
111  49.56853553  117.33127481 1 101
112  49.56849465  117.33129240  49.56849370  117.33129240 1 101
112  49.56846232  117.33130560  49.56846137  117.33130560 1 101
112  49.56843285  117.33133492  49.56843094  117.33133639 1 101
111  49.56840147  117.33137743 1 101
115  49.56839196  117.33139209
120 Linear Feature 81
111  49.56946197  117.33109450 1
115  49.56944105  117.33120885
120 Linear Feature 80
111  49.56941348  117.33107104 1
115  49.56939161  117.33119126
120 Linear Feature 79
111  49.56935658  117.33163748 1
115  49.56933440  117.33175668
120 Linear Feature 78
111  49.56930778  117.33161301 1
115  49.56928306  117.33174495
120 Linear Feature 77
111  49.56872711  117.33074526 1 101
111  49.56870712  117.33074376 1 101
111  49.56868171  117.33074307 1 101
112  49.56865662  117.33074307  49.56865266  117.33074307 1 101
112  49.56862621  117.33075453  49.56862423  117.33075657 1 101
112  49.56858268  117.33078685  49.56858135  117.33078787 1 101
111  49.56855296  117.33081739 1 101
111  49.56850477  117.33089273 1 101
112  49.56848840  117.33091484  49.56848713  117.33091821 1 101
112  49.56848340  117.33093820  49.56848198  117.33094176 1 101
112  49.56848597  117.33097422  49.56848735  117.33098206 1 101
112  49.56848958  117.33101082  49.56848958  117.33101693 1 101
112  49.56849420  117.33105155  49.56849486  117.33105867 1 101
112  49.56850542  117.33109532  49.56850741  117.33110347 1 101
112  49.56852259  117.33114215  49.56852458  117.33114724 1 101
112  49.56853514  117.33117677  49.56853778  117.33118389 1 101
111  49.56854848  117.33120853 1 101
111  49.56856617  117.33123276 1 101
111  49.56859984  117.33127043 1
111  49.56864804  117.33129894 1
111  49.56930778  117.33161301 1
115  49.56935658  117.33163748
120 Linear Feature 76
111  49.56860190  117.33035841 1 101
111  49.56859961  117.33043547 1 101
112  49.56860098  117.33047224  49.56860098  117.33047436 1 101
112  49.56860649  117.33051960  49.56860649  117.33052172 1 101
111  49.56861933  117.33056909 1 101
111  49.56863583  117.33061858 1 101
111  49.56867690  117.33068896 1 101
111  49.56870050  117.33071963 1 101
111  49.56872711  117.33074526 1
111  49.56878073  117.33076813 1
111  49.56941348  117.33107104 1
115  49.56946197  117.33109450
120 Linear Feature 72
111  49.56905456  117.32955234 1 101
111  49.56900435  117.32954706 1 101
111  49.56897127  117.32954354 1 101
111  49.56893590  117.32954882 1 101
112  49.56889939  117.32956817  49.56889825  117.32956817 1 101
111  49.56885033  117.32960511 1 101
111  49.56880161  117.32964631 1 101
112  49.56876436  117.32968771  49.56876322  117.32969123 1 101
112  49.56872188  117.32976891  49.56872117  117.32977476 1 101
112  49.56871559  117.32980044  49.56871505  117.32980462 1 101
112  49.56872360  117.32985137  49.56872667  117.32986235 1 101
111  49.56874012  117.32993514 1 101
111  49.56876704  117.33002381 1 101
111  49.56880127  117.33009594 1 101
111  49.56884805  117.33016983 1 101
111  49.56890595  117.33023301 1 101
111  49.56891742  117.33024406 1
111  49.56951962  117.33052185 1
115  49.56957244  117.33054771
120 Linear Feature 71
111  49.56966409  117.32984617 1
115  49.56962970  117.33001703
120 Linear Feature 70
111  49.56970620  117.32986576 1
115  49.56969129  117.32994118
120 Linear Feature 69
111  49.56972666  117.32987486 1
115  49.56971137  117.32994969
120 Linear Feature 68
111  49.56923235  117.32876417 1
111  49.56983065  117.32905222 1
111  49.56987151  117.32907104 1
115  49.56988823  117.32907841
120 Linear Feature 64
111  49.56988823  117.32907841 1
115  49.56987098  117.32915755
120 Linear Feature 63
111  49.56987151  117.32907104 1
115  49.56985405  117.32914928
120 Linear Feature 67
111  49.56923224  117.32876418 1 101
111  49.56918790  117.32875282 1 101
111  49.56915543  117.32875367 1 101
112  49.56912352  117.32875282  49.56912297  117.32875282 1 101
112  49.56908611  117.32876130  49.56908446  117.32876130 1 101
111  49.56905860  117.32877403 1 101
112  49.56901623  117.32880457  49.56901568  117.32880457 1 101
111  49.56894195  117.32888178 1 101
112  49.56890949  117.32893353  49.56890839  117.32893438 1 101
112  49.56887942  117.32899682  49.56887832  117.32899937 1 101
112  49.56887078  117.32904682  49.56887005  117.32905743 1 101
112  49.56886877  117.32909642  49.56886932  117.32910321 1 101
111  49.56886987  117.32916260 1 101
111  49.56887191  117.32919388 1 101
112  49.56887629  117.32924903  49.56887735  117.32925476 1 101
111  49.56888717  117.32929322 1 101
112  49.56890441  117.32934682  49.56890441  117.32934723 1 101
112  49.56894475  117.32942742  49.56894528  117.32942824 1 101
111  49.56898295  117.32948552 1 101
111  49.56902201  117.32952481 1 101
111  49.56905634  117.32955332 1
111  49.56966409  117.32984617 1
111  49.56970620  117.32986576 1
115  49.56972666  117.32987486
120 Linear Feature 66
111  49.56730707  117.33115436 52 106
115  49.56724325  117.33144705
120 Linear Feature 65
111  49.56814088  117.32705393 52 106
115  49.56808145  117.32734611
120 Linear Feature 62
111  49.56983065  117.32905222 1
115  49.56979558  117.32920935
120 Linear Feature 61
111  49.56903407  117.32823819 1 101
111  49.56902772  117.32828180 1 101
112  49.56902772  117.32831927  49.56902772  117.32831998 1 101
112  49.56902909  117.32838078  49.56902909  117.32838290 1 101
112  49.56903597  117.32843239  49.56903597  117.32843380 1 101
112  49.56904789  117.32849107  49.56904881  117.32849178 1 101
111  49.56906394  117.32853490 1 101
111  49.56911920  117.32865224 1 101
112  49.56913639  117.32867826  49.56913798  117.32868071 1 101
112  49.56916632  117.32871361  49.56916664  117.32871410 1 101
112  49.56920613  117.32874994  49.56920644  117.32874994 1 101
115  49.56923224  117.32876418
120 Linear Feature 60
111  49.56905890  117.32811639 1 101
111  49.56906862  117.32807167 1 101
111  49.56908455  117.32803092 1 101
111  49.56911320  117.32797299 1 101
111  49.56914281  117.32792978 1 101
111  49.56916224  117.32790278 1 101
111  49.56919822  117.32787185 1 101
111  49.56929406  117.32782619 1 101
111  49.56932336  117.32781637 1 101
112  49.56936156  117.32781047  49.56936252  117.32781047 1 101
115  49.56939342  117.32780865
120 Linear Feature 59
111  49.56888467  117.32756795 1 101
111  49.56890133  117.32758301 1 101
111  49.56892035  117.32760255 1 101
111  49.56893857  117.32762455 1 101
111  49.56895521  117.32764409 1 101
111  49.56897423  117.32767219 1 101
111  49.56899087  117.32770151 1 101
111  49.56900671  117.32772961 1 101
111  49.56902414  117.32776626 1 101
111  49.56903286  117.32780291 1 101
111  49.56903999  117.32784201 1 101
111  49.56904633  117.32788232 1 101
111  49.56905108  117.32791042 1 101
111  49.56905425  117.32793852 1 101
111  49.56905584  117.32798983 1 101
111  49.56905976  117.32809908 1 101
115  49.56905890  117.32811639
120 Linear Feature 58
111  49.56888467  117.32756795 1 101
115  49.56939342  117.32780865
120 Linear Feature 57
111  49.56619419  117.33236052 1 101
111  49.56636343  117.33152200 1 101
111  49.56638434  117.33144870 1 101
111  49.56641192  117.33138127 1 101
111  49.56645946  117.33129624 1 101
111  49.56649939  117.33124054 1 101
111  49.56652411  117.33121708 1 101
111  49.56655643  117.33118630 1 101
111  49.56660683  117.33114378 1 101
111  49.56665531  117.33111593 1 101
111  49.56668289  117.33110420 1 101
111  49.56672282  117.33109248 1 101
111  49.56678557  117.33108661 1 101
111  49.56684452  117.33109248 1 101
115  49.56687079  117.33109539
120 Linear Feature 56
111  49.56922662  117.32729387 1 101
111  49.56839196  117.33139209 1 101
111  49.56837810  117.33142776 1 101
111  49.56835813  117.33147321 1 101
111  49.56833151  117.33152159 1 101
111  49.56830774  117.33155237 1 101
111  49.56828207  117.33158755 1 101
111  49.56824214  117.33162127 1 101
111  49.56819650  117.33164473 1 101
111  49.56814421  117.33166232 1 101
111  49.56808716  117.33166672 1 101
111  49.56804438  117.33166085 1 101
111  49.56799779  117.33163886 1 101
111  49.56687079  117.33109539 1 101
111  49.56683086  117.33106607 1 101
111  49.56680139  117.33103528 1 101
111  49.56676526  117.33099863 1 101
111  49.56674149  117.33096491 1 101
111  49.56671582  117.33092533 1 101
111  49.56669300  117.33088135 1 101
111  49.56667398  117.33084471 1 101
111  49.56665687  117.33080366 1 101
111  49.56664641  117.33076701 1 101
111  49.56662359  117.33068931 1 101
111  49.56661218  117.33062921 1 101
111  49.56660172  117.33056177 1 101
111  49.56659697  117.33050314 1 101
112  49.56659697  117.33041225  49.56659792  117.33040785 1 101
111  49.56660458  117.33034628 1 101
111  49.56661598  117.33028178 1 101
115  49.56676991  117.32948441
120 Linear Feature 54
111  49.56925423  117.32714014 1 101
111  49.56922712  117.32729398 1 101
112  49.56922228  117.32738144  49.56922456  117.32740079 1 101
112  49.56923141  117.32750078  49.56923255  117.32750430 1 101
111  49.56923825  117.32754476 1 101
111  49.56924966  117.32758171 1 101
112  49.56926563  117.32762393  49.56926563  117.32762569 1 101
111  49.56928618  117.32766624 1 101
111  49.56930899  117.32770134 1 101
111  49.56935234  117.32776291 1 101
111  49.56939342  117.32780865 1
111  49.57006139  117.32812770 1
115  49.57004554  117.32821322
120 Linear Feature 53
111  49.56699697  117.32840250 1 101
111  49.56716583  117.32755810 1 101
111  49.56717724  117.32751412 1 101
111  49.56719664  117.32745607 1 101
111  49.56721375  117.32741209 1 101
111  49.56724684  117.32733820 1 101
111  49.56726965  117.32729950 1 101
111  49.56729590  117.32725904 1 101
111  49.56732442  117.32721858 1 101
111  49.56735751  117.32718340 1 101
111  49.56737918  117.32715877 1 101
111  49.56740200  117.32713238 1 101
111  49.56744193  117.32710071 1 101
111  49.56746704  117.32708136 1 101
111  49.56751039  117.32706201 1 101
111  49.56756173  117.32704090 1 101
111  49.56760851  117.32702859 1 101
111  49.56763589  117.32702507 1 101
111  49.56768153  117.32702507 1 101
111  49.56773287  117.32703211 1 101
115  49.56777187  117.32703740
120 Linear Feature 52
111  49.56763134  117.32523426 1 101
111  49.56745906  117.32611913 1 101
111  49.56745335  117.32615959 1 101
112  49.56744765  117.32622468  49.56744765  117.32622820 1 101
112  49.56745107  117.32629857  49.56744993  117.32630384 1 101
112  49.56745107  117.32637245  49.56745107  117.32638301 1 101
111  49.56746020  117.32648328 1 101
111  49.56747275  117.32654309 1 101
111  49.56749899  117.32662754 1 101
115  49.56753323  117.32671928
120 Linear Feature 51
111  49.56338291  117.34623904 1 101
112  49.56336709  117.34630760  49.56336152  117.34634005 1 101
112  49.56335888  117.34640639  49.56335888  117.34642918 1 101
112  49.56336777  117.34652288  49.56337434  117.34655328 1 101
112  49.56339406  117.34694842  49.56339570  117.34696615 1 101
112  49.56343184  117.34728278  49.56343513  117.34729544 1 101
111  49.56344334  117.34740183 1 101
112  49.56345156  117.34747022  49.56345156  117.34749302 1 101
112  49.56345156  117.34757154  49.56344991  117.34758167 1 101
112  49.56343184  117.34770832  49.56343184  117.34771845 1 101
112  49.56341706  117.34780964  49.56341541  117.34781217 1 101
112  49.56339898  117.34788310  49.56339734  117.34788816 1 101
112  49.56336120  117.34793629  49.56335791  117.34793882 1 101
111  49.56331027  117.34795909 1 101
112  49.56325769  117.34795909  49.56325605  117.34795909 1 101
112  49.56321005  117.34794896  49.56320512  117.34794642 1 101
111  49.56315419  117.34792109 1 101
112  49.56310654  117.34788056  49.56310490  117.34787803 1 101
112  49.56308518  117.34783497  49.56308518  117.34782990 1 101
111  49.56308190  117.34776151 1 101
115  49.56312133  117.34753608
120 Linear Feature 48
111  49.56957872  117.32703709 1
111  49.57022567  117.32733825 1
115  49.57020938  117.32741757
120 Linear Feature 47
111  49.56753323  117.32671928 1 101
111  49.56753988  117.32673540 1 101
111  49.56755167  117.32676349 1 101
111  49.56756936  117.32680137 1 101
111  49.56759598  117.32684828 1 101
111  49.56762165  117.32688493 1 101
111  49.56767394  117.32695090 1 101
112  49.56770246  117.32697582  49.56770341  117.32697582 1 101
112  49.56777187  117.32703740  49.56777377  117.32703886 1 101
111  49.56783747  117.32706818 1 101
111  49.56888467  117.32756795 1 101
111  49.56892805  117.32757099 1 101
111  49.56894822  117.32756863 1 101
111  49.56897688  117.32756333 1 101
111  49.56899799  117.32755786 1 101
111  49.56903126  117.32754467 1 101
111  49.56905788  117.32753294 1 101
111  49.56908641  117.32751388 1 101
111  49.56911968  117.32747723 1 101
111  49.56914250  117.32745084 1 101
111  49.56916912  117.32741713 1 101
112  49.56920240  117.32734529  49.56920335  117.32734382 1 101
111  49.56922712  117.32729398 1 101
112  49.56924709  117.32726026  49.56925892  117.32723384 1 101
111  49.56925808  117.32723476 1 101
111  49.56928131  117.32718403 1 101
111  49.56931459  117.32713125 1 101
112  49.56935167  117.32708580  49.56935262  117.32708580 1 101
111  49.56940111  117.32705209 1 101
111  49.56942773  117.32704182 1 101
111  49.56948478  117.32702130 1 101
111  49.56952566  117.32702130 1 101
115  49.56957891  117.32703743
120 Linear Feature 46
111  49.56782926  117.32723276 1
115  49.56781107  117.32732935
120 Linear Feature 45
111  49.56772020  117.32723094 1
115  49.56772322  117.32732408
120 Linear Feature 44
111  49.56761138  117.32726432 1
115  49.56763537  117.32734871
120 Linear Feature 43
111  49.56751696  117.32734373 1
115  49.56755094  117.32741379
120 Linear Feature 42
111  49.56744565  117.32742619 1
115  49.56747792  117.32749823
120 Linear Feature 41
111  49.56738293  117.32754225 1
115  49.56742702  117.32759112
120 Linear Feature 40
111  49.56733640  117.32769146 1
115  49.56739016  117.32771922
120 Linear Feature 39
111  49.56733640  117.32769146 1
111  49.56738293  117.32754225 1
111  49.56740538  117.32750356 1
111  49.56744565  117.32742619 1
112  49.56747404  117.32739157  49.56747536  117.32738852 1
111  49.56751696  117.32734373 1
111  49.56755195  117.32731217 1
111  49.56758629  117.32728061 1
111  49.56761138  117.32726432 1
111  49.56765099  117.32725312 1
111  49.56769985  117.32723683 1
111  49.56772020  117.32723094 1
111  49.56776324  117.32722563 1
111  49.56780626  117.32722563 1 101
115  49.56782926  117.32723276
120 Linear Feature 38
111  49.56786846  117.32692038 1
115  49.56790071  117.32683945
120 Linear Feature 37
111  49.56777977  117.32681834 1
115  49.56781743  117.32674446
120 Linear Feature 36
111  49.56772104  117.32669504 1
115  49.56775696  117.32664594
120 Linear Feature 35
111  49.56768051  117.32658789 1
115  49.56772387  117.32655094
120 Linear Feature 34
111  49.56765298  117.32644056 1
115  49.56770105  117.32642076
120 Linear Feature 33
111  49.56764427  117.32629446 1
115  49.56768980  117.32629152
120 Linear Feature 32
111  49.56765412  117.32612214 1
115  49.56770158  117.32616141
120 Linear Feature 31
111  49.56765412  117.32612214 1
111  49.56764385  117.32623473 1
112  49.56764385  117.32627344  49.56764363  117.32628984 1
112  49.56764499  117.32634908  49.56764613  117.32635084 1
112  49.56765298  117.32644056  49.56765298  117.32644407 1
112  49.56768051  117.32658789  49.56768279  117.32658965 1
111  49.56769405  117.32663055 1
111  49.56772104  117.32669504 1
111  49.56774539  117.32675369 1
111  49.56777049  117.32679767 1
111  49.56777977  117.32681834 1
112  49.56781613  117.32686452  49.56781727  117.32686452 1
115  49.56786846  117.32692038
120 Linear Feature 17
111  49.56351403  117.34664515 1 101
111  49.56359254  117.34751647 1 101
115  49.56342974  117.34828669
120 Linear Feature 16
111  49.56960385  117.31649248 20 101
111  49.56978545  117.31657751 20 101
111  49.56965424  117.31724163 20 101
115  49.56936426  117.31766091
120 Linear Feature 50
111  49.57013256  117.31278872 1 101
111  49.57018776  117.31253640 1 101
112  49.57029028  117.31239960  49.57030014  117.31238440 1 101
111  49.57043617  117.31229624 1 101
111  49.57052095  117.31221416 1 101
111  49.57058798  117.31212600 1 101
111  49.57062938  117.31202264 1 101
111  49.57067670  117.31192536 1 101
112  49.57070824  117.31181896  49.57070824  117.31181592 1 101
112  49.57072204  117.31169432  49.57072204  117.31168824 1 101
112  49.57071219  117.31160312  49.57071021  117.31159400 1 101
112  49.57067473  117.31151192  49.57067473  117.31150280 1 101
112  49.57059390  117.31140856  49.57058404  117.31140248 1 101
112  49.57051503  117.31137208  49.57050321  117.31137512 1 101
112  49.57043617  117.31140248  49.57043420  117.31140552 1 101
111  49.57040463  117.31146024 1 101
111  49.57036914  117.31161528 1 101
115  49.57036018  117.31165100
21  49.56350072  117.34329637 2 287.0 3.00 New Light Fixture 2
21  49.57005469  117.31556227 2 106.8 3.00 New Light Fixture 1
20  49.56705642  117.33157645 199.8 0 2 {@L}A{@R,^l}30-12{^r}
20  49.56790213  117.32745759 196.7 0 2 {@R}30-12{@L}B{@@}B{@Y}APRON{^u}
20  49.56801852  117.32673622 199.5 0 2 {@L}B{@R}30-12
1300  49.57022567  117.32733825 15.5 tie_down jets 7
1301 C airline 
1300  49.57006139  117.32812770 16.6 tie_down jets 6
1301 C airline 
1300  49.56988823  117.32907841 19.3 gate jets 5
1301 C airline 
1300  49.56972666  117.32987486 17.5 gate jets 4
1301 C airline 
1300  49.56957244  117.33054771 18.2 gate jets 3
1301 D airline 
1300  49.56946197  117.33109450 16.6 tie_down jets 2
1301 D airline 
1300  49.56935658  117.33163748 16.2 tie_down jets 1
1301 D airline 
1200 
1201  49.56310148  117.34786356 both 0 N_stop
1201  49.56318625  117.34793651 both 1 N_stop
1201  49.56326314  117.34795475 both 2 N_stop
1201  49.56334792  117.34793955 both 3 N_stop
1201  49.56338341  117.34790612 both 4 N_stop
1201  49.56342481  117.34775414 both 5 N_stop
1201  49.56344650  117.34761128 both 6 N_stop
1201  49.56345044  117.34751097 both 7 N_stop
1201  49.56345044  117.34743802 both 8 N_stop
1201  49.57043611  117.31140855 both 9 N_stop
1201  49.57051004  117.31136844 both 10 N_stop
1201  49.57058671  117.31140433 both 11 N_stop
1201  49.57063052  117.31144656 both 12 N_stop
1201  49.57067297  117.31150145 both 13 N_stop
1201  49.57068118  117.31152467 both 14 N_stop
1201  49.57071267  117.31160911 both 15 N_stop
1201  49.57072225  117.31168934 both 16 N_stop
1201  49.57070856  117.31181600 both 17 N_stop
1201  49.57067981  117.31191945 both 18 N_stop
1201  49.57064969  117.31197856 both 19 N_stop
1201  49.57058671  117.31213268 both 20 N_stop
1201  49.57051963  117.31221501 both 21 N_stop
1201  49.57043885  117.31229523 both 22 N_stop
1201  49.57029098  117.31240079 both 23 N_stop
1201  49.56720677  117.32742860 both 24 N_stop
1201  49.56723814  117.32735677 both 25 N_stop
1201  49.56729614  117.32726001 both 26 N_stop
1201  49.56735414  117.32718818 both 27 N_stop
1201  49.56739407  117.32713687 both 28 N_stop
1201  49.56745301  117.32709289 both 29 N_stop
1201  49.56750436  117.32706064 both 30 N_stop
1201  49.56755570  117.32704158 both 31 N_stop
1201  49.56759943  117.32702839 both 32 N_stop
1201  49.56766504  117.32702106 both 33 N_stop
1201  49.56772779  117.32702985 both 34 N_stop
1201  49.56939222  117.32780805 both 35 N_stop
1201  49.56905657  117.32795230 both 36 N_stop
1201  49.56904627  117.32787412 both 37 N_stop
1201  49.56903439  117.32780815 both 38 N_stop
1201  49.56902409  117.32776905 both 39 N_stop
1201  49.56901141  117.32773851 both 40 N_stop
1201  49.56899161  117.32770308 both 41 N_stop
1201  49.56896942  117.32766399 both 42 N_stop
1201  49.56893535  117.32762123 both 43 N_stop
1201  49.56891871  117.32760168 both 44 N_stop
1201  49.56889970  117.32758336 both 45 N_stop
1201  49.56636272  117.33152811 both 46 N_stop
1201  49.56639421  117.33142256 both 47 N_stop
1201  49.56642707  117.33136134 both 48 N_stop
1201  49.56649279  117.33124946 both 49 N_stop
1201  49.56654618  117.33119880 both 50 N_stop
1201  49.56658725  117.33115658 both 51 N_stop
1201  49.56663517  117.33112280 both 52 N_stop
1201  49.56668446  117.33109958 both 53 N_stop
1201  49.56674881  117.33108481 both 54 N_stop
1201  49.56680357  117.33108692 both 55 N_stop
1201  49.56684465  117.33108903 both 56 N_stop
1201  49.56662867  117.33021895 both 57 N_stop
1201  49.56660887  117.33032523 both 58 N_stop
1201  49.56659540  117.33040952 both 59 N_stop
1201  49.56660015  117.33055978 both 60 N_stop
1201  49.56661996  117.33066851 both 61 N_stop
1201  49.56663343  117.33072226 both 62 N_stop
1201  49.56665007  117.33078212 both 63 N_stop
1201  49.56666274  117.33081510 both 64 N_stop
1201  49.56668255  117.33086153 both 65 N_stop
1201  49.56670157  117.33089696 both 66 N_stop
1201  49.56673247  117.33095071 both 67 N_stop
1201  49.56675307  117.33098125 both 68 N_stop
1201  49.56677921  117.33101545 both 69 N_stop
1201  49.56679823  117.33103378 both 70 N_stop
1201  49.56681407  117.33104844 both 71 N_stop
1201  49.56686914  117.33109498 both 72 N_stop
1201  49.56801428  117.33164629 both 73 N_stop
1201  49.56804549  117.33165895 both 74 N_stop
1201  49.56809314  117.33166909 both 75 N_stop
1201  49.56815886  117.33165895 both 76 N_stop
1201  49.56820486  117.33164122 both 77 N_stop
1201  49.56824757  117.33161589 both 78 N_stop
1201  49.56829851  117.33156776 both 79 N_stop
1201  49.56833207  117.33151852 both 80 N_stop
1201  49.56834065  117.33150732 both 81 N_stop
1201  49.56835650  117.33147780 both 82 N_stop
1201  49.56836772  117.33145235 both 83 N_stop
1201  49.56837631  117.33143199 both 84 N_stop
1201  49.56838423  117.33141061 both 85 N_stop
1201  49.56839083  117.33139635 both 86 N_stop
1201  49.56928689  117.32694382 both 87 N_stop
1201  49.56925480  117.32713753 both 88 N_stop
1201  49.56922820  117.32729378 both 89 N_stop
1201  49.56914700  117.32769160 both 90 N_split
1201  49.56905991  117.32811833 both 91 N_split
1201  49.56920115  117.32734610 both 92 N_stop
1201  49.56916997  117.32741609 both 93 N_stop
1201  49.56914338  117.32745003 both 94 N_stop
1201  49.56912045  117.32747760 both 95 N_stop
1201  49.56908652  117.32751507 both 96 N_stop
1201  49.56905901  117.32753346 both 97 N_stop
1201  49.56903196  117.32754477 both 98 N_stop
1201  49.56900215  117.32755608 both 99 N_stop
1201  49.56898336  117.32756174 both 100 N_stop
1201  49.56896685  117.32756668 both 101 N_stop
1201  49.56894713  117.32756739 both 102 N_stop
1201  49.56891687  117.32756881 both 103 N_stop
1201  49.56888432  117.32756739 both 104 N_stop
1201  49.56777001  117.32703586 both 105 N_stop
1201  49.56772209  117.32699188 both 106 N_stop
1201  49.56766276  117.32694086 both 107 N_stop
1201  49.56761370  117.32687753 both 108 N_stop
1201  49.56757263  117.32680892 both 109 N_stop
1201  49.56753954  117.32672976 both 110 N_stop
1201  49.56752357  117.32669106 both 111 N_stop
1201  49.56749390  117.32660837 both 112 N_stop
1201  49.56746995  117.32652745 both 113 N_stop
1201  49.56745854  117.32647116 both 114 N_stop
1201  49.56745397  117.32640079 both 115 N_stop
1201  49.56744941  117.32631987 both 116 N_stop
1201  49.56744941  117.32626006 both 117 N_stop
1201  49.56745169  117.32618617 both 118 N_stop
1201  49.56301948  117.34807281 both 119 N_stop
1201  49.57046972  117.31111897 both 120 N_start
1201  49.57039034  117.31151271 both 121 12/30_split
1201  49.57032459  117.31183883 both 122 12/30_split
1201  49.57018294  117.31254143 both 123 12/30_split
1201  49.57013306  117.31278887 both 124 12/30_split
1201  49.56745379  117.32605808 both 125 12/30_split
1201  49.56715473  117.32756160 both 126 12/30_split
1201  49.56697968  117.32842988 both 127 12/30_split
1201  49.56676803  117.32947968 both 128 12/30_split
1201  49.56618561  117.33236854 both 129 12/30_split
1201  49.56338810  117.34624441 both 130 12/30_split
1201  49.56336280  117.34636989 both 131 12/30_split
1201  49.56334788  117.34644392 both 132 12/30_split
1201  49.56314390  117.34745567 both 133 12/30_split
1201  49.56308682  117.34773877 both 134 12/30_split
1201  49.56307144  117.34781509 both 135 12/30_split
1202 118 125 twoway taxiway_E N
1204 departure 12,30
1204 arrival 12,30
1202 134 133 twoway taxiway_E N
1204 departure 12,30
1204 arrival 12,30
1202 135 134 twoway taxiway_E N
1204 departure 12,30
1204 arrival 12,30
1204 ils 30
1202 0 135 twoway taxiway_E N
1204 departure 12,30
1204 arrival 12,30
1202 1 0 twoway taxiway_E N
1204 departure 12,30
1204 arrival 12,30
1202 2 1 twoway taxiway_E N
1204 departure 12,30
1204 arrival 12,30
1202 3 2 twoway taxiway_E N
1204 departure 12,30
1204 arrival 12,30
1202 4 3 twoway taxiway_E N
1204 departure 12,30
1204 arrival 12,30
1202 5 4 twoway taxiway_E N
1204 departure 12,30
1204 arrival 12,30
1202 6 5 twoway taxiway_E N
1204 departure 12,30
1204 arrival 12,30
1202 7 6 twoway taxiway_E N
1204 departure 12,30
1204 arrival 12,30
1202 8 7 twoway taxiway_E N
1204 departure 12,30
1204 arrival 12,30
1202 132 8 twoway taxiway_E N
1204 departure 12,30
1204 arrival 12,30
1202 131 132 twoway taxiway_E N
1204 departure 12,30
1204 arrival 12,30
1202 130 131 twoway taxiway_E N
1204 departure 12,30
1204 arrival 12,30
1202 121 122 twoway taxiway_E N
1204 departure 12,30
1204 arrival 12,30
1202 9 121 twoway taxiway_E N
1204 departure 12,30
1204 arrival 12,30
1202 10 9 twoway taxiway_E N
1204 departure 12,30
1204 arrival 12,30
1202 11 10 twoway taxiway_E N
1204 departure 12,30
1204 arrival 12,30
1202 12 11 twoway taxiway_E N
1204 departure 12,30
1204 arrival 12,30
1202 13 12 twoway taxiway_E N
1204 departure 12,30
1204 arrival 12,30
1202 14 13 twoway taxiway_E N
1204 departure 12,30
1204 arrival 12,30
1202 15 14 twoway taxiway_E N
1204 departure 12,30
1204 arrival 12,30
1202 16 15 twoway taxiway_E N
1204 departure 12,30
1204 arrival 12,30
1202 17 16 twoway taxiway_E N
1204 departure 12,30
1204 arrival 12,30
1202 18 17 twoway taxiway_E N
1204 departure 12,30
1204 arrival 12,30
1202 19 18 twoway taxiway_E N
1204 departure 12,30
1204 arrival 12,30
1202 20 19 twoway taxiway_E N
1204 departure 12,30
1204 arrival 12,30
1202 21 20 twoway taxiway_E N
1204 departure 12,30
1204 arrival 12,30
1202 22 21 twoway taxiway_E N
1204 departure 12,30
1204 arrival 12,30
1202 23 22 twoway taxiway_E N
1204 departure 12,30
1204 arrival 12,30
1202 123 23 twoway taxiway_E N
1204 departure 12,30
1204 arrival 12,30
1202 124 123 twoway taxiway_E N
1204 departure 12,30
1204 arrival 12,30
1202 126 127 twoway taxiway_E N
1204 departure 12,30
1204 arrival 12,30
1202 24 126 twoway taxiway_E N
1204 departure 12,30
1204 arrival 12,30
1202 25 24 twoway taxiway_E N
1204 departure 12,30
1204 arrival 12,30
1202 26 25 twoway taxiway_E N
1204 departure 12,30
1204 arrival 12,30
1202 27 26 twoway taxiway_E N
1204 departure 12,30
1204 arrival 12,30
1202 28 27 twoway taxiway_E N
1204 departure 12,30
1204 arrival 12,30
1202 29 28 twoway taxiway_E N
1204 departure 12,30
1204 arrival 12,30
1202 30 29 twoway taxiway_E N
1204 departure 12,30
1204 arrival 12,30
1202 31 30 twoway taxiway_E N
1204 departure 12,30
1204 arrival 12,30
1202 32 31 twoway taxiway_E N
1204 departure 12,30
1204 arrival 12,30
1202 33 32 twoway taxiway_E N
1204 departure 12,30
1204 arrival 12,30
1202 34 33 twoway taxiway_E N
1204 departure 12,30
1204 arrival 12,30
1202 105 34 twoway taxiway_E N
1204 departure 12,30
1204 arrival 12,30
1202 104 90 twoway taxiway_E N
1202 90 35 twoway taxiway_E N
1202 36 91 twoway taxiway_E N
1202 37 36 twoway taxiway_E N
1202 38 37 twoway taxiway_E N
1202 39 38 twoway taxiway_E N
1202 40 39 twoway taxiway_E N
1202 41 40 twoway taxiway_E N
1202 42 41 twoway taxiway_E N
1202 43 42 twoway taxiway_E N
1202 44 43 twoway taxiway_E N
1202 45 44 twoway taxiway_E N
1202 104 45 twoway taxiway_E N
1202 46 129 twoway taxiway_E N
1204 departure 12,30
1204 arrival 12,30
1202 47 46 twoway taxiway_E N
1204 departure 12,30
1204 arrival 12,30
1202 48 47 twoway taxiway_E N
1204 departure 12,30
1204 arrival 12,30
1202 49 48 twoway taxiway_E N
1204 departure 12,30
1204 arrival 12,30
1202 50 49 twoway taxiway_E N
1204 departure 12,30
1204 arrival 12,30
1202 51 50 twoway taxiway_E N
1204 departure 12,30
1204 arrival 12,30
1202 52 51 twoway taxiway_E N
1204 departure 12,30
1204 arrival 12,30
1202 53 52 twoway taxiway_E N
1204 departure 12,30
1204 arrival 12,30
1202 54 53 twoway taxiway_E N
1204 departure 12,30
1204 arrival 12,30
1202 55 54 twoway taxiway_E N
1204 departure 12,30
1204 arrival 12,30
1202 56 55 twoway taxiway_E N
1204 departure 12,30
1204 arrival 12,30
1202 72 56 twoway taxiway_E N
1204 departure 12,30
1204 arrival 12,30
1202 57 128 twoway taxiway_E N
1204 departure 12,30
1204 arrival 12,30
1202 58 57 twoway taxiway_E N
1204 departure 12,30
1204 arrival 12,30
1202 59 58 twoway taxiway_E N
1204 departure 12,30
1204 arrival 12,30
1202 60 59 twoway taxiway_E N
1204 departure 12,30
1204 arrival 12,30
1202 61 60 twoway taxiway_E N
1204 departure 12,30
1204 arrival 12,30
1202 62 61 twoway taxiway_E N
1204 departure 12,30
1204 arrival 12,30
1202 63 62 twoway taxiway_E N
1204 departure 12,30
1204 arrival 12,30
1202 64 63 twoway taxiway_E N
1204 departure 12,30
1204 arrival 12,30
1202 65 64 twoway taxiway_E N
1204 departure 12,30
1204 arrival 12,30
1202 66 65 twoway taxiway_E N
1204 departure 12,30
1204 arrival 12,30
1202 67 66 twoway taxiway_E N
1204 departure 12,30
1204 arrival 12,30
1202 68 67 twoway taxiway_E N
1204 departure 12,30
1204 arrival 12,30
1202 69 68 twoway taxiway_E N
1204 departure 12,30
1204 arrival 12,30
1202 70 69 twoway taxiway_E N
1204 departure 12,30
1204 arrival 12,30
1202 71 70 twoway taxiway_E N
1204 departure 12,30
1204 arrival 12,30
1202 72 71 twoway taxiway_E N
1204 departure 12,30
1204 arrival 12,30
1202 73 72 twoway taxiway_E N
1204 departure 12,30
1204 arrival 12,30
1202 74 73 twoway taxiway_E N
1202 75 74 twoway taxiway_E N
1202 76 75 twoway taxiway_E N
1202 77 76 twoway taxiway_E N
1202 78 77 twoway taxiway_E N
1202 79 78 twoway taxiway_E N
1202 80 79 twoway taxiway_E N
1202 81 80 twoway taxiway_E N
1202 82 81 twoway taxiway_E N
1202 83 82 twoway taxiway_E N
1202 84 83 twoway taxiway_E N
1202 85 84 twoway taxiway_E N
1202 86 85 twoway taxiway_E N
1202 89 90 twoway taxiway_E N
1202 90 91 twoway taxiway_E N
1202 91 86 twoway taxiway_E N
1202 88 87 twoway taxiway_E N
1202 89 88 twoway taxiway_E N
1202 92 89 twoway taxiway_E N
1202 93 92 twoway taxiway_E N
1202 94 93 twoway taxiway_E N
1202 95 94 twoway taxiway_E N
1202 96 95 twoway taxiway_E N
1202 97 96 twoway taxiway_E N
1202 98 97 twoway taxiway_E N
1202 99 98 twoway taxiway_E N
1202 100 99 twoway taxiway_E N
1202 101 100 twoway taxiway_E N
1202 102 101 twoway taxiway_E N
1202 103 102 twoway taxiway_E N
1202 104 103 twoway taxiway_E N
1202 105 104 twoway taxiway_E N
1202 106 105 twoway taxiway_E N
1204 departure 12,30
1204 arrival 12,30
1202 107 106 twoway taxiway_E N
1204 departure 12,30
1204 arrival 12,30
1202 108 107 twoway taxiway_E N
1204 departure 12,30
1204 arrival 12,30
1202 109 108 twoway taxiway_E N
1204 departure 12,30
1204 arrival 12,30
1202 110 109 twoway taxiway_E N
1204 departure 12,30
1204 arrival 12,30
1202 111 110 twoway taxiway_E N
1204 departure 12,30
1204 arrival 12,30
1202 112 111 twoway taxiway_E N
1204 departure 12,30
1204 arrival 12,30
1202 113 112 twoway taxiway_E N
1204 departure 12,30
1204 arrival 12,30
1202 114 113 twoway taxiway_E N
1204 departure 12,30
1204 arrival 12,30
1202 115 114 twoway taxiway_E N
1204 departure 12,30
1204 arrival 12,30
1202 116 115 twoway taxiway_E N
1204 departure 12,30
1204 arrival 12,30
1202 117 116 twoway taxiway_E N
1204 departure 12,30
1204 arrival 12,30
1202 118 117 twoway taxiway_E N
1204 departure 12,30
1204 arrival 12,30
1202 120 121 twoway runway 12/30
1204 departure 12,30
1204 arrival 12,30
1204 ils 12,30
1202 121 122 twoway runway 12/30
1204 departure 12,30
1204 arrival 12,30
1204 ils 12,30
1202 122 123 twoway runway 12/30
1204 departure 12,30
1204 arrival 12,30
1204 ils 12,30
1202 123 124 twoway runway 12/30
1204 departure 12,30
1204 arrival 12,30
1204 ils 12,30
1202 124 125 twoway runway 12/30
1204 departure 12,30
1204 arrival 12,30
1204 ils 12,30
1202 125 126 twoway runway 12/30
1204 departure 12,30
1204 arrival 12,30
1204 ils 12,30
1202 126 127 twoway runway 12/30
1204 departure 12,30
1204 arrival 12,30
1204 ils 12,30
1202 127 128 twoway runway 12/30
1204 departure 12,30
1204 arrival 12,30
1204 ils 12,30
1202 128 129 twoway runway 12/30
1204 departure 12,30
1204 arrival 12,30
1204 ils 12,30
1202 129 130 twoway runway 12/30
1204 departure 12,30
1204 arrival 12,30
1204 ils 12,30
1202 130 131 twoway runway 12/30
1204 departure 12,30
1204 arrival 12,30
1204 ils 12,30
1202 131 132 twoway runway 12/30
1204 departure 12,30
1204 arrival 12,30
1204 ils 12,30
1202 132 133 twoway runway 12/30
1204 departure 12,30
1204 arrival 12,30
1204 ils 12,30
1202 133 134 twoway runway 12/30
1204 departure 12,30
1204 arrival 12,30
1204 ils 12,30
1202 134 135 twoway runway 12/30
1204 departure 12,30
1204 arrival 12,30
1204 ils 12,30
1202 135 119 twoway runway 12/30
1204 departure 12,30
1204 arrival 12,30
1204 ils 12,30
99
